begin
? inident "STree: jehl-borov"
 ! all 119
new
? type grass
? subtype 4
 ! all 116
 ! sat 43
 ! hue -7
new
? inident "STree: list-akat-maly"
 ! sat 58
 ! add 7 4080FF
new
? type terrain
 ! contr 115
new
? inident "STree: list-akatojerab"
 ! sat 70
end
