begin
? type terrain
 ! contr 122
 ! sat 67
new
? type grass
? subtype 4
 ! sat 49
 ! contr 92
 ! all 104
new
? type boulder
 ! contr 129
 ! sat 129
new
? inident VRES
 ! sat 83
new
? inident "STree: list-sahara"
 ! hue -15
new
? inident "STree: list-akatojerab"
 ! sat 75
 ! hue -15
 ! rgb 100 116 100
 ! all 102
 ! contr 89
new
? inident "STree: list-akat-rosti"
 ! all 110
 ! sat 83
 ! hue -22
new
? inident "STree: ker-rosti"
 ! hue -37
 ! contr 108
end
