MAIN_DEFINITIONS
  SIZE 160 100
  TICK 0
  PLAYER_NUMBER 2
  FOG_TYPE 0
  FOGSIDES 1 2 3 4 5 6 7 8
  MAP_GBI am14a_cont.gbi
  MUCHY_RECT 0 0 0 0
  EAGLES 0 50
  WAVES 20
  WATER_COLORS E8E860 3 FFE0D0 3 FFE0D0
END_OF_MAIN_DEFINITIONS

HEXES
  LINE 0 0 159
    t4v5 t4v5 t4v5 t4v5 t4v5 t4v5 t4v5 t4v5 t4v5 t4v5 t4v5 t4v5 t4v5 t4v5 t4v5 t4v5 t4v5 t4v5 t4v5 t4v5 t4v5 t4v5 t4v5 t4v5 t4v5 t4v5 t4v5 t4v5 t4v5 t4v5 t4v5 t4v5 t4v5 t4r6v5sn t4r6vBsn t4r6vHsn t4r6vNsn t4r6vT t4r6vT t4r6vT t4r6vT t4r6vT t4r6vT t4r6vT t4r6vT t4r6vQsS t4r6vKsq t4r6vEsq t4r6vEsm t4r6vK t4r6vEsq t4r6vE t4r6vE t4r6vEsn t4r6vK t4r6vK t4r6vK t4r6vKsn t4r6vQsP t4r6vT t4r6vT t4r6vT t4r6vT t4r6vT t4r6vT t4r6vT t4r6vNsq t4r6vN t4r6vN t4r6vHsq t4r6vBsq t4v8sS t4v8 t4v8 t4v8 t4v8 t4v8 t4v8 t4v8 t4v8 t4v8 t4v8 t4r6v8sn t4r6vEsn t4r6vKsn t4r6vQsn t4r6vW t4r6vW t4r6vW t4r6vW t4r6vW t4r6vW t4r6vWsn t4r6vcs9 t4r6vd t4r6vd t4r6vd t4r6vd t4r6vd t4r6vd t4r6vd t4r6vd t4r6vd t4r6vd t4r6vd t4r6vcsC t4r6vWsq t4r6vW t4r6vQsq t4r6vKsq t4r6vEsq t4r6vE t4r6v8sq t4v8 t4v8 t4v8 t4v8 t4v8 t4v8 t4v8 t4v8 t4v8 t4v8 t4v8 t4v8 t4v8 t4v8 t4v8 t4v8 t4v8 t4v8 t4v8 t4v8 t4v8 t4v8 t4v8 t4v8 t4v8 t4v8 t4v8 t4v8 t4v8 t4v8 t4v8 t4v8 t4v8 t4v8 t4v8 t4v8 t4v8 t4v8 t4v8 t4v8 t4v8 t4v8 t4v8 t4v8 t4v8 t4v8 t4v8
  LINE 1 1 160
    t4v5 t2v5 t2v5 t2v5 t2v5 t2v5 t2v5 t2v5 t2v5 t2v5 t2v5 t2v5 t2v5 t2v5 t2v5 t2v5 t2v5 t2v5 t2v5 t2v5 t2v5 t2v5 t2v5 t2v5 t2v5 t2v5 t2v5 t2v5 t2v5 t2v5 t2v5 t2v5 t2v5 t2r6v5sn t2r6vBsn t2r6vHsn t2r6vNsn t2r6vT t2r6vQsT t2r6vQsT t2r6vQsO t2r6vQsO t2r6vT t2r6vT t2r6vQsS t2r6vKsq t2r6vEsq t2r6vE t2r6vEsm t2r6vEsr t2r6vE t2r6vE t2r6vE t2r6vEsm t2r6vHsO t2r6vEsr t2r6vEsm t2r6vKsm t2r6vNsm t2r6vNsm t2r6vNsm t2r6vNsm t2r6vT t2r6vNsr t2r6vNsr t2r6vNsr t2r6vHsr t2r6vHsr t2r6vHsr t2r6vBsq t2v8sS t2v8 t2v8 t2v8 t2v8 t2v8 t2v8 t2v8 t2v8 t2v8 t2v8 t2v8 t2r6v8sn t2r6vEsn t2r6vKsn t2r6vQsm t2r6vQsm t2r6vW t2r6vW t2r6vW t2r6vW t2r6vWsn t2r6vcs9 t2r6vd t2r6vd t2r6vd t2r6vd t2r6vd t2r6vd t2r6vd t2r6vd t2r6vd t2r6vd t2r6vd t2r6vcsC t2r6vWsq t2r6vQsr t2r6vQsr t2r6vKsq t2r6vEsq t2r6v8sr t2r6v8sr t2v8 t2v8 t2v8 t2v8 t2v8 t2v8 t2v8 t2v8 t2v8 t2v8 t2v8 t2v8 t2v8 t2v8 t2v8 t2v8 t2v8 t2v8 t2v8 t2v8 t2v8 t2v8 t2v8 t2v8 t2v8 t2v8 t2v8 t2v8 t2v8 t2v8 t2v8 t2v8 t2v8 t2v8 t2v8 t2v8 t2v8 t2v8 t2v8 t2v8 t2v8 t2v8 t2v8 t2v8 t2v8 t2v8 t2v8 t4v8
  LINE 2 1 160
    t4v5 t2v5 v5 v5 v5 v5 v5 v5 v5 v5 v5 v5 v5 v5 v5 v5 v5 v5 v5 v5 v5 v5 v5 v5 v5 v5 v5 v5 v5 v5 v5 v5 v5 r6v5sn r6vBsn r6vHsn r6vNsn r6vT r6vQsT r6vKsr r6vKsm r6vKsm r6vQsO r6vT r6vT r6vQsS r6vKsq r6vEsq r6vE r6vE r6vE r6vE r6vE r6vE r6vEsO r6vEsT r6vE r6vEsm r6vHsm r6vHsm r6vHsm r6vHsm r6vNsm r6vNsr r6vHsr r6vHsr r6vHsr r6vBsr r6vBsr r6vBsr v8sS v8 v8 v8 v8 v8 v8 v8 v8 v8 v8 v8 v8 r6v8sn r6vEsn r6vKsm r6vKsm r6vQsm r6vW r6vW r6vW r6vWsn r6vcs9 r6vd r6vd r6vd r6vd r6vd r6vd r6vd r6vd r6vd r6vd r6vd r6vcsC r6vWsq r6vQsq r6vKsr r6vKsr r6vEsq r6v8sq r6v8 v8 v8 v8 v8 v8 v8 v8 v8 v8 v8 v8 v8 v8 v8 v8 v8 v8 v8 v8 v8 v8 v8 v8 v8 v8 v8 v8 v8 v8 v8 v8 v8 v8 v8 v8 v8 v8 v8 v8 v8 v8 v8 v8 v8 v8 v8 t2v8 t4v8
  LINE 3 2 161
    t4v5 t2v5 v5 v5 v5 v5 v5 v5 v5 v5 v5 v5 v5 v5 v5 v5 v5 v5 v5 v5 v5 v5 v5 v5 v5 v5 v5 v5 v5 v5 v5 v5 v5 r6v5sn r6vBsn r6vHsn r6vNsm r6vQsT r6vKsr r6vEsr r6vEsm r6vKsm r6vQsO r6vT r6vNsr r6vNsT r6vHsq r6vEsS r6vE r6vE r6vE r6vE r6vE r6vE r6vE r6vE r6vBsT r6vBsm r6vBsm r6vBsm r6vBsm r6vHsm r6vHsm r6vHsr r6vBsr r6vBsr r6vBsr r6v5sr r6v5sm v8sT v8 v8 v8 v8 v8 v8 v8 v8 v8 v8 v8 v8 v8 r6v8sm r6vEsm r6vEsm r6vKsm r6vQsm r6vW r6vW r6vWsn r6vcs9 r6vd r6vd r6vd r6vd r6vd r6vd r6vd r6vd r6vd r6vd r6vd r6vcsC r6vWsq r6vQsq r6vKsq r6vEsr r6vEsr r6v8sq r6v8 v8 v8 v8 v8 v8 v8 v8 v8 v8 v8 v8 v8 v8 v8 v8 v8 v8 v8 v8 v8 v8 v8 v8 v8 v8 v8 v8 v8 v8 v8 v8 v8 v8 v8 v8 v8 v8 v8 v8 v8 v8 v8 v8 v8 v8 v8 v8 t2v8 t4v8
  LINE 4 2 161
    t4v5 t2v5 v5 v5 v5 v5 v5 v5 v5 v5 v5 v5 v5 v5 v5 v5 v5 v5 v5 v5 v5 v5 v5 v5 v5 v5 v5 v5 v5 v5 v5 v5 v5 r6v5 r6v5sn r6vBsn r6vHsm r6vNsO r6vKsr r6vEsr r6vE r6vEsm r6vKsm r6vNsm r6vNsr r6vHsr r6vHsr r6vBsr r6vBsT r6vBsT r6vBsT r6vBsT r6vBsT r6vBsT r6vBsT r6vBsT r6vBsT r6v5sr r6v5sm r6v5sm r6v5sm r6vBsm r6vBsm r6vBsm r6vBsr r6v5sr r6v5sr r6v5sr v5 v5sO v8 v8 v8 v8 v8 v8 v8 v8 v8 v8 v8 v8 v8 v8 r6v8sm r6v8sm r6vEsm r6vKsm r6vQsm r6vQsm r6vW r6vWsn r6vcs9 r6vd r6vd r6vd r6vd r6vd r6vd r6vd r6vd r6vd r6vd r6vcsC r6vWsq r6vQsq r6vKsq r6vEsq r6v8sr r6v8sr r6v8 v8 v8 v8 v8 v8 v8 v8 v8 v8 v8 v8 v8 v8 v8 v8 v8 v8 v8 v8 v8 v8 v8 v8 v8 v8 v8 v8 v8 v8 v8 v8 v8 v8 v8 v8 v8 v8 v8 v8 v8 v8 v8 v8 v8 v8 v8 v8 t2v8 t4v8
  LINE 5 3 162
    t4v5 t2v5 v5 v5 v5 v5 v5 v5 v5 v5 v5 v5 v5 v5 v5 v5 v5 v5 v5 v5 v5 v5 v5 v5 v5 v5 v5 v5 v5 v5 v5 v5 v5 r6v5 r6v5sn r6vBsm r6vHsm r6vKsT r6vEsr r6vE r6vE r6vEsm r6vHsm r6vHsm r6vHsr r6vBsr r6vBsr r6v5sr r6v5sr r6v5sr r6v5sr r6v5sr r6v5sr r6v5sr r6v5sr r6v5sr r6v5sr r6v5 v5 v5 r6v5sm r6v5sm r6v5sm r6v5sm r6v5sr r6v5 v5 v5 v5 v5sO v5sO v8 v8 v8 v8 v8 v8 v8 v8 v8 v8 v8 v8 v8 v8 r6v8sm r6vEsm r6vKsm r6vKsm r6vQsm r6vQsm r6vWsm r6vcs8 r6vcs8 r6vd r6vd r6vd r6vd r6vd r6vd r6vd r6vd r6vcsC r6vWsq r6vQsq r6vKsq r6vEsq r6v8sq r6v8 r6v8 v8 v8 v8 v8 v8 v8 v8 v8 v8 v8 v8 v8 v8 v8 v8 v8 v8 v8 v8 v8 v8 v8 v8 v8 v8 v8 v8 v8 v8 v8 v8 v8 v8 v8 v8 v8 v8 v8 v8 v8 v8 v8 v8 v8 v8 v8 v8 v8 t2v8 t4v8
  LINE 6 3 162
    t4v5 t2v5 v5 v5 v5 v5 v5 v5 v5 v5 v5 v5 v5 v5 v5 v5 v5 v5 v5 v5 v5 v5 v5 v5 v5 v5 v5 v5 v5 v5 v5 v5 v5 v5 r6v5 r6v5sm r6vBsm r6vHsO r6vEsr r6vE r6vE r6vE r6vBsm r6vBsm r6vBsm r6vBsr r6v5sr r6v5sr r6v5 v5 v5 v5 v5 v5 v5 v5 v5 v5 v5 v5 v5 v5 v5 v5 v5 v5 v5 v5 v5 v5 v5 v5sO v5sO v5sO v5sO v5sO v5sO v5sO v8 v8 v8 v8 v8 v8 v8 v8 r6v8sm r6vEsm r6vEsm r6vKsm r6vKsm r6vQsm r6vWsm r6vWsm r6vXsm r6vXsm r6vXsm r6vd r6vd r6vd r6vd r6vd r6vcsC r6vWsq r6vQsq r6vKsq r6vEsq r6v8sq r6v8 v8 v8 v8 v8 v8 v8 v8 v8 v8 v8 v8 v8 v8 v8 v8 v8 v8 v8 v8 v8 v8 v8 v8 v8 v8 v8 v8 v8 v8 v8 v8 v8 v8 v8 v8 v8 v8 v8 v8 v8 v8 v8 v8 v8 v8 v8 v8 v8 v8 t2v8 t4v8
  LINE 7 4 163
    t4v5 t2v5 v5 v5 v5 v5 v5 v5 v5 v5 v5 v5 v5 v5 v5 v5 v5 v5 v5 v5 v5 v5 v5 v5 v5 v5 v5 v5 v5 v5 v5 v5 v5 v5 v5 r6v5sm r6vBsm r6vBsr r6vBsT r6vBsT r6vBsT r6vBsT r6v5sr r6v5sm r6v5sm r6v5sr v5 v5 v5 v5 v5 v5 v5 v5 v5 v5 v5 v5 v5 v5 v5 v5 v5 v5 v5 v5 v5 v5 v5 v5 v5 v5 v5 v5 v5 v5 v5 v5sO v8 v8 v8 v8 v8 v8 v8 v8 r6v8sm r6v8sm r6vEsm r6vEsm r6vKsm r6vQsm r6vQsm r6vRsm r6vRsm r6vRsm r6vXsm r6vd r6vd r6vd r6vd r6vd r6vcsC r6vWsq r6vQsq r6vKsq r6vEsq r6v8sq r6v8 v8 v8 v8 v8 v8 v8 v8 v8 v8 v8 v8 v8 v8 v8 v8 v8 v8 v8 v8 v8 v8 v8 v8 v8 v8 v8 v8 v8 v8 v8 v8 v8 v8 v8 v8 v8 v8 v8 v8 v8 v8 v8 v8 v8 v8 v8 v8 v8 v8 t2v8 t4v8
  LINE 8 4 163
    t4v5 t2v5 v5 v5 v5 v5 v5 v5 v5f2 v5 v5 v5 v5 v5 v5 v5 v5 v5 v5 v5 v5 v5 v5 v5 v5 v5 v5 v5 v5 v5 v5 v5 v5 v5 v5 v5 r6v5sm r6v5sm r6v5sr r6v5sr r6v5sr r6v5sr r6v5sr v5 v5 v5 v5 v5 v5 v5 v5 v5 v5 v5 v5 v5 v5 v5 v5 v5 v5 v5 v5 v5 v5 v5 v5 v5 v5 v5 v5 v5 v5 v5 v5 v5 v5 v5 v5sO v8 v8 v8 v8 v8 v8 v8 v8 v8 r6v8sm r6v8sm r6vEsm r6vKsm r6vKsm r6vLsm r6vLsm r6vLsm r6vRsm r6vXsm r6vXsm r6vd r6vd r6vd r6vcsC r6vWsq r6vQsq r6vKsq r6vEsq r6v8sq r6v8 v8 v8 v8 v8 v8 v8 v8 v8 v8 v8 v8 v8 v8 v8 v8 v8 v8 v8 v8 v8 v8 v8 v8 v8 v8 v8 v8 v8 v8 v8 v8 v8 v8 v8 v8 v8 v8 v8 v8 v8 v8 v8 v8 v8 v8 v8 v8 v8 v8 t2v8 t4v8
  LINE 9 5 164
    t4v5 t2v5 v5 v5 v5 v5 v5 v5 v5 v5 v5 v5 v5 v5 v5 v5 v5 v5 v5 v5 v5 v5 v5 v5 v5 v5 v5 v5 v5 v5 v5 v5 v5 v5 v5 v5 v5 r6v5 r6v5 v5 v5 v5 v5 v5 v5 v5 v5 v5 v5 v5 v5 v5 v5 v5 v5 v5 v5 v5 v5 v5 v5 v5 v5 v5 v5 v5 v5 v5 v5 v5 v5 v5 v5 v5 v5 v5 v5 v5 v5sO v8 v8 v8 v8 v8 v8 v8 v8 v8 v8 r6v8sm r6vEsm r6vEsm r6vKs8 r6vL r6vL r6vLsm r6vRsm r6vRsm r6vXsm r6vd r6vd r6vcsC r6vWsq r6vQsq r6vKsq r6vEsq r6v8sq r6v8 v8 v8 v8 v8 v8 v8 v8 v8 v8 v8 v8 v8 v8 v8 v8 v8 v8 v8 v8 v8 v8 v8 v8 v8 v8 v8 v8 v8 v8 v8 v8 v8 v8 v8 v8 v8 v8 v8 v8 v8 v8 v8 v8 v8 v8 v8 v8 v8 v8 v8 t2v8 t4v8
  LINE 10 5 164
    t4v5 t2v5 v5 v5 v5 v5 v5 v5 v5 v5 v5 v5 v5 v5 v5 v5 v5 v5 v5 v5 v5 v5 v5 v5 v5 v5 v5 v5 v5 v5 v5 v5 v5 v5 v5 v5 v5 v5 v5 v5 v5 v5 v5 v5 v5 v5 v5 v5 v5 v5 v5 v5 v5 v5 v5 v5 v5 v5 v5 v5 v5 v5 v5 v5 v5 v5 v5 v5 v5 v5 v5 v5 v5 v5 v5 v5 v5 v5 v5 v5sO v8 v8 v8 v8 v8 v8 v8 v8 v8 v8 r6v8sm r6v8sm r6vEsm r6vKs8 r6vL r6vL r6vLsm r6vLsm r6vRsm r6vXsm r6vd r6vcsC r6vWsq r6vQsq r6vKsq r6vEsq r6v8sq v8 v8 v8 v8 v8 v8 v8 v8 v8 v8 v8 v8 v8 v8 v8 v8 v8 v8 v8 v8 v8 v8 v8 v8 v8 v8 v8 v8 v8 v8 v8 v8 v8 v8 v8 v8 v8 v8 v8 v8 v8 v8 v8 v8 v8 v8 v8 v8 v8 v8 v8 t2v8 t4v8
  LINE 11 6 165
    t4v5 t2v5 v5 v5 v5 v5 v5 v5 v5 v5 v5 v5 v5 v5 v5 v5 v5 v5 v5 v5 v5 v5 v5 v5 v5 v5 v5 v5 v5 v5 v5 v5 v5 v5 v5 v5 v5 v5 v5 v5 v5 v5 v5 v5 v5 v5 v5 v5 v5 v5 v5 v5 v5 v5 v5 v5 v5 v5 v5 r6v5so r6v5sp v5 v5 v5 v5 v5 v5 v5 v5 v5 v5 v5 v5 v5 v5 v5 v5 v5 v5 v5sO v8 v8 v8 v8 v8 v8 v8 v8 v8 v8 v8 r6v8sm r6vEsm r6vKs8 r6vL r6vL r6vL r6vLsn r6vRsn r6vXsn r6vcsD r6vWsq r6vQsq r6vKsq r6vEsq r6v8sq v8 v8 v8 v8 v8 v8 v8 v8 v8 v8 v8 v8 v8 v8 v8 v8 v8 v8 v8 v8 r6v8 r6v8so r6v8sp r6v8 r6v8 r6v8 v8 v8 v8 v8 v8 v8 v8 v8 v8 v8 v8 v8 v8 v8 v8 v8 v8 v8 v8 v8 v8 v8 v8 v8 v8 v8 t2v8 t4v8
  LINE 12 6 165
    t4v5 t2v5 v5 v5 v5 v5 v5 v5 v5 v5 v5 v5 v5 v5 v5 v5 v5 v5 v5 v5 v5 v5 v5 v5 v5 v5 v5 v5 v5 v5 v5 v5 v5 v5 v5 v5 v5 v5 v5 v5 v5 v5 v5 v5 v5 v5 v5 v5 v5 v5 v5 v5 v5 v5 v5 v5 v5 v5 v5 r6v5sn r6vB r6v5sp r6v5sp v5 v5 v5 v5 v5 v5 v5 v5 v5 v5 v5 v5 v5 v5 v5 v5 v5 v5sO v8 v8 v8 v8 v8 v8 v8 v8 v8 v8 v8 r6v8sm r6vEsm r6vKs8 r6vLsg r6vLso r6vLso r6vRsn r6vXsf r6vc r6vWsr r6vQsq r6vKsq r6vEsq r6v8sq v8 v8 v8 v8 v8 v8 v8 v8 v8 v8 v8 v8 v8 v8 v8 v8 v8 v8 v8 v8 r6v8 r6v8so r6vE r6v8sp r6v8sp r6v8 r6v8 v8 v8 v8 v8 v8 v8 v8 v8 v8 v8 v8 v8 v8 v8 v8 v8 v8 v8 v8 v8 v8 r6v8 r6v8sg r6v8sg r6v8sh t2r6v8 t4v8
  LINE 13 7 166
    t4v5 t2v5 v5 v5 v5 v5 v5 v5 v5 v5 v5 v5 v5 v5 v5 v5 v5 v5 v5 v5 v5 v5 v5 v5 v5 v5 v5 v5 v5 v5 v5 v5 v5 v5 v5 v5 v5 v5 v5 v5 v5 v5 v5 v5 v5 v5 v5 v5 v5 v5 v5 v5 v5 v5 v5 v5 v5 v5 r6v5sn r6vB r6vB r6vB r6v5sp v5 v5 v5 v5 v5 v5 v5 v5 v5 v5 v5 v5 v5 v5 v5 v5 v5 v5sO v8 v8 v8 v8 v8 v8 v8 v8 v8 v8 v8 r6v8sm r6vEsm r6vKsn r6vQs9 r6vRsY r6vRsn r6vXsX r6vbs8 r6vWsr r6vQsr r6vKsq r6vEsq r6v8sq v8 v8 v8 v8 v8 v8 v8 v8 v8 v8 v8 v8 v8 v8 v8 v8 v8 v8 v8 v8 r6v8 r6v8so r6vEso r6vEsp r6vEsp r6v8sp r6v8 r6v8 v8 v8 v8 v8 v8 v8 v8 v8 v8 v8 v8 v8 v8 v8 v8 v8 v8 v8 v8 v8 r6v8sg r6v8sg r6vDso r6vDsp r6v8sh t2r6v8 t4v8
  LINE 14 7 166
    t4v5 t2v5 v5 v5 v5 v5 v5 v5 v5 v5 v5 v5 v5 v5 v5 v5 v5f2 v5 v5 v5 v5 v5 v5 v5 v5 v5 v5 v5 v5 v5 v5 v5 v5 v5 v5 v5 v5 v5 v5 v5 v5 v5 v5 v5 v5 v5 v5 v5 v5 v5 v5 v5 v5 v5 v5 v5 v5 v5 v5 r6v5sm r6v5sm r6vB r6vB r6v5sq v5 v5 v5 v5 v5 v5 v5 v5 v5 v5 v5 v5 v5 v5 v5 v5 v5 v5sO v8 v8 v8 v8 v8 v8 v8 v8 v8 v8 v8 r6v8sm r6vEsm r6vKsn r6vQsf r6vV r6vVsG r6vVsm r6vVsr r6vQsr r6vKsr r6vEsq r6v8sq v8 v8 v8 v8 v8 v8 v8 v8 v8 v8 v8 v8 v8 v8 v8 v8 v8 v8 v8 v8 r6v8 r6v8so r6vEso r6vKsg r6vKsh r6vEsp r6v8sp r6v8sp v8 v8 v8 v8 v8 v8 v8 v8 v8 v8 v8 v8 v8 v8 v8 v8 v8 v8 v8 v8 r6v8sg r6vDso r6vDso r6vJ r6vDsp t2r6v8sh t4r6v8
  LINE 15 8 167
    t4v5 t2v5 v5 v5 v5 v5 v5 v5 v5 v5 v5 v5 v5 v5 v5 v5 v5 v5 v5 v5 v5 v5 v5 v5 v5 v5 v5 v5 v5 v5 v5 v5 v5 v5 v5 v5 v5 v5 v5 v5 v5 v5 v5 v5 v5 v5 v5 v5 v5 r6v5 r6v5 r6v5so r6v5so r6v5sp r6v5sB v5 v5 v5 v5 v5 r6v5sm r6v5sm r6v5sr v5 v5 v5 v5 v5 v5 v5 v5 v5 v5 v5 v5 v5 v5 v5 v5 v5 v5 v5sO v8 v8 v8 v8 v8 v8 v8 v8 v8 v8 v8 r6v8sm r6vEsm r6vKsm r6vPsm r6vPsm r6vPsm r6vPsm r6vPsr r6vKsr r6vEsr r6v8sq v8 v8 v8 v8 v8 v8 v8 v8 v8 v8 v8 v8 v8 v8 v8 v8 v8 v8 v8 v8 r6v8 r6v8sn r6vEsn r6vKsf r6vP r6vKsh r6vEsp r6vEsp r6v8sp r6v8 r6v8 v8 v8 v8 v8 v8 v8 v8 v8 v8 v8 v8 v8 v8 v8 v8 v8 v8 r6v8sf r6vDsn r6vJ r6vJ r6vJ r6vDsp t2r6v8sh t4r6v8
  LINE 16 8 167
    t4v5 t2v5 v5 v5 v5 v5 v5 v5 v5 v5 v5 v5 r6v5sQ r6v5sQ r6v5sR v5 r6v5 r6v5 v5 v5 v5 v5 v5 v5 v5 v5 v5 v5 v5 v5 v5 v5 v5 v5 v5 v5 v5 v5 v5 v5 v5 v5 v5 v5 v5 v5 v5 v5 v5 r6v5so r6v5so r6v5so r6vBso r6vBsp r6v6sh r6v5sB v5 v5 v5 v5 v5 v5 v5 v5 v5 v5 v5 v5 v5 v5 v5 v5 v5 v5 v5 v5 v5 v5 v5 v5 v5 v5 v5sO v8 v8 v8 v8 v8 v8 v8 v8 v8 v8 v8 r6v8sm r6vEsm r6vJsm r6vJsm r6vJsm r6vJsm r6vJsm r6vJsr r6vEsr r6v8sr v8 v8 v8 v8 v8 v8 v8 v8 v8 v8 v8 v8 v8 v8 v8 v8 v8 v8 v8 v8 r6v8 r6v8sn r6vEsn r6vKsf r6vP r6vP r6vKsh r6vKsh r6vEsp r6v8sp r6v8sp r6v8 r6v8 v8 v8 v8 v8 v8 v8 v8 v8 v8 v8 v8 v8 v8 v8 v8 r6v8sf r6vDsn r6vJ r6vJ r6vJ r6vJ t2r6vDsq t4r6v8si
  LINE 17 9 168
    t4v5 t2v5 v5 v5 v5 v5 v5 v5 v5 v5 v5 r6v5sQ r6v8sg r6v8sh r6v5sh r6v5sh r6v5sh r6v5sh v5 v5 v5 v5 v5 v5 v5 v5 v5 v5 v5 v5 v5 v5 v5 v5 v5 v5 v5 v5 v5 v5 v5 v5 v5 v5 v5 v5 v5 r6v5 r6v5so r6vBso r6vBso r6vBso r6vH r6vBsq r6v6si r6v5sC v5 v5 v5 v5 v5 v5 v5 v5 v5 v5 v5 v5 v5 v5 v5 v5 v5 v5 v5 v5 v5 v5 v5 v5 v5 v5 v5sP v8 v8 v8 v8 v8 v8 v8 v8 v8 v8 r6v8 r6v8sn r6vEsm r6vJsW r6vJsW r6vJsW r6vJsW r6vJs8 r6vEsi r6v8sq v8 v8 v8 v8 v8 v8 v8 v8 v8 v8 v8 v8 v8 v8 v8 v8 v8 v8 v8 v8 v8 r6v8 r6v8sn r6vEsn r6vKsf r6vP r6vP r6vP r6vKsh r6vEsp r6vEsp r6v8sp r6v8 r6v8 r6v8 v8 v8 v8 v8 v8 v8 v8 v8 v8 v8 v8 v8 v8 r6v8sf r6vD r6vDsn r6vJ r6vJ r6vJ r6vDsq t2r6v8si t4r6v8
  LINE 18 9 168
    t4v5 t2v5 v5 v5 v5 v5 v5 v5 v5 v5 v5 r6v5sQ r6v8sg r6vD r6vAsR r6vAsR r6vA r6vA r6v5si v5 v5 v5 v5 v5 v5 v5 v5 v5 v5 v5 v5 v5 v5 v5 v5 v5 v5 v5 v5 v5 v5 v5 v5 v5 v5 v5 v5 v5 r6v5sn r6vBsn r6vH r6vH r6vH r6vBsq r6vB r6v5sq r6v5 v5 v5 v5 v5 v5 v5 v5 v5 v5 v5 v5 v5 v5 v5 v5 v5 v5 v5 v5 v5 v5 v5 v5 v5 v5 v5sP v8 v8 v8 v8 v8 v8 v8 v8 v8 v8 v8 r6v8sn r6vEsn r6vKsP r6vN r6vN r6vN r6vKsS r6vEsq r6v8sq r6v8 v8 v8 v8 v8 v8 v8 v8 v8 v8 v8 v8 v8 v8 v8 v8 v8 v8 v8 v8 v8 v8 r6v8sn r6vEsn r6vKsf r6vP r6vP r6vP r6vP r6vKsi r6vK r6vEsp r6v8sp r6v8sp r6v8 r6v8 v8 v8 v8 v8 v8 v8 v8 v8 v8 v8 v8 v8 r6v8sf r6vD r6vD r6vDsn r6vJ r6vJ r6vJ t2r6vDsq t4r6v8si
  LINE 19 10 169
    t4v5 t2v5 v5 v5 v5 v5 v5 v5 v5 v5 r6v5sP r6v8sf r6vD r6vD r6vD r6vAsS r6vA r6v5si v5 v5 v5 v5 v5 v5 v5 v5 v5 v5 v5 v5 v5 v5 v5 v5 v5 v5 v5 v5 v5 v5 v5 v5 v5 v5 v5 v5 v5 r6v5sn r6vB r6vBsm r6vBsm r6vH r6vBsq r6vB r6vB r6v5sq r6v5 v5 v5 v5 v5 v5 v5 v5 v5 v5 v5 v5 v5 v5 v5 v5 v5 v5 v5 v5 v5 v5 v5 v5 v5 v5 v5sP v8 v8 v8 v8 v8 v8 v8 v8 v8 v8 r6v8sn r6vEsn r6vKsP r6vN r6vN r6vN r6vN r6vKsS r6vEsq r6v8sq v8 v8 v8 v8 v8 v8 v8 v8 v8 v8 v8 v8 v8 v8 v8 v8 v8 v8 v8 v8 v8 r6v8 r6v8sn r6vEsn r6vKsf r6vP r6vP r6vP r6vKsi r6vK r6vK r6vEsp r6vEsp r6v8sp r6v8 r6v8 v8 v8 v8 v8 v8 v8 v8 v8 v8 v8 v8 r6v8sf r6vD r6vD r6vD r6vDsn r6vJ r6vJ r6vJ t2r6vDsq t4r6v8si
  LINE 20 10 169
    t4v5 t2v5 v5 v5 v5 v5 v5 v5 v5 v5 r6v5sP r6v8sf r6vD r6vD r6v7sr r6v7sr r6v4sr r6v4sr v4s8 v5 v5 v5 v5 v5 v5 v5 v5 v5 v5 v5 v5 v5 v5 v5 v5 v5 v5 v5 v5 v5 v5 v5 v5 v5 v5 v5 v5 v5 r6v5sm r6v5sm r6v5sm r6vBsm r6vBsr r6vB r6vB r6vB r6v5sq r6v5 v5 v5 v5 v5 r6v5 r6v5 r6v5 v5 v5 v5 v5 v5 v5 v5 v5 v5 v5 v5 v5 v5 v5 v5 v5 v5 v5 v5sP v8 v8 v8 v8 v8 v8 v8 v8 v8 v8 r6v8sn r6vEsn r6vKsP r6vN r6vHsr r6vHsm r6vKsT r6vEsq r6v8sq v8 v8 v8 v8 v8 v8 v8 v8 v8 v8 v8 v8 v8 v8 v8 v8 v8 v8 v8 v8 v8 v8 r6v8 r6v8sn r6vEsn r6vKsf r6vP r6vP r6vKsi r6vK r6vK r6vKso r6vKsp r6vEsp r6v8sp r6v8sp r6v8 r6v8 r6v8 v8 v8 v8 v8 v8 v8 v8 v8 v8 r6v8se r6vD r6vD r6vD r6vDsm r6vJ r6vDsr t2r6vDsr t4r6v8si
  LINE 21 11 170
    t4v5 t2v5 v5 v5 v5 v5 v5 v5 v5 v5 r6v5sO r6v7sm r6v7sr r6v7sr r6v1sr r6v1sr r6v1sO v3s8 v4s8 v4s8 v5 v5 v5 v5 v5 v5 v5 v5 v5 v5 v5 v5 v5 v5 v5 v5 v5 v5 v5 v5 v5 v5 v5 v5 v5 v5 v5 v5 v5 v5 r6v5sm r6v5sm r6vB r6vB r6vB r6vB r6v5sq v5 v5 v5 v5 r6v5so r6v5so r6v5so r6v5so r6v5sp v5 v5 v5 v5 v5 v5 v5 v5 v5 v5 v5 v5 v5 v5 v5 v5 v5 v5sP v8 v8 v8 v8 v8 v8 v8 v8 v8 r6v8sn r6vEsn r6vKsP r6vN r6vHsr r6vH r6vHsO r6vEsr r6v8sq v8 v8 v8 v8 v8 v8 v8 v8 v8 v8 v8 v8 v8 v8 v8 v8 v8 v8 v8 v8 v8 v8 v8 r6v8sn r6vEsn r6vKsf r6vP r6vP r6vKsi r6vK r6vK r6vKso r6vQ r6vKsp r6vEsp r6vEsp r6v8sp r6v8sp r6v8sp r6v8sp r6v8 v8 v8 v8 v8 v8 v8 v8 v8 r6v8se r6v8se r6v8se r6v8se r6vDsm r6vDsr r6v8sj t2r6v8sj t4v8
  LINE 22 11 170
    t4v5 t2v5 v5 v5 v5 v5 v5 v5 v5 v2sT v2sO r6v2se r6v1sr r6v1sr r6v1sr v1 v1 v1sH v3s8 v3s8 v4s8 v5 v5 v5 v5 v5 v5 v5 v5 v5 v5 v5 v5 v5 v5 v5 v5 v5 v5 v5 v5 v5 v5 v5 v5 v5 v5 v5 v5 v5 v5 v5 r6v5sm r6vB r6vB r6vB r6v5sq v5 v5 v5 v5 r6v5sn r6vB r6vB r6vB r6vB r6v5sq v5 v5 v5 v5 v5 v5 v5 v5 v5 v5 v5 v5 v5 v5 v5 v5 v5 v5sP v8 v8 v8 v8 v8 v8 v8 v8 v8 r6v8sn r6vEsn r6vKsO r6vHsr r6vH r6vH r6vEsT r6v8sr v8 v8 v8 v8 v8 v8 v8 v8 v8 v8 v8 v8 v8 v8 v8 v8 v8 v8 v8 v8 v8 v8 v8 r6v8 r6v8sn r6vEsn r6vKsf r6vP r6vKsi r6vK r6vK r6vKso r6vQsA r6vQsB r6vKsp r6vKsp r6vEsp r6vEsp r6vEsp r6vEsp r6v8sp r6v8sp r6v8 v8 v8 v8 v8 v8 v8 v8 v8 v8 v8 r6v8se r6v8se r6v8sj t2v8 t4v8
  LINE 23 12 171
    t4v5 t2v5 v5 v5 v5 v5 v5 v2sT v2sT v1sD v1s8 v1sD v1 v1 v1 v1 v1s9 v2s8 v2s8 v3s8 v4s8 v5 v5 v5 v5 v5 v5 v5 v5 v5 v5 v5 v5 v5 v5 v5 v5 v5 v5 v5 v5 v5 v5 v5 v5 v5 v5 v5 v5 v5 v5 v5 r6v5sn r6vB r6vB r6v5sq r6v5 v5 v5 v5 v5 r6v5sn r6vB r6vB r6vB r6v5sq v5 v5 v5 v5 v5 v5 v5 v5 v5 v5 v5 v5 v5 v5 v5 v5 v5 v5s9 v6sG v7s8 v8 v8 v8 v8 v8 v8 v8 v8 r6v8sn r6vEsm r6vHsT r6vH r6vH r6vEsT r6v8sr v8 v8 v8 v8 v8 v8 v8 v8 v8 v8 v8 v8 v8 v8 v8 v8 v8 v8 v8 v8 v8 v8 v8 v8 r6v8 r6v8sn r6vEsn r6vKse r6vKsj r6vK r6vK r6vKso r6vQsA r6vR r6vQsB r6vQsB r6vKsp r6vKsp r6vKsp r6vKsp r6vEsp r6vE r6v8sq r6v8 v8 v8 v8 v8 v8 v8 v8 v8 v8 v8 v8 v8 v8 t2v8 t4v8
  LINE 24 12 171
    t4v5 t2v5 v5 v5 v5 v5 v5 v2sT v1sD v1sD v1 v1 v1 v1 v1 v1 v1 v1s8 v1s8 v2s8 v3s8 v4s8 v5 v5 v5 v5 v5 v5 v5 v5 v5 v5 v5 v5 v5 v5 v5 v5 v5 v5 v5 v5 v5 v5 v5 v5 v5 v5 v5 v5 v5 v5 r6v5sn r6vB r6vB r6v5sq r6v5 v5 v5 v5 v5 r6v5sn r6vB r6vB r6vB r6v5sq v5 v5 v5 v5 v5 v5 v5 v5 v5 v5 v5 v5 v5 v5 v5 v5 v5 v5 v5s8 v6s8 v7s8 v8 v8 v8 v8 v8 v8 v8 v8 r6v8sm r6vEsO r6vH r6vH r6vEsT r6v8sr v8 v8 v8 v8 v8 v8 v8 v8 v8 v8 v8 v8 v8 v8 v8 v8 v8 v8 v8 v8 v8 v8 v8 v8 v8 r6v8sn r6vEsn r6vK r6vK r6vK r6vK r6vKso r6vQsA r6vR r6vR r6vRsg r6vQsp r6vQsp r6vQsp r6vQsp r6vKsp r6vEsp r6v8sq r6v8 r6v8 v8 v8 v8 v8 v8 v8 v8 v8 v8 v8 v8 v8 t2v8 t4v8
  LINE 25 13 172
    t4v5 t2v5 v5 v5 v5 v2sT v2sT v1sD v1 v1 v1 v1 v1 v1 v1 v1 v1 v1 v1s8 v2s8 v3s8 v4s8 v5 v5 v5 v5 v5 v5 v5 v5 v5 v5 v5 v5 v5 v5 v5 v5 v5 v5 v5 v5 v5 v5 v5 v5 v5 v5 v5 v5 v5 r6v5 r6v5sm r6vB r6v5sq v5 v5 v5 v5 v5 r6v5sn r6vB r6vB r6vB r6v5sq r6v5 v5 v5 v5 v5 v5 v5 v5 v5 v5 v5 v5 v5 v5 v5 v5 v5 v5 v5 v5s8 v6s8 v7s8 v8 v8 v8 v8 v8 v8 v8 v8 r6v8sm r6vEsO r6vEsT r6vEsT r6v8sr v8 v8 v8 v8 v8 v8 v8 v8 v8 v8 v8 v8 v8 v8 v8 v8 v8 v8 v8 v8 v8 v8 v8 v8 v8 r6v8 r6v8sn r6vEsn r6vK r6vK r6vK r6vKso r6vQsA r6vR r6vR r6vRso r6vWso r6vWsp r6vWsh r6vWsR r6vQsp r6vKsp r6vEsp r6v8sp r6v8 v8 v8 v8 v8 v8 v8 v8 v8 v8 v8 v8 v8 v8 t2v8 t4v8
  LINE 26 13 172
    t4v5 t2v5 v5 v5 v5 v2sS v1sD v1sD v1 v1 v1 v1 v1 v1 v1 v1 v1 v1 v1 v1s8 v2s8 v2sG v4s8 v5 v5 v5 v5 v5 v5 v5 v5 v5 v5 v5 v5 v5 v5 v5 v5 v5 v5 v5 v5 v5 v5 v5 v5 v5 v5 v5 v5 v5 v5 r6v5sm r6v5sr v5 v5 v5 v5 r6v5 r6v5sn r6vB r6vB r6vB r6vB r6v5sq v5 v5 v5 v5 v5 v5 v5 v5 v5 v5 v5 v5 v5 v5 v5 v5 v5 v5 v5 v5s8 v6s8 v7s8 v8 v8 v8 v8 v8 v8 v8 v8 r6v8sm r6vE r6v8sr r6v8sr v8 v8 v8 v8 v8 v8 v8 v8 v8 v8 v8 v8 v8 v8 v8 v8 v8 v8 v8 v8 v8 v8 v8 v8 v8 v8 r6v8 r6v8sn r6vEsn r6vK r6vK r6vKso r6vQsA r6vR r6vR r6vRsn r6vXsf r6vc r6vbsB r6vZsJ r6vWsR r6vQsp r6vKsp r6vEsp r6v8sp r6v8 v8 v8 v8 v8 v8 v8 v8 v8 v8 v8 v8 v8 t2v8 t4v8
  LINE 27 14 173
    t4v5 t2v5 v5 v5 v2sS v1sC v1 v1 v1 v1 v1 v1 v1 v1 v1 v1 v1 v1 v1 v1s8 v1s8 v2sG v4sW r6v5sR r6v5 v5 v5 v5 v5 v5 v5 v5 v5 v5 v5 v5 v5 v5 v5 v5 v5 v5 v5 v5 v5 v5 v5 v5 v5 v5 v5 v5 v5 v5 v5 v5 v5 v5 r6v5so r6v5so r6vB r6vB r6vB r6v5sr r6v5sr v5 v5 v5 v5 v5 v5 v5 v5 v5 v5 v5 v5 v5 v5 v5 v5 v5 v5 v5 v5 v5s8 v6s8 v7s8 v8 v8 v8 v8 v8 v8 v8 v8 r6v8sm r6v8sr v8 v8 v8 v8 v8 v8 v8 v8 v8 v8 v8 v8 v8 v8 v8 v8 v8 v8 v8 v8 v8 v8 v8 v8 v8 v8 v8 v8 r6v8 r6v8sn r6vEsn r6vK r6vKsn r6vQs9 r6vR r6vR r6vRsn r6vXsf r6vc r6vc r6vbsC r6vZsK r6vWsS r6vQsq r6vKsq r6vEsq r6v8sq v8 v8 v8 v8 v8 v8 v8 v8 v8 v8 v8 v8 v8 t2v8 t4v8
  LINE 28 14 173
    t4v5 t2v5 v5 v5 r6v5 r6v2sS v1sC v1 v1 v1 v1 v1 v1 v1 v1 v1 v1 v1 v1 v1 v1f2 v1s9f2 r6v2snf2 r6v8sQ r6v5sp r6v5sp r6v5sp r6v5 v5 v5 v5 v5 v5 v5 v5 v5 v5 v5 v5 v5 v5 v5 v5 v5 v5 v5 v5 v5 v5 v5 v5 v5 v5 v5 v5 v5 v5 v5 r6v5so r6vBso r6vBsp r6vB r6vB r6v5sr r6v5 r6v5 v5 v5 v5 v5 v5 v5 v5 v5 v5 v5 v5 v5 v5 v5 v5 v5 v5 v5 v5 v5 v5s8 v6s8 v7s8 v8 v8 v8 v8 v8 v8 v8 v8 v8 v8 v8 v8 v8 v8 v8 v8 v8 v8 v8 v8 v8 v8 v8 v8 v8 v8 v8 v8 v8 v8 v8 v8 v8 v8 v8 v8 v8 v8 v8 r6v8sn r6vEsn r6vKsn r6vQs9 r6vR r6vR r6vR r6vRsn r6vXsf r6vc r6vbsC r6vZsK r6vWsS r6vQsq r6vKsq r6vEsq r6v8sq r6v8 v8 v8 v8 v8 v8 v8 v8 v8 v8 v8 v8 v8 t2v8 t4v8
  LINE 29 15 174
    t4v5 t2v5 v5 r6v5 r6v2sS r6v1sC v1 v1 v1 v1 v1 v1 v1 v1 v1 v1 v1 v1f2 v1f2 v1f2 r6v1s9f2 r6v2snf2 r6v8so r6vBso r6vBsp r6vBsp r6v5spf2 r6v5spf2 r6v5f2 r6v5f2 r6v5f2 r6v5f2 r6v5f2 v5 v5 v5 v5 v5 v5 v5 v5 v5 v5 v5 v5 v5 v5 v5 v5 v5 v5 v5 v5 v5 v5 v5 v5 r6v5sn r6vBsn r6vH r6vBsp r6vB r6v5sr r6v5 r6v5 v5 v5 v5 v5 v5 v5 v5 v5 v5 v5 v5 v5 v5 v5 v5 v5 v5 v5 v5 v5 v5 v5s9 v6s9 v7s9 v8 v8 v8 v8 v8 v8 v8 v8 v8 v8 v8 v8 v8 v8 v8 v8 v8 v8S v8 v8 v8 v8 v8 v8 v8 v8 v8 v8 v8 v8 v8 v8 v8 v8 v8 v8 v8 v8 r6v8 r6v8sn r6vEsn r6vKsn r6vQs9 r6vR r6vR r6vRsn r6vXsf r6vc r6vbsC r6vZsK r6vWsS r6vQsq r6vKsq r6vEsq r6vE r6v8sq r6v8 v8 v8 v8 v8 v8 v8 v8 v8 v8 v8 v8 v8 t2v8 t4v8
  LINE 30 15 174
    t4v5 t2v5 r6v5so r6v5sp r6v2sq r6v1sC v1 v1 v1 v1 v1 v1 v1 v1 v1 v1f2 v1f2 v1f2 v1f2 v1f2 r6v1s9f2 r6v2snf2 r6v8snf2 r6vEsP r6vHsQ r6vHsR r6vBsp r6vBsp r6v5spf2 r6v5f2 r6v5f2 r6v5sof2 r6v5spf2 r6v5f2 v5f2 v5f2 v5 v5 v5 v5 v5 v5 v5 v5 v5 v5 v5 v5 v5 v5 v5 v5 v5 v5 v5 v5 v5 r6v5sn r6vB r6vBsm r6vH r6vBsq r6v5sq r6v5 v5 v5 v5 v5 v5 v5 v5 v5 v5 v5 v5 v5 v5 v5 v5 v5 v5 v5 v5 v5sQ v5sQ v5sQ v5sQ v6sI v7sA v8 v8 v8 v8 v8 v8 v8 v8 v8 v8 v8 v8 v8 v8 v8 v8 v8 v8 v8 v8 v8 v8 v8 v8 v8 v8 v8 v8 v8 v8 v8 v8 v8 v8 v8 v8 v8 v8 r6v8 r6v8sn r6vEsn r6vKsn r6vQs9 r6vR r6vR r6vRsn r6vXsf r6vc r6vbsD r6vWsj r6vWsT r6vQsq r6vKsq r6vEsq r6v8sr r6v8sr r6v8 v8 v8 v8 v8 v8 v8 v8 v8 v8 v8 v8 v8 t2v8 t4v8
  LINE 31 16 175
    t4v5 t2r6v5so r6vB r6v8sS r6v2sq r6v1sC v1 v1 v1 v1 v1 v1 v1 v1f2 v1f2 v1f2 v1f2 v1f2 v1f2 v1f2 r6v1s9f2 r6v2snf2 r6v8snf2 r6vEsn r6vK r6vHsR r6vHsR r6vBspf2 r6v5spf2 r6v5f2 r6v5sof2 r6vBf2 r6v5spf2 r6v5f2 v5f2 v5f2 v5f2 v5f2 v5 v5 v5 v5 v5 v5 v5 v5 v5 v5 v5 v5 v5 v5 v5 v5 v5 r6v5so r6v5so r6vB r6vB r6vBsm r6vBsr r6v5sq r6v5 v5 v5 v5 v5 v5 v5 v5 v5 v5 v5 v5 v5 v5 v5 v5 v5 v5 v5 v5sQ v5sQ v8 v8 v8 v8 v8 v8 v8 v8 v8 v8 v8 v8 v8 v8 v8 v8 v8 v8 v8 v8 v8 v8 v8 v8 v8 v8 v8 v8 v8 v8 v8 v8 v8 v8 v8 v8 v8 v8 v8 v8 v8 v8 v8 r6v8 r6v8sn r6vEsn r6vKsn r6vQs9 r6vR r6vR r6vRsn r6vXsf r6vc r6vasL r6vWsj r6vQsr r6vQsr r6vKsq r6vEsq r6v8sq v8 v8 v8 v8 v8 v8 v8 v8 v8 v8 v8 v8 v8 v8 v8 t2v8 t4v8
  LINE 32 16 175
    t4r6v5so t2r6v5so r6vBsQ r6v8sq r6v2sq r6v1sC r6v1 v1 v1 v1 v1 v1 v1f2 v1f2 v1f2 v1f2 v1f2 v1f2 v1f2 v1f2 r6v1s9f2 r6v2snf2 r6v8snf2 r6vEf2 r6vEsmf2 r6vKf2 r6vKf2 r6vHsRf2 r6vBspf2 r6v5spf2 r6v5sof2 r6vBsQf2 r6vBsRf2 r6v5spf2 r6v5f2 v5f2 v5f2 v5f2 v5f2 v5f2 v5 v5 v5 v5 v5 v5 v5 v5 v5 v5 v5 v5 v5 v5 v5 r6v5sn r6vBso r6vBsp r6vB r6vB r6v5sr r6v5sr r6v5 v5 v5 v5 v5 v5 v5 v5f2 v5 v5 v5 v5 v5 v5 v5 v5 v5 v5 v5sQ v5sQ v8 v8 v8 v8 v8 v8 v8 v8 v8 v8 v8 v8 v8 v8 v8 v8 v8 v8 v8 v8 v8 v8 v8 v8 v8 v8 v8 v8 v8 v8 v8 v8 v8 v8 v8 v8 v8 v8 v8 v8 v8 v8 v8 v8 v8 r6v8sn r6vEsn r6vKsn r6vQs9 r6vR r6vR r6vRsn r6vXsf r6vc r6vWsr r6vWsb r6vQsr r6vKsr r6vKsr r6vEsq r6v8sq v8 v8 v8 v8 v8 v8 v8 v8 v8 v8 v8 v8 v8 v8 v8 t2v8 t4v8
  LINE 33 17 176
    t4r6vBsQ t2r6vBsQ r6vE r6v8sq r6v2sq r6v1sC v1 v1 v1 v1 v1f2 v1f2 v1f2 v1f2 v1f2 v1f2 v1f2 v1f2 v1f2 v1f2 r6v1s9f2 r6v2snf2 r6v8smf2 r6v8smf2 r6vEsmf2 r6vEsmf2 r6vKf2 r6vHsSf2 r6vBspf2 r6vBsQf2 r6vBsQf2 r6vEf2 r6vBsRf2 r6v5spf2 r6v5f2 v5f2 v5f2 v5f2 v5f2 v5f2 v5f2 v5 v5 v5 v5 v5 v5 v5 v5 v5 v5 v5 v5 v5 r6v5sn r6vBsn r6vH r6vBsp r6vB r6v5sr r6v5 r6v5 v5 v5 v5 v5 v5 v5 v5 v5 v5 v5 v5 v5 v5 v5 v5 v5 v5sQ v5sQ v8 v8 v8 v8 v8 v8 v8 v8 v8 v8 v8 v8 v8 v8 v8 v8 v8 v8 v8 v8 v8 v8 v8 v8 v8 v8 v8 v8 v8 v8 v8 v8 v8 v8 v8 v8 v8 v8 v8 v8 v8 v8 v8 v8 v8 v8 r6v8 r6v8sn r6vEsn r6vKsn r6vQs9 r6vR r6vR r6vRsn r6vXse r6vWsr r6vQsr r6vQsr r6vKsr r6vEsr r6vEsr r6v8sq v8 v8 v8 v8 v8 v8 v8 v8 v8 v8 v8 v8 v8 v8 v8 v8 t2v8 t4v8
  LINE 34 17 176
    t4r6vEsA t2r6vEsA r6vEsA r6v9sq r6v3sq r6v1sK r6v1 v1 v1 v1f2 v1f2 v1f2 v1f2 v1f2 v1f2 v1f2 v1f2 v1f2 v1f2 v1f2 v1f2 r6v1s8f2 r6v2smf2 r6v2smf2 r6v8smf2 r6v8smf2 r6vEsmf2 r6vEsmf2 r6vHf2 vEsSf2 vEf2 vEf2 r6vEf2 r6vBsSf2 r6v5sqf2 v5f2 v5f2 v5f2 v5f2 v5f2 v5f2 v5f2 v5f2 v5 v5 v5 v5 v5 v5 v5 v5 v5 v5 v5 v5 r6v5sn r6vBsn r6vH r6vBsq r6v5sq r6v5 r6v5 v5 v5 v5 v5 v5 v5 v5 v5 v5 v5 v5 v5 v5 v5 v5sA v5sI v5sQ v8 v8 v8 v8 v8 v8 v8 v8 v8 v8 v8f2 v8 v8 v8 v8 v8 v8 v8 v8 v8 v8 v8 v8 v8 v8 v8 v8 v8 v8 v8 v8 v8 v8 v8 v8 v8 v8 v8 v8 v8 v8 v8 v8 v8 v8 v8 v8 r6v8 r6v8sn r6vEsn r6vKsn r6vQs9 r6vR r6vR r6vRsf r6vWs8 r6vWsD r6vQsr r6vKsr r6vKsr r6vEsr r6v8sr r6v8sr v8 v8 v8 v8 v8 v8 v8 v8 v8 v8 v8 v8 v8 v8 v8 v8 t2v8 t4v8
  LINE 35 18 177
    t4r6vFso t2r6vFso r6vFsp r6v9sq r6v3sq r6v1sK v1 v1 v1f2 v1f2 v1f2 v1f2 v1f2 v1f2 v1f2 v1f2 v1f2 v1f2 v1f2 v1f2 v1f2 r6v1s8f2 r6v1s8f2 r6v2smf2 r6v2smf2 r6v8smf2 r6v8smf2 r6vEsOf2 vEsTf2 vEf2 vEf2 vEf2 r6vBsSf2 r6v5sqf2 r6v5f2 v5f2 v5f2 v5f2 v5f2 v5f2 v5f2 v5f2 v5f2 v5 v5 v5 v5 v5 v5 v5 v5 v5 v5 v5 r6v5sn r6vB r6vBsm r6vBsr r6v5sq r6v5 v5 v5 v5 v5 v5 v5 v5 v5 v5 v5 v5 v5 v5 v5 v5 v5s9 v6s9 v7s9 v8 v8 v8 v8 v8 v8 v8 v8 v8 v8 v8 v8 v8 v8 v8 v8 v8 v8 v8 v8 v8 v8 v8 v8 v8 v8 v8 v8 v8 v8 v8 v8 v8 v8 v8 v8 v8 v8 v8 v8 v8 v8 v8 v8 v8 v8 v8 r6v8 r6v8sn r6vEsn r6vKsn r6vQs9 r6vR r6vR r6vR r6vRse r6vQsr r6vQsr r6vKsr r6vEsr r6vEsr r6v8sr v8 v8 v8 v8 v8 v8 v8 v8 v8 v8 v8 v8 v8 v8 v8 v8 v8 v8 t2v8 t4v8
  LINE 36 18 177
    t4r6vL t2r6vL r6vL r6vFsq r6v9sq r6v3sq r6v1sK v1f2 v1f2 v1f2 v1f2 v1f2 v1f2 v1f2 v1f2 v1f2 v1f2 v1f2 v1f2 v1f2 v1f2 v1f2 v1f2 r6v1s8f2 r6v1s8f2 r6v2smf2 r6v2smf2 r6v8smf2 r6vEf2 vEf2 vEf2 vEf2 vEf2 r6vBsSf2 r6v5sqf2 r6v5f2 v5f2 v5f2 v5f2 v5f2 v5f2 v5f2 v5f2 v5f2 v5f2 v5 v5 v5 v5 v5 v5 v5 v5 v5 r6v5sn r6vB r6vB r6v5sr r6v5sr r6v5 v5 v5 v5 v5 v5 v5 v5 v5 v5 v5 v5 v5 v5 v5 v5 v5 v5s9 v6s9 v7s9 v8 v8 v8 v8 v8 v8 v8 v8 v8 v8 v8 v8 v8 v8 v8 v8 v8 v8 v8 v8 v8 v8 v8 v8 v8 v8 v8 v8 v8 v8 v8 v8 v8 v8 v8 v8 v8 v8 v8 v8 v8 v8 v8 v8 v8 v8 r6v8 r6v8sn r6vEsn r6vKsn r6vQs9 r6vR r6vR r6vR r6vR r6vQsD r6vKsr r6vKsr r6vEsr r6v8sr r6v8sr v8 v8 v8 v8 v8 v8 v8 v8 v8 v8 v8 v8 v8 v8 v8 v8 v8 v8 t2v8 t4v8
  LINE 37 19 178
    t4r6vL t2r6vL r6vFsq r6v9sq r6v3sq r6v1sK v1f2 v1f2 v1f2 v1f2 v1f2 v1f2 v1f2 v1f2 v1f2 v1f2 v1f2 v1f2 v1f2 v1f2 v1f2 v1f2 v1f2 v1f2 r6v1s8f2 r6v1s8f2 r6v2smf2 r6v8smf2 vEf2 vEf2 vEf2 vEf2 vEf2 r6vBsSf2 r6v5sqf2 r6v5f2 v5f2 v5f2 v5f2 v5f2 v5f2 v5f2 v5f2 v5f2 v5f2 v5 v5 v5 v5 v5 v5 v5 v5 r6v5sn r6vB r6vB r6v5sr r6v5 v5 v5 v5 v5 v5 v5 v5 v5 v5 v5 v5 v5 v5 v5 v5 v5 v5 v5s9 v6s9 v7s9 v8 v8 v8 v8 v8 v8 v8 v8 v8 v8 v8 v8 v8 v8 v8 v8 v8 v8 v8 v8 v8 v8 v8 v8 v8 v8 v8 v8 v8 v8 v8 v8 v8 v8 v8 v8 v8 v8 v8 v8 v8 v8 v8 v8 v8 v8 r6v8 r6v8sn r6vEsn r6vKsn r6vQs9 r6vR r6vR r6vR r6vQsD r6vQsD r6vKsr r6vEsr r6vEsr r6v8sr r6v8 v8 v8 v8 v8 v8 v8 v8 v8 v8 v8 v8 v8 v8 v8 v8 v8 v8 v8 v8 t2v8 t4v8
  LINE 38 19 178
    t4r6vFsm t2r6vL r6vFsq r6vEsC r6v8sq r6v2sq r6v1sCf2 v1f2 v1f2 v1f2 v1f2 v1f2 v1f2 v1f2 v1f2 v1f2 v1f2 v1f2 v1f2 v1f2 v1f2 v1f2 v1f2 v1f2 v1f2 v1f2 r6v1s8f2 r6v2smf2 r6v8smf2 vEf2 vEf2 vEf2 vEf2 r6vEf2 r6vBsSf2 r6v5sqf2 v5f2 v5f2 v5f2 v5f2 v5f2 v5f2 v5f2 v5f2 v5f2 v5f2 v5f2 v5 v5 v5 v5 v5 r6v5 r6v5 r6v5sn r6vB r6v5sr r6v5 v5 v5 v5 v5 v5 v5 v5 v5 v5 v5 v5 v5 v5 v5 v5 v5 v5 v5 v5s9 v6s9 v7s9f2 v8 v8 v8 v8 v8 v8 v8 v8 v8 v8 v8 v8 v8 v8 v8 v8 v8 v8 v8 v8 v8 v8 v8 v8 v8 v8 v8 v8 v8 v8 v8 v8 v8 v8 v8 v8 v8 v8 v8 v8 v8 v8 v8 v8 v8 r6v8 r6v8sn r6vEsn r6vKsn r6vQs9 r6vR r6vR r6vR r6vQsD r6vKsr r6vKsr r6vEsr r6v8sr r6v8sr r6v8 v8 v8 v8 v8 v8 v8 v8 v8 v8 v8 v8 v8 v8 v8 v8 v8 v8 v8 v8 t2v8 t4v8
  LINE 39 20 179
    t4r6vFsm t2r6vFsr r6vEsC r6v8sq r6v2sq r6v1sCf2 v1f2 v1f2 v1f2 v1f2 v1f2 v1f2 v1f2 v1f2 v1f2 v1f2 v1f2 v1f2 v1f2 v1f2 v1f2 v1f2 v1f2 v1f2 v1f2 v1f2 r6v1s9f2 r6v2snf2 r6v8snf2 vEf2 vEf2 vEf2 vEf2 r6vBsSf2 r6v5sqf2 r6v5f2 v5f2 v5f2 v5f2 v5f2 v5f2 v5f2 v5f2 v5f2 v5f2 v5f2 v5f2 v5 v5 v5 v5 r6v5 r6v5so r6v5so r6vB r6v5sr r6v5 v5 v5 v5 v5 v5 v5 v5 v5 v5 v5 v5 v5 v5 v5 v5 v5 v5 v5 v5s9 v6s9 v7s9 v8 v8 v8 v8 v8 v8 v8 v8 v8 v8 v8 v8 v8 v8 v8 v8 v8 v8 v8 v8 v8 v8 v8 v8 v8 v8h8 v8h8 v8h8 v8h8 v8h8 v8h8 v8h8 v8 v8 v8 v8 v8 v8 v8 v8 v8 v8 v8 v8 v8 v8 r6v8sn r6vEsn r6vKsn r6vQs9 r6vR r6vQsD r6vQsD r6vQsD r6vKsr r6vEsr r6vEsr r6v8sr r6v8 v8 v8 v8 v8 v8 v8 v8 v8 v8 v8 v8 v8 v8 v8 v8 v8 v8 v8 v8 v8 v8 t2v8 t4v8
  LINE 40 20 179
    t4r6vEs8 t2r6vF r6vEsC r6vE r6v8sq r6v2sqf2 r6v1sCf2 v1f2 v1f2 v1f2 v1f2 v1f2 v1f2 v1f2 v1f2 v1f2 v1f2 v1f2 v1f2 v1f2 v1f2 v1f2 v1f2 v1f2 v1f2 v1f2 r6v1s9f2 r6v2snf2 r6v8snf2 r6vEf2 vEf2 vEf2 vEf2 vEf2 r6vBsSf2 r6v5sqf2 r6v5f2 v5f2 v5f2 v5f2 v5f2 v5f2 v5f2 v5f2 v5f2 v5f2 v5f2 v5f2 v5 v5 v5 v5 r6v5sn r6vB r6vB r6v5sr r6v5 v5 v5 v5 v5 v5 v5 v5 v5 v5 v5 v5 v5 v5 v5 v5 v5 v5 v5 v5 v5s9 v6s9 v7s9 v8 v8 v8 v8 v8 v8 v8 v8 v8 v8 v8 v8 v8 v8 v8 v8 v8 v8 v8 v8 v8 v8 v8 v8 v8h8 r8v4sbh9 r8v4sbh9 r8v4sbh9 r8v4sbh9 r8v4sWh9 r8v4sWh9 v8h8 v8h8 v8 v8 v8 v8 v8 v8 v8 v8 v8 v8 v8 v8 v8 r6v8sn r6vEsn r6vKsn r6vQs8 r6vQsD r6vKsr r6vKsr r6vKsr r6vEsr r6v8sr r6v8sr v8 v8 v8 v8 v8 v8 v8 v8 v8 v8 v8 v8 v8 v8 v8 v8 v8 v8 v8 v8 v8 v8 t2v8 t4v8
  LINE 41 21 180
    t4r6vFsp t2r6vEsC r6vE r6v8sq r6v2sqf2 r6v1sCf2 v1f2 v1f2 v1f2 v1f2 v1f2 v1f2 v1f2 v1f2 v1f2 v1f2 v1f2 v1f2 v1f2 v1f2 v1f2 v1f2 v1f2 v1f2 v1sAf2 v1sAf2 r6v2sHf2 r6v4snf2 r6vAsXf2 vEf2 vEf2 vEf2 vEf2 vEf2 r6vBsSf2 r6v5sqf2 v5f2 v5f2 v5f2 v5f2 v5f2 v5f2 v5f2 v5f2 v5f2 v5f2 v5f2 v5f2 v5 v5 v5 v5 r6v5sm r6vB r6v5sr r6v5 v5 v5 v5 v5 v5 v5 v5 v5 v5 v5 v5 v5 v5 v5 v5 v5 v5 v5 v5 v5 v5s9 v6s9 v7s9 v8 v8 v8 v8 v8 v8 v8 v8 v8 v8 v8 v8 v8 v8 v8 v8 v8 v8f2 v8 v8 v8 v8 v8h8 v8h8 r8v4sbh9 r8v4h9 r8v4h9 r8v4h9 r8v4h9 r8v4h9 r8v4sWh9 r8v4sWh9 v8h8 v8 v8 v8 v8 v8 v8 v8 v8 v8 v8 v8 v8 r6v8 r6v8sn r6vEsn r6vKsm r6vKsm r6vKsr r6vEsr r6vEsr r6vEsr r6v8sr r6v8 v8 v8 v8 v8 v8 v8 v8 v8 v8 v8 v8 v8 v8 v8 v8 v8 v8 v8 v8 v8 v8 v8 v8 t2v8 t4v8
  LINE 42 21 180
    t4r6vL t2r6vFsp r6vEsB r6vE r6v8sq r6v2sqf2 r6v1sCf2 v1f2 v1f2 v1f2 v1f2 v1f2 v1f2 v1f2 v1f2 v1f2 v1f2 v1f2 v1f2 v1f2 r6v1f2 r6v1sAf2 v1sAf2 v1sAf2 v1sAf2 v2sIf2 v2sIf2 r6v4sXf2 r6v8sHf2 r6vAsWf2 vCsGf2 vEf2 vEf2 vEf2 r6vBsSf2 r6v5sqf2 r6v5f2 v5f2 v5f2 v5f2 v5f2 v5f2 v5f2 v5f2 v5f2 v5f2 v5f2 v5f2 v5f2 v5 v5 v5 v5 r6v5sm r6v5sr r6v5 v5 v5 v5 v5 v5 v5 v5 v5 v5 v5 v5 v5 v5 v5 v5 v5 v5 v5 v5 v5 v5 v5s9 v6s9 v7s9 v8 v8 v8 v8 v8 v8 v8 v8 v8 v8 v8 v8 v8 v8 v8 v8 v8 v8 v8 v8 v8h8 v8h8 r8v4sbh9 r8v4sbh9 r8v4h9 r8v4h9 r8v4h9 r8v4h9 r8v4h9 r8v4h9 r8v4h9 r8v4sWh9 v8h8 v8 v8 v8 v8 v8 v8 v8 v8 v8 v8 v8 v8 r6v8 r6v8sm r6vEsm r6vEsm r6vEsm r6vEsr r6v8sr r6v8sr r6v8sr r6v8 v8 v8 v8 v8 v8 v8 v8 v8 v8 v8 v8 v8 v8 v8 v8 v8 v8 v8 v8 v8 v8 v8 v8 t2v8 t4v8sY
  LINE 43 22 181
    t4r6vL t2r6vFsp r6vEsB r6v8sq r6v2sqf2 r6v1sCf2 v1f2 v1f2 v1f2 v1f2 v1f2 v1f2 v1f2 v1f2 v1f2 v1f2 v1f2 v1f2 v1f2 r6v1sAf2 r6v1sAf2 r6v2sIf2 r6v2sIf2 v2sIf2 v2sIf2 v4sIf2 v4sIf2 v6sHf2 v8sHf2 vAsHf2 vCsHf2 vEf2 vEf2 vEf2 r6vBsSf2 r6v5sqf2 r6v5f2 v5f2 v5f2 v5f2 v5f2 v5f2 v5f2 v5f2 v5f2 v5f2 v5f2 v5f2 v5f2 v5 v5 v5 v5 v5 v5 v5 v5 v5 v5 v5 v5 v5 v5 v5 v5 v5 v5 v5 v5 v5 v5 v5 v5 v5 v5 v5 v5 v5s9 v6s9 v7s9 v8 v8 v8 v8 v8 v8 v8 v8 v8 v8 v8 v8 v8 v8 v8 v8 v8 v8 v8h8 v8h8 r8v4sbh9 r8v4sbh9 r8v4h9 r8v4h9 r8v4h9 r8v4h9 r8v4h9 r8v4h9 r8v4h9 r8v4h9 r8v4h9 r8v4sWh9 v8h8 v8 v8 v8 v8 v8 v8 v8 v8 v8 v8 v8 v8 r6v8 r6v8sm r6v8sm r6v8sm r6v8sm r6v8sr v8 v8 v8 v8 v8 v8 v8 v8 v8 v8 v8 v8 v8 v8 v8 v8 v8 v8 v8 v8 v8 v8 v8 v8 v8 v8 v8sY t2v8sY t4vC
  LINE 44 22 181
    t4r6vFss t2r6vL r6vFsp r6vEsC r6v8sqf2 r6v2sqf2 r6v1sCf2 v1f2 v1f2 v1f2 v1f2 v1f2 v1f2 v1f2 v1f2 v1f2 v1f2 v1f2 v1f2 r6v1sAf2 r6v2sof2 r6v2sof2 r6v4sZf2 r6v4sIf2 v4sIf2 v4sIf2 v6sIf2 v6sIf2 v8sHf2 vAsHf2 vCsHf2 vEf2 vEf2 vEf2 r6vBsSf2 r6v5sqf2 r6v5f2 v5f2 v5f2 v5f2 v5f2 v5f2 v5f2 v5f2 v5f2 v5f2 v5f2 v5f2 v5f2 v5f2 v5 v5 v5 v5 v5 v5 v5 v5 v5 v5 v5 v5 v5 v5 v5 v5 v5 v5 v5 v5 v5 v5f2 v5 v5 v5 v5 v5 v5 v5s9 v6s9 v7s9 v8 v8 v8 v8f2 v8 v8 v8 v8 v8 v8 v8 v8 v8 v8 v8 v8 v8 v8h8 r8v4sbh9 r8v4sbh9 r8v4h9 r8v4h9 r8v4h9 r8v4h9 r8v4h9 r8v4h9 r8v4h9 r8v4h9 r8v4h9 r8v4h9 r8v4h9 r8v4sWh9 v8h8 v8 v8 v8 v8 v8 v8 v8 v8 v8 v8 v8 v8 v8 v8 v8 v8 v8 v8 v8 v8 v8 v8 v8 v8 v8 v8 v8 v8 v8 v8 v8 v8 v8 v8 v8 v8 v8 v8 v8 v8 v8 v8 v8sA v8sY t2vC t4vC
  LINE 45 23 182
    t4r6vL t2r6vL r6vFsq r6v9sq r6v3sqf2 r6v1sKf2 v1f2 v1f2 v1f2 v1f2 v1f2 v1f2 v1f2 v1f2 v1f2 v1f2 v1f2 v1f2 v1s9f2 r6v2snf2 r6v8sof2 r6v8spf2 r6v6sJf2 v6sIf2 v6sIf2 v6sIf2 v8sIf2 v8sIf2 vAsHf2 vCsHf2 vEf2 vEf2 vEf2 vEf2 r6vBsSf2 r6v5sqf2 r6v5f2 v5f2 v5f2 v5f2 v5f2 v5f2 v5f2 v5f2 v5f2 v5f2 v5f2 v5f2 v5f2 v5f2 v5 v5 v5 v5 v5 v5 v5 v5 v5 v5 v5 v5 v5 v5 v5 v5 v5 v5 v5 v5 v5 v5 v5 v5 v5 v5 v5 v5f2 v5s9 v6s9 v7s9 v8 v8 v8 v8 v8 v8 v8 v8 v8 v8 v8 v8 v8 v8 v8 v8 v8h8 r8v4sbh9 r8v4h9 r8v4h9 r8v4h9 r8v4h9 r8v4h9 r8v4h9 r8v4h9 r8v4h9 r8v4h9 r8v4h9 r8v4h9 r8v4h9 r8v4h9 r8v4sWh9 v8h8 v8 v8 v8 v8 v8 v8 v8 v8 v8 v8 v8 v8 v8 v8 v8 v8 v8 v8 v8 v8 v8 v8 v8 v8 v8 v8 v8 v8 v8 v8 v8 v8 v8 v8 v8 v8 v8 v8 v8 v8sA v8sA v8sA v9sA vAsH t2vC t4vC
  LINE 46 23 182
    t4r6vL t2r6vL r6vFsqf2 r6vEsCf2 r6v8sqf2 r6v2sqf2 r6v1sCf2 v1f2 v1f2 v1f2 v1f2 v1f2 v1f2 v1f2 v1f2 v1f2 v1f2 v1f2 v1s9f2 r6v2snf2 r6v8snf2 r6vEf2 r6v8spf2 r6v8sJf2 v8sIf2 v8sIf2 v8sIf2 vAsAf2 vAsIf2 vCsHf2 vEf2 vEf2 vEf2 vEf2 vEf2 r6vBsSf2 r6v5sqf2 v5f2 v5f2 v5f2 v5f2 v5f2 v5f2 v5f2 v5f2 v5f2 v5f2 v5f2 v5f2 v5f2 v5f2 v5 v5 v5 v5 v5 v5 v5 v5 v5 v5 v5 v5 v5 v5 v5 v5 v5 v5 v5 v5 v5 v5 v5 v5 v5 v5 v5 v5 v5s8 v6s8 v5sO v5sO v8 v8 v8 v8 v8 v8 v8 v8 v8 v8 v8 v8 v8 v8h8 v8h8 r8v4sbh9 r8v4h9 r8v4h9 r8v4h9 r8v4h9 r8v4h9 r8v4h9 r8v4h9 r8v4h9 r8v4h9 r8v4h9 r8v4h9 r8v4h9 r8v4h9 r8v4h9 r8v4sWh9 v8h8 v8 v8 v8 v8 v8 v8 v8 v8 v8 v8 v8 v8 v8 v8 v8 v8 v8 v8 v8 v8 v8 v8 v8 v8 v8 v8 v8 v8 v8 v8 v8 v8 v8 v8 v8 v8 v8 v8 v8sI v9sA v9sA v9sA vAsA t2vBs9 t4vC
  LINE 47 24 183
    t4r6vLf2 t2r6vLf2 r6vFsqf2 r6v9sqf2 r6v3sqf2 r6v1sKf2 r6v1f2 v1f2 v1f2 v1f2 v1f2 v1f2 v1f2 v1f2 v1f2 v1f2 v1f2 v1f2 r6v1s9f2 r6v2snf2 r6v8snf2 r6vEf2 r6vAsZf2 vAsBf2 vAsAf2 vAsAf2 vAsAf2 vBs9f2 vCsHf2 vEf2 vEf2 vEf2 vEf2 vEf2 r6vBsSf2 r6v5sqf2 r6v5f2 v5f2 v5f2 v5f2 v5f2 v5f2 v5f2 v5f2 v5f2 v5f2 v5f2 v5f2 v5f2 v5f2 v5f2 v5 v5 v5 v5 v5 v5 v5 v5 v5 v5 v5 v5 v5 v5 v5 v5 v5 v5 v5 v5 v5 v5 v5 v5 v5 v5 v5 v5 v5s8 v5sD v5 v5sO v5sO v8 v8 v8 v8 v8 v5sT v5sO v8 v8 v8 v8 v8h8 r8v4sbh9 r8v4sbh9 r8v4h9 r8v4h9 r8v4h9 r8v4h9 r8v4h9 r8v4h9 r8v4sYh9 r8v4sYh9 r8v4sYh9 r8v4sYh9 r8v4sZh9 r8v4h9 r8v4h9 r8v4h9 r8v4h9 r8v4sWh9 v8h8 v8h8 v8 v8 v8 v8 v8 v8 v8 v8 v8 v8 v8 v8 v8 v8h8 v8h8 v8h8 v8h8 v8 v8 v8 v8 v8 v8 v8 v8 v8 v8 v8 v8 v8 v8 v8 v8 v8 v8 v8 v8sQ vAsA vAsA vAsA vAsA vBsA t2vC t4vC
  LINE 48 24 183
    t4r6vFsnf2 t2r6vLf2 r6vFsqf2 r6vEsCf2 r6v8sqf2 r6v2sqf2 r6v1sCf2 v1f2 v1f2 v1f2 v1f2 v1f2 v1f2 v1f2 v1f2 v1f2 v1f2 v1f2 r6v1s9f2 r6v2snf2 r6v8snf2 r6vEf2 r6vEf2 r6vBsSf2 vBf2 vBf2 vBf2 vBs9f2 vCs9f2 vDs9f2 vEf2 vEf2 vEf2 vEf2 vEf2 r6vBsSf2 r6v5sqf2 v5f2 v5f2 v5f2 v5f2 v5f2 v5f2 v5f2 v5f2 v5f2 v5f2 v5f2 v5f2 v5f2 v5f2 v5f2 v5 v5 v5 v5 v5 v5 v5 v5 v5 v5 v5 v5 v5 v5 v5 v5 v5 v5 v5 v5 v5 v5 v5 v5 v5 v5 v5 v5 v5 v5 v5 v5 v5sO v5sO v5sO v5sO v5sO v5sT v5 v5sP v8 v8 v8 v8h8 r8v4sah9 r8v4h9 r8v4h9 r8v4h9 r8v4sYh9 r8v4sYh9 r8v4sYh9 r8v4sYh9 r8v4sYh9 v8h8 v8h8 v8h8 v8h8 r8v4sZh9 r8v4sZh9 r8v4h9 r8v4h9 r8v4h9 r8v4sWh9 r8v4sWh9 v8h8 v8h8 v8 v8 v8 v8 v8 v8 v8 v8 v8 v8 v8 v8h8 r8v4sbh9 r8v4sWh9 r8v4sWh9 v8h8 v8 v8 v8 v8 v8 v8 v8 v8 v8 v8 v8 v8 v8 v8 v8 v8 v8 v8 v8sQ vBsA vBsA vBsA vBsA vBsA t2vC t4vC
  LINE 49 25 184
    t4r6vFsnf2 t2r6vLf2 r6vFsqf2 r6vEsCf2 r6v8sqf2 r6v2sqf2 r6v1sCf2 v1f2 v1f2 v1f2 v1f2 v1f2 v1f2 v1f2 v1f2 v1f2 v1f2 v1s9f2 r6v2snf2 r6v8snf2 r6vEf2 r6vEf2 r6vBsSf2 vBf2 vBf2 vBf2 vBf2 vBs9f2 vCs9f2 vDs9f2 vEf2 vEf2 vEf2 vEf2 r6vBsSf2 r6v5sqf2 r6v5f2 v5f2 v5f2 v5f2 v5f2 v5f2 v5f2 v5f2 v5f2 v5f2 v5f2 v5f2 v5f2 v5f2 v5f2 v5f2 v5 v5 v5 v5 v5 v5 v5 v5 v5 v5 v5 v5f2 v5 v5 v5 v5 v5 v5 v5 v5 v5 v5 v5 v5 v5 v5 v5 v5 v5 v5 v5 v5 v5 v5 v5 v5 v5 v5 v5sP v8 v8 v8 v8 v8h8 r8v4sZh9 r8v4sZh9 r8v4sYh9 r8v4sYh9 v8h8 v8h8 v8h8 v8h8 v8h8 v8 v8 v8 v8h8 v8h8 r8v4sZh9 r8v4sZh9 r8v4h9 r8v4h9 r8v4h9 r8v4sWh9 r8v4sWh9 v8h8 v8h8 v8h8 v8 v8 v8 v8 v8 v8 v8 v8 v8h8 r8v4sbh9 r8v4h9 r8v4h9 r8v4sWh9 v8h8 v8 v8 v8 v8 v8 v8 v8 v8 v8 v8 v8 v8 v8 v8 v8 v8 v8 v8sQ vBsA vC vC vC vC vC t2vC t4vC
  LINE 50 25 184
    t4r6vFsnf2 t2r6vLf2 r6vFsqf2 r6vEsCf2 r6vEf2 r6v8sqf2 r6v2sqf2 r6v1sCf2 v1f2 v1f2 v1f2 v1f2 v1f2 v1f2 v1f2 v1f2 v1f2 v1f2 r6v1snf2 r6v7snf2 r6vDs9f2 r6vEf2 r6vBsSf2 vBf2 vBf2 vBf2 vBf2 vBs9f2 vCs9f2 vDs9f2 vEf2 vEf2 vEf2 vEf2 vEf2 r6vBsSf2 r6v5sqf2 v5f2 v5f2 v5f2 v5f2 v5f2 v5f2 v5f2 v5f2 v5f2 v5f2 v5f2 v5f2 v5f2 v5f2 v5f2 v5f2 v5 v5 v5 v5 v5 v5 v5 v5 v5 v5 v5 v5 v5 v5 v5 v5 v5 v5 v5 v5 v5 v5 v5 v5 v5 v5 v5 v5 v5 v5 v5 v5 v5 v5 v5 v5 v5 v5sP v8 v8 v8 v8 v8 v8h8 v8h8 v8h8 v8h8 v8h8 v8 v8 v8 v8 v8 v8 v8 v8 v8 v8h8 v8h8 r8v4sZh9 r8v4sZh9 r8v4sRh9 r8v4sRh9 r8v4h9 r8v4sWh9 r8v6sGh9 r8v6sGh9 v8h8 v8 v8 v8 v8 v8 v8 v8h8 v8h8 r8v4sbh9 r8v4h9 r8v4h9 r8v4h9 r8v4sWh9 v8h8 v8 v8 v8 v8 v8 v8 v8 v8 v8 v8 v8 v8 v8 v8 v8 v8 v8sY vBsA vC vC vC vC vC t2vC t4vC
  LINE 51 26 185
    t4r6vLf2 t2r6vFsqf2 r6vEsCf2 r6vEf2 r6vEf2 r6v8sqf2 r6v2sqf2 r6v1sCf2 v1f2 v1f2 v1f2 v1f2 v1f2 v1f2 v1f2 v1f2 v1f2 r6v1f2 r6v1snf2 r6v7snf2 r6vDs8f2 r6vBsTf2 vBf2 vBf2 vBf2 vBf2 vBs9f2 vCs9f2 vDs9f2 vEf2 vEf2 vEf2 vEf2 vEf2 vEf2 r6vBsSf2 r6v5sqf2 v5f2 v5f2 v5f2 v5f2 v5f2 v5f2 v5f2 v5f2 v5f2 v5f2 v5f2 v5f2 v5f2 v5f2 v5f2 v5 v5 v5 v5 v5 v5 v5 v5 v5 v5 v5 v5 v5 v5 v5 v5 v5 v5 v5 v5 v5 v5 v5 v5 v5 v5 v5 v5 v5 v5 v5 v5 v5 v5 v5 v5 v5 v5 v5sP v8 v8 v8 v8 v8 v8 v8 v8 v8 v8 v8 v8 v8 v8 v8 v8 v8 v8 v8 v8 v8h8 r6v8sgh8 r6v7sph8 r6v7sph8 r8v4sRh9 r8v4h9 r8v4sGh9 r8v4sGh9 r8v6sGh9 v8h8 v8h8 v8h8 v8h8 v8h8 v8h8 v8h8 r8v4sbh9 r8v4sbh9 r8v4h9 r8v4h9 r8v4h9 r8v4h9 r8v4sXh9 v8h8 v8 v8 v8 v8 v8 v8 v8 v8 v8 v8 v8 v8 v8 v8 v8 v8sY vC vC vC vC vC vC vC t2vC t4vC
  LINE 52 26 185
    t4r6vFsmf2 t2r6vLf2 r6vFsqf2 r6vEsCf2 r6vBsTf2 r6v8srf2 r6v2sqf2 r6v1sCf2 v1f2 v1f2 v1f2 v1f2 v1f2 v1f2 v1f2 v1f2 v1f2 r6v1f2 r6v1snf2 r6v7snf2 r6vDf2 r6vBsLf2 vBf2 vBf2 vBf2 vBf2 vBsAf2 vCsAf2 vDs9f2 vEf2 vEf2 vEf2 vEf2 vEf2 vEf2 r6vBsSf2 r6v5sqf2 r6v5f2 v5f2 v5f2 v5f2 v5f2 v5f2 v5f2 v5f2 v5f2 v5f2 v5f2 v5f2 v5f2 v5f2 v5f2 v5f2 v5 v5 v5 v5 v5 v5 v5 v5 v5 v5 v5 v5 v5 v5 v5 v5 v5 v5 v5 v5 v5 v5 v5 v5 v5 v5 v5 v5 v5 v5 v5 v5 v5 v5 v5 v5 v5 v5sP v8 v8 v8 v8 v8 v8 v8 v8 v8 v8 v8 v8 v8 v8 v8 v8 v8 v8 v8 v8 v8 r6v8sf r6vDso r6vDsp r6v7sph8 r8v4sZh9 r8v4h9 r8v4h9 r8v4sGh9 r8v6sGh9 r8v4sbh9 r8v4sbh9 r8v4sbh9 r8v4sbh9 r8v4sbh9 r8v4sbh9 r8v4sbh9 r8v4h9 r8v4h9 r8v4h9 r8v4h9 r8v4h9 r8v4sXh9 v8h8 v8 v8 v8 v8 v8 v8 v8 v8 v8 v8 v8 v8 v8 v8 v8 v8sY vC vC vC vC vC vC vC t2vC t4vC
  LINE 53 27 186
    t4r6vFsmf2 t2r6vFsrf2 r6vBsbf2 r6vBsTf2 r6v5srf2 r6v5sTf2 r6v1saf2 v1f2 v1f2 v1f2 v1f2 v1f2 v1f2 v1f2 v1f2 v1f2 v1f2 r6v1snf2 r6v7snf2 vDf2 vBsLf2 vBf2 vBf2 vBf2 vBf2 vBsQf2 vCsIf2 vDsAf2 vEf2 vEf2 vEf2 vEf2 vEf2 vEf2 r6vBsSf2 r6v5sqf2 r6v5f2 v5f2 v5f2 v5f2 v5f2 v5f2 v5f2 v5f2 v5f2 v5f2 v5f2 v5f2 v5f2 v5f2 v5f2 v5f2 v5f2 v5 v5 v5 v5 v5 v5 v5 v5 v5 v5 v5 v5 v5 v5 v5 v5 v5 v5 v5 v5 v5 v5 v5 v5 v5 v5 v5 v5 v5 v5 v5 v5f2 v5 v5 v5 v5 v5 v5sP v8 v8 v8 v8 v8 v8 v8 v8 v8 v8 v8 v8 v8 v8 v8 v8 v8 v8 v8 v8 r6v8sf r6vDsn r6vJ r6vDsq r6v8sih8 r8v4sah9 r8v4h9 r8v4h9 r8v4sGh9 r8v4sLh9 r8v4h9 r8v4h9 r8v4h9 r8v4h9 r8v4h9 r8v4h9 r8v4h9 r8v4h9 r8v4h9 r8v4h9 r8v4h9 r8v4sXh9 v8h8 v8 v8 v8 v8 v8 v8 v8 v8 v8 v8 v8 v8 v8 v8 v8 v8sY vC vC vC vC vC vC vC vC t2vC t4vC
  LINE 54 27 186
    t4r6vBsWf2 t2r6vBsWf2 r6vBsbf2 r6v5srf2 r6v5srf2 r6v5f2 v5f2 v1saf2 v1f2 v1f2 v1f2 v1f2 v1f2 v1f2 v1f2 v1f2 v1f2 r6v1snf2 r6v7snf2 vDf2 vBsLf2 vBf2 vBf2 vBf2 vBf2 vBsQf2 vEf2 vEf2 vEf2 vEf2 vEf2 vEf2 vEf2 vEf2 r6vEf2 r6vBsSf2 r6v5sqf2 r6v5f2 v5f2 v5f2 v5f2 v5f2 v5f2 v5f2 v5f2 v5f2 v5f2 v5f2 v5f2 v5f2 v5f2 v5f2 v5f2 v5f2 v5 v5 v5 v5 v5 v5 v5 v5 v5 v5 v5 v5 v5 v5 v5 v5 v5 v5 v5 v5 v5 v5 v5 v5 v5 v5 v5 v5 v5 v5 v5 v5 v5 v5 v5 v5 v5sP v8 v8 v8 v8 v8 v8 v8 v8 v8 v8 v8 v8 v8 v8 v8 v8 v8 v8 v8 v8 v8 r6v8se r6vDsm r6vDsr r6v8sih8 r8v4sah9 r8v4h9 r8v4h9 r8v4h9 r8v4h9 r8v4h9 r8v4h9 r8v4h9 r8v4h9 r8v4h9 r8v4h9 r8v4h9 r8v4h9 r8v4sYh9 r8v4sYh9 r8v4sYh9 r8v4sYh9 v8h8 v8 v8 v8 v8 v8 v8 v8 v8 v8 v8 v8 v8 v8 v8 v8 v8sY vC vC vC vC vC vC vC vC t2vC t4vC
  LINE 55 28 187
    t4r6v5smf2 t2r6v5smf2 r6v5srf2 r6v5f2 v5f2 v5f2 v1saf2 v1f2 v1f2 v1f2 v1f2 v1f2 v1f2 v1f2 v1f2 v1f2 r6v1s9f2 r6v2snf2 r6v8sef2 vBsLf2 vBf2 vBf2 vBf2 vBf2 vBsQf2 vEf2 vEf2 vEf2 vEf2 vEf2 vEf2 vEf2 vEf2 r6vEf2 r6vBsSf2 r6v5sqf2 r6v5f2 v5f2 v5f2 v5f2 v5f2 v5f2 v5f2 v5f2 v5f2 v5f2 v5f2 v5f2 v5f2 v5f2 v5f2 v5f2 v5f2 v5 v5 v5 v5 v5 v5 v5 v5 v5 v5 v5 v5 v5 v5 v5 v5 v5 v5 v5 v5 v5 v5 v5 v5 v5 v5 v5 v5 v5 v5 v5 v5 v5 v5 v5 v5 v5 v5sP v8 v8 v8 v8 v8 v8 v8 v8 v8 v8 v8 v8 v8 v8 v8 v8 v8 v8 v8 v8 v8 r6v8se r6v8se r6v8sjh8 r8v4sah9 r8v4h9 r8v4h9 r8v4h9 r8v4sYh9 r8v4sYh9 r8v4sYh9 r8v4sYh9 r8v4sYh9 r8v4sYh9 r8v4sYh9 r8v4sYh9 r8v4sYh9 r8v4sYh9 v8h8 v8h8 v8h8 v8h8 v8 v8 v8 v8 v8 v8 v8 v8 v8 v8 v8 v8 v8 v8 v8 v8sY vC vC vC vC vC vC vC vC vC t2vC t4vC
  LINE 56 28 187
    t4r6v5f2 t2r6v5f2 r6v5f2 v5f2 v5f2 v5f2 v5f2 v1saf2 v1sBf2 v1sBf2 v1sBf2 v1sBf2 v1sBf2 v1sBf2 v1sBf2 v1sAf2 v1sAf2 r6v2f2 r6v2snf2 r6v8sOf2 v9sGf2 v9sGf2 vBf2 vBf2 vBsQf2 vEf2 vEf2 vEf2 vEf2 vEf2 vEf2 vEf2 vEf2 vEf2 r6vBsSf2 r6v5sqf2 r6v5f2 r6v5f2 v5f2 v5f2 v5f2 v5f2 v5f2 v5f2 v5f2 v5f2 v5f2 v5f2 v5f2 v5f2 v5f2 v5f2 v5f2 v5f2 v5 v5 v5 v5 v5 v5 v5 v5 v5 v5 v5 v5 v5 v5 v5 v5 v5 v5 v5 v5 v5 v5 v5 v5 v5 v5 v5 v5 v5 v5 v5 v5 v5 v5 v5 v5 v5sP v8 v8 v8 v8 v8 v8 v8 v8 v8 v8 v8 v8 v8 v8 v8 v8 v8 v8 v8 v8 v8 v8 v8 v8h8 r8v4sah9 r8v4h9 r8v4h9 r8v4h9 r8v4sXh9 r8v8h9 r6v8soh8 r6v8sph8 r8v8h9 v8h8 v8h8 v8h8 v8h8 v8h8 v8h8 v8 v8 v8 v8 v8 v8 v8 v8 v8 v8 v8 v8 v8 v8 v8 v8 v8 v8 v8sY vC vC vC vC vC vC vC vC vC t2vC t4vC
  LINE 57 29 188
    t4v5f2 t2v5f2 v5f2 v5f2 v5f2 v5f2 v3sKf2 v2sBf2 v2sBf2 v2sBf2 v2sBf2 v2sBf2 v2sBf2 v2sBf2 v2sBf2 v2sAf2 v2sQf2 r6v2sQf2 r6v5sOf2 v7sGf2 v7sGf2 v9sGf2 vBf2 vBsQf2 vEf2 vEf2 vEf2 vEf2 vEf2 vEf2 vEf2 vEf2 vEf2 vEf2 r6vBsSf2 r6v5sqf2 r6v5f2 v5f2 v5f2 v5f2 v5f2 v5f2 v5f2 v5f2 v5f2 v5f2 v5f2 v5f2 v5f2 v5f2 v5f2 v5f2 v5f2 v5 v5 v5 v5 v5 v5 v5 v5 v5 v5 v5 v5 v5 v5 v5 v5 v5 v5 v5 v5 v5 v5 v5 v5 v5 v5 v5 v5 v5 v5 v5 v5 v5 v5 v5 v5 v5 v5sP v8 v8 v8 v8 v8 v8 v8 v8 v8 v8 v8 r6v8 r6v8 v8 v8 v8 v8 v8 v8 v8 v8 v8 v8h8 r8v6sKh9 r8v4sJh9 r8v4sJh9 r8v4sJh9 r8v4h9 r8v4sXh9 r6v8snh8 r6vE r6v8sqh8 v8h8 v8 v8 v8 v8 v8 v8 v8 v8 v8 v8 v8 v8 v8 v8 v8 v8 v8 v8 v8 v8 v8 v8 v8sQ v8sY vC vC vC vC vC vC vC vC vC vC t2vC t4vC
  LINE 58 29 188
    t4v5f2 t2v5f2 v5f2 v5f2 v5f2 v5f2 v5f2 v3sJf2 v3sBf2 v3sBf2 v3sBf2 v3sBf2 v3sBf2 v3sBf2 v3sBf2 v3sAf2 v3sIf2 v5f2 v5f2 v5sGf2 v5sGf2 v7sGf2 v9sGf2 vBsPf2 vEf2 vEf2 vEf2 vEf2 vEf2 vEf2 vEf2 vEf2 vEf2 vEf2 r6vBsSf2 r6v5sqf2 r6v5f2 v5f2 v5f2 v5f2 v5f2 v5f2 v5f2 v5f2 v5f2 v5f2 v5f2 v5f2 v5f2 v5f2 v5f2 v5f2 v5f2 v5f2 v5 v5 v5 v5 v5 v5 v5 v5 v5 v5 v5 v5f2 v5 v5 v5 v5 v5 v5 v5 v5 v5 v5 v5 v5 v5 v5 v5 v5 v5 v5 v5 v5 v5 v5 v5 v5 v5sP v8 v8 v8 v8 v8 v8 v8 v8 v8 v8 r6v8so r6v8so r6v8sp r6v8sp r6v8 v8 v8 v8 v8 v8 v8 v8 v8 v8h8 r8v6sJh9 r8v6sJh9 r8v6sJh9 r8v4sKh9 r8v4h9 r8v4sXh9 r6v8smh8 r6v8sr v8 v8 v8 v8 v8 v8 v8 v8 v8 v8 v8 v8 v8 v8 v8 v8 v8 v8 v8 v8 v8 v8 v8 v8sQ vBsA vC vC vC vC vC vC vC vC vC vC t2vC t4r6vCsg
  LINE 59 30 189
    t4v5f2 t2v5f2 v5f2 v5f2 v5f2 v5f2 v5f2 v4sBf2 v4sBf2 v4sBf2 v4sBf2 v4sBf2 v4sBf2 v4sBf2 v4sAf2 v4sAf2 v5f2 v5f2 v5f2 v5f2 v5sGf2 v7sGf2 r6v9sff2 vEf2 vEf2 vEf2 vEf2 vEf2 vEf2 vEf2 vEf2 vEf2 vEf2 r6vBsSf2 r6v5sqf2 r6v5f2 v5f2 v5f2 v5f2 v5f2 v5f2 v5f2 v5f2 v5f2 v5f2 v5f2 v5f2 v5f2 v5f2 v5f2 v5f2 v5f2 v5f2 v5 v5 v5 v5 v5 v5 v5 v5 v5 v5 v5 v5 v5 v5 v5 v5 v5 v5 v5 v5 v5 v5 v5 v5 v5 v5 v5 v5 v5 v5 v5 v5 v5 v5 v5 v5 v5sP v8 v8 v8 v8 v8 v8 v8 v8 v8 r6v8 r6v8so r6vEso r6vEso r6vEsp r6v8sp r6v8sp r6v8 v8 v8 v8 v8 v8 v8 v8 v8h8 v8h8 v8h8 r8v4sah9 r8v4h9 r8v4h9 r8v4sWh9 r6v8h8 v8 v8 v8 v8 v8 v8 v8 v8 v8 v8 v8 v8 v8 v8 v8 v8 v8 v8 v8 v8 v8 v8 v8 v8sP vBs9 vC vC vC vC vC vC vC r6vCsg r6vCsg r6vCsg r6vCsg t2r6vCsg t4vHu1
  LINE 60 30 189
    t4v5f2 t2v5f2 v5f2 v5f2 v5f2 v5f2 v5f2 v5f2 v5f2 v5f2 v5f2 v5f2 v5f2 v5f2 v5f2 v5f2 v5f2 v5f2 v5f2 v5f2 v5f2 v5sGf2 r6v5smf2 r6vBsOf2 r6vBsOf2 vEf2 vEf2 vEf2 vEf2 vEf2 vEf2 r6vBsTf2 r6vBsTf2 r6vBsTf2 r6vBf2 r6v5sqf2 v5f2 v5f2 v5f2 v5f2 v5f2 v5f2 v5f2 v5f2 v5f2 v5f2 v5f2 v5f2 v5f2 v5f2 v5f2 v5f2 v5f2 v5f2 v5 v5 v5 v5 v5 v5 v5 v5 v5 v5 v5 v5 v5 v5 v5 v5 v5 v5 v5 v5 v5 v5 v5 v5 v5 v5 v5 v5 v5 v5 v5 v5 v5 v5 v5 v5 v5sP v8 v8 v8 v8 v8 v8 v8 v8 r6v8 r6v8so r6vEso r6vKso r6vKsp r6vEsp r6vEsp r6v8sp r6v8 v8 v8 v8 v8 v8 v8 v8 v8 v8h8 r8v4sah9 r8v4h9 r8v4h9 r8v4h9 r8v4sWh9 v8h8 v8 v8 v8 v8 v8 v8 v8 v8 v8 v8 v8 v8 v8 v8 v8 v8 v8 v8 v8 v8 v8 v8 v8sP vBs9 vC vC vC vC vC vC vC r6vCsg vHu1 vHu1 vHu1 t2vHu1 t4vHu1
  LINE 61 31 190
    t4v5f2 t2v5f2 v5f2 v5f2 v5f2 v5f2 v5f2 v5f2 v5f2 v5f2 v5f2 v5f2 v5f2 v5f2 v5f2 v5f2 v5f2 v5f2 v5f2 v5f2 v5f2 v5f2 r6v5smf2 r6v5smf2 r6vBsOf2 r6vBsOf2 r6vBsOf2 r6vBsOf2 r6vBsOf2 r6vBsOf2 r6vBsTf2 r6v5srf2 r6v5srf2 r6v5srf2 r6v5srf2 r6v5f2 v5f2 v5f2 v5f2 v5f2 v5f2 v5f2 v5f2 v5f2 v5f2 v5f2 v5f2 v5f2 v5f2 v5f2 v5f2 v5f2 v5f2 v5 v5 v5 v5 v5 v5 v5 v5 v5 v5 v5 v5 v5 v5 v5 v5 v5 v5f2 v5 v5 v5 v5 v5 v5 v5 v5 v5 v5 v5 v5 v5 v5 v5 v5 v5 v5 v5sP v8 v8 v8 v8 v8 v8 v8 v8 r6v8 r6v8so r6vEso r6vKso r6vQ r6vKsp r6vKsp r6vEsp r6v8sp r6v8 v8 v8 v8 v8 v8 v8 v8 v8 v8h8 r8v4sah9 r8v4h9 r8v4h9 r8v4h9 r8v4sXh9 v8h8 v8 v8 v8 v8 v8 v8 v8 v8 v8 v8 v8 v8 v8 v8 v8 v8 v8 v8 v8 v8 v8 v8sP vB vBs8 vC vC vC vC vC r6vCsg r6vCsg vHu1 vHu1 vHu1 vHu1 t2vHu1 t4vHu1
  LINE 62 31 190
    t4v5f2 t2v5f2 v5f2 v5f2 v5f2 v5f2 v5f2 v5f2 v5f2 v5f2 v5f2 v5f2 v5f2 v5f2 v5f2 v5f2 v5f2 v5f2 v5f2 v5f2 v5f2 v5f2 v5f2 v5f2 r6v5smf2 r6v5smf2 r6v5smf2 r6v5smf2 r6v5smf2 r6v5smf2 r6v5smf2 r6v5srf2 r6v5f2 r6v5f2 r6v5f2 r6v5f2 v5f2 v5f2 v5f2 v5f2 v5f2 v5f2 v5f2 v5f2 v5f2 v5f2 v5f2 v5f2 v5f2 v5f2 v5f2 v5f2 v5f2 v5f2 v5 v5 v5 v5 v5 v5 v5 v5 v5 v5 v5 v5 v5 v5 v5 v5 v5 v5 v5 v5 v5 v5 v5 v5 v5 v5 v5 v5 v5 v5 v5 v5 v5 v5 v5 v5 v5sP v8 v8 v8 v8 v8 v8 v8 r6v8 r6v8so r6vEso r6vKso r6vQsY r6vQsZ r6vQsR r6vKsq r6vEsq r6v8sq r6v8 v8 v8 v8 v8 v8 v8 v8 v8 v8h8 r8v4sah9 r8v4h9 r8v4h9 r8v4sXh9 v8h8 v8 v8 v8 v8 v8 v8 v8 v8 v8 v8 v8 v8 v8 v8 v8 v8 v8 v8 v8 v8 v8 v8sH vAs8 vAs8 vBs8 vC vC vC vC r6vCsg vHu1 vHu1 vHu1 vHu1 vHu1 t2vHu1 t4vHu1
  LINE 63 32 191
    t4v5f2 t2v5f2 v5f2 v5f2 v5f2 v5f2 v5f2 v5f2 v5f2 v5f2 v5f2 v5f2 v5f2 v5f2 v5f2 v5f2 v5f2 v5f2 v5f2 v5f2 v5f2 v5f2 v5f2 v5f2 v5f2 r6v5f2 r6v5f2 r6v5f2 r6v5f2 r6v5f2 r6v5f2 r6v5f2 v5f2 v5f2 v5f2 v5f2 v5f2 v5f2 v5f2 v5f2 v5f2 v5f2 v5f2 v5f2 v5f2 v5f2 v5f2 v5f2 v5f2 v5f2 v5f2 v5f2 v5f2 v5 v5 v5 v5 v5 v5 v5 v5 v5 v5 v5 v5 v5 v5 v5 v5 v5 v5 v5 v5 v5 v5 v5 v5 v5 v5 v5 v5 v5 v5 v5 v5 v5 v5 v5 v5 v5sP v8 v8 v8 v8 v8 v8 v8 r6v8 r6v8sn r6vEsn r6vKsn r6vQsY r6vU r6vTsC r6vNsq r6vHsq r6vBsq r6v8sS v8 v8 v8 v8 v8 v8 v8 v8 v8h8 r8v4sah9 r8v4h9 r8v4h9 r8v4h9 r8v4sXh9 v8h8 v8 v8 v8 v8 v8 v8 v8 v8 v8 v8 v8 v8 v8 v8 v8 v8 v8 v8 v8 v8 v8 v8sG v9s8 vAs8 vBs8 vBs8 vC r6vCsg r6vCsg vHu1 vHu1 vHu1 vHu1 vHu1 r6vHso t2r6vHso t4r6vHsp
  LINE 64 32 191
    t4v5f2 t2v5f2 v5f2 v5f2 v5f2 v5f2 v5f2 v5f2 v5f2 v5f2 v5f2 v5f2 v5f2 v5f2 v5f2 v5f2 v5f2 v5f2 v5f2 v5f2 v5f2 v5f2 v5f2 v5f2 v5f2 v5f2 v5f2 r6v5f2 r6v5f2 v5f2 v5f2 v5f2 v5f2 v5f2 v5f2 v5f2 v5f2 v5f2 v5f2 v5f2 v5f2 v5f2 v5f2 v5f2 v5f2 v5f2 v5f2 v5f2 v5f2 v5f2 v5f2 v5f2 v5f2 v5f2 v5 v5 v5 v5 v5 v5 v5 v5 v5 v5 v5 v5 v5 v5 v5 v5 v5 v5 v5 v5 v5 v5 v5 v5 v5 v5 v5 v5 v5 v5 v5 v5 v5 v5 v5 v5 v5sP v8 v8 v8 v8 v8 v8 r6v8 r6v8sn r6vEsn r6vKsn r6vQsX r6vUsQ r6vTsa r6vNsq r6vHsq r6vH r6vBsq r6v8sS v8 v8 v8 v8 v8 v8 v8 v8h8 r8v4sah9 r8v4h9 r8v4h9 r8v4h9 r8v4h9 r8v4sXh9 v8h8 v8 v8 v8 v8 v8 v8 v8 v8 v8 v8 v8 v8 v8 v8 v8 v8 v8 v8 v8 v8 v8 v8s8 v9s8 vAs8 vAs8 r6vBs9 r6vCsg r6vH vHu1 vHu1 vHu1 vHu1 vHu1 r6vHso t2r6vN t4r6vNso
  LINE 65 33 192
    t4v5f2 t2v5f2 v5f2 v5f2 v5f2 v5f2 v5f2 v5f2 v5f2 v5f2 v5f2 v5f2 v5f2 v5f2 v5f2 v5f2 v5f2 v5f2 v5f2 v5f2 v5f2 v5f2 v5f2 v5f2 v5f2 v5f2 v5f2 v5f2 v5f2 v5f2 v5f2 v5f2 v5f2 v5f2 v5f2 v5f2 v5f2 v5f2 v5f2 v5f2 v5f2 v5f2 v5f2 v5f2 v5f2 v5f2 v5f2 v5f2 v5f2 v5f2 v5f2 v5f2 v5f2 v5 v5 v5 v5 v5 v5 v5 v5 v5 v5 v5 v5 v5 v5 v5 v5 v5 v5 v5 v5 v5 v5 v5 v5 v5 v5 v5 v5 v5 v5 v5 v5 v5 v5 v5 v5 v5 v5sP v8 v8 v8 v8 v8 r6v8 r6v8sX r6vCsf r6vHsn r6vNsn r6vTsX r6vX r6vTsa r6vNsq r6vHsq r6vH r6vBsq r6v8sS v8 v8 v8 v8 v8 v8 v8h8 r8v4sah9 r8v4h9 r8v4h9 r8v4h9 r8v4h9 r8v4sXh9 v8h8 v8 v8 v8 v8 v8 v8 v8 v8 v8 v8 v8 v8 v8 v8 v8 v8 v8 v8 v8 v8 v8 v8 v8s8 v9s8 v9s8 r6vAse r6vCso r6vHso r6vHsp vHu1 vHu1 vHu1 vHu1 r6vHso r6vNso t2r6vNso t4r6vT
  LINE 66 33 192
    t4v5f2 t2v5f2 v5f2 v5f2 v5f2 v5f2 v5f2 v5f2 v5f2 v5f2 v5f2 v5f2 v5f2 v5f2 v5f2 v5f2 v5f2 v5f2 v5f2 v5f2 v5f2 v5f2 v5f2 v5f2 v5f2 v5f2 v5f2 v5f2 v5f2 v5f2 v5f2 v5f2 v5f2 v5f2 v5f2 v5f2 v5f2 v5f2 v5f2 v5f2 v5f2 v5f2 v5f2 v5f2 v5f2 v5f2 v5f2 v5f2 v5f2 v5f2 v5f2 v5f2 v5f2 v5 v5 v5 v5 v5 v5 v5 v5 v5 v5 v5 v5 v5 v5 v5 v5 v5 v5 v5 v5 v5 v5 v5 v5 v5 v5 v5 v5 v5 v5 v5 v5 v5 v5 v5 v5 v5 v5sP v8 v8 v8 v8 v8 r6v8 r6v8sX r6vCso r6vHsA r6vIsf r6vNsn r6vTsX r6vX r6vSsi r6vNsi r6vHsq r6vBsq r6v8sS r6v8 v8 v8 v8 v8 v8 v8 v8h8 r8v4sah9 r8v4h9 r8v4h9 r8v4h9 r8v4h9 r8v4sXh9 v8h8 v8 v8 v8 v8 v8 v8 v8 v8 v8 v8 v8 v8 v8 v8 v8 v8 v8 v8 v8 v8 v8 v8 v8s8 v8s8 r6v9sn r6vFsP r6vIsg r6vN r6vHsp r6vHsp vHu1 vHu1 r6vHsn r6vNsn t2r6vTso t4r6vTso
  LINE 67 34 193
    t4v5f2 t2v5f2 v5f2 v5f2 v5f2 v5f2 v5f2 v5f2 v5f2 v5f2 v5f2 v5f2 v5f2 v5f2 v5f2 v5f2 v5f2 v5f2 v5f2 v5f2 v5f2 v5f2 v5f2 v5f2 v5f2 v5f2 v5f2 v5f2 v5f2 v5f2 v5f2 v5f2 v5f2 v5f2 v5f2 v5f2 v5f2 v5f2 v5f2 v5f2 v5f2 v5f2 v5f2 v5f2 v5f2 v5f2 v5f2 v5f2 v5f2 v5f2 v5f2 v5f2 v5 v5 v5 v5 v5 v5 v5 v5 v5 v5 v5 v5 v5 v5 r6v5 r6v5 r6v5 v5 v5 v5 v5 v5 v5 v5 v5 v5 v5 v5 v5 v5 v5 v5 v5 v5 v5 v5 v5 v5sH v7s8 v7s8 v7s8 v7s8 v8 v8 r6v8sX r6vCsn r6vI r6vIsf r6vNsn r6vTsX r6vX r6vX r6vSsi r6vNsi r6vHsq r6vBsq r6v8sS r6v8 v8 v8 v8 v8 v8 v8h8 r8v4sah9 r8v4h9 r8v4h9 r8v4h9 r8v4h9 r8v4h9 r8v4sXh9 v8h8 v8 v8 v8 v8 v8 v8 v8 v8 v8 v8 v8 v8 v8 v8 v8 v8 v8 v8 v8 v8 v8 v8 r6v8 r6v8sX r6vCsn r6vIsf vNu1 vNu1 vNu1 r6vHsp vHu1 r6vHsn r6vNsn r6vTsn t2r6vZ t4r6vZ
  LINE 68 34 193
    t4v5 t2v5f2 v5f2 v5f2 v5f2 v5f2 v5f2 v5f2 v5f2 v5f2 v5f2 v5f2 v5f2 v5f2 v5f2 v5f2 v5f2 v5f2 v5f2 v5f2 v5f2 v5f2 v5f2 v5f2 v5f2 v5f2 v5f2 v5f2 v5f2 v5f2 v5f2 v5f2 v5f2 v5f2 v5f2 v5f2 v5f2 v5f2 v5f2 v5f2 v5f2 v5f2 v5f2 v5f2 v5f2 v5f2 v5f2 v5f2 v5f2 v5f2 v5f2 v5f2 v5f2 v5 v5 v5 v5 v5 v5 v5 v5 v5 v5 v5 v5 v5 r6v5 r6v5sg r6v5sh r6v5 v5 v5 v5 v5 v5 v5 v5 v5 v5 v5 v5 v5 v5 v5 v5 v5 v5 v5 v5 v5s9 v6s8 v6s8 v6s8 v6s8 v7s8 v7s8 v7s8 r6v8sX r6vCsn r6vHsn r6vNsf r6vSs8 r6vSse r6vX r6vSsj r6vNsi r6vHsq r6vH r6vBsq r6v8sS r6v8 v8 v8 v8 v8 v8 v8h8 r8v4sah9 r8v4h9 r8v4h9 r8v4h9 r8v4h9 r8v4h9 r8v4sXh9 v8h8 v8 v8 v8 v8 v8 v8 v8 v8 v8 v8 v8 v8 v8 v8 v8 v8 v8 v8 v8 v8 v8 r6v8 r6v8sX r6vCsn r6vIsf vNu1 vNu1 vNu1 vNu1 r6vHsp r6vH r6vHsn r6vNsn t2r6vTsn t4r6vZ
  LINE 69 35 194
    t4v5 t2v5f2 v5f2 v5f2 v5f2 v5f2 v5f2 v5f2 v5f2 v5f2 v5f2 v5f2 v5f2 v5f2 v5f2 v5f2 v5f2 v5f2 v5f2 v5f2 v5f2 v5f2 v5f2 v5f2 v5f2 v5f2 v5f2 v5f2 v5f2 v5f2 v5f2 v5f2 v5f2 v5f2 v5f2 v5f2 v5f2 v5f2 v5f2 v5f2 v5f2 v5f2 v5f2 v5f2 v5f2 v5f2 v5f2 v5f2 v5f2 v5f2 v5f2 v5f2 v5 v5 v5 v5 v5 v5 v5 v5 v5 v5 v5 v5 v5 r6v5 r6v5sg r6vA r6v5sh r6v5 v5 v5 v5 v5 v5 v5 v5 v5 v5 v5 v5 v5 v5 v5 v5 v5 v5 v5 v5 v5s8 v5s8 v5s8 v5s8 v6s8 v6s8 v6s8 r6v6se r6vBsn r6vH r6vHsn r6vNse r6vS r6vSse r6vSsj r6vMsr r6vMsD r6vHsi r6vH r6vBsq r6v8sS r6v8 v8 v8 v8 v8 v8 v8h8 r8v4sah9 r8v4h9 r8v4h9 r8v4h9 r8v4h9 r8v4sXh9 v8h8 v8 v8 v8 v8 v8 v8 v8 v8 v8 v8 v8 v8 v8 v8 v8 v8 v8 v8 v8 v8 v8 r6v8 r6v8sX r6vCsn r6vIsf vNu1 vNu1 vNu1 vNu1 vNu1 r6vHsp r6vHso r6vN r6vNsn t2r6vTsn t4r6vZ
  LINE 70 35 194
    t4v5 t2v5 v5f2 v5f2 v5f2 v5f2 v5f2 v5f2 v5f2 v5f2 v5f2 v5f2 v5f2 v5f2 v5f2 v5f2 v5f2 v5f2 v5f2 v5f2 v5f2 v5f2 v5f2 v5f2 v5f2 v5f2 v5f2 v5f2 v5f2 v5f2 v5f2 v5f2 v5f2 v5f2 v5f2 v5f2 v5f2 v5f2 v5f2 v5f2 v5f2 v5f2 v5f2 v5f2 v5f2 v5f2 v5f2 v5f2 v5f2 v5f2 v5f2 v5f2 v5 v5 v5 v5 v5 v5 v5 v5 v5 v5 v5 v5 v5 v5 r6v5sg r6vA r6vA r6v5si r6v5 r6v5 v5 v5 v5 v5 v5 v5 v5 v5 v5 v5 v5 v5 v5 v5 v5 v5 v5 v5 v5 v5 v5 v5s8 v5s8 v5s8 v5s8 r6v6sf r6vBsn r6vH r6vHsm r6vMsm r6vMsm r6vMsm r6vMsr r6vM r6vHsi r6vH r6vH r6vBsq r6v8sS r6v8 v8 v8 v8 v8 v8h8 r8v4sah9 r8v4h9 r8v4h9 r8v4h9 r8v4h9 r8v4h9 r8v4sXh9 v8h8 v8 v8 v8 v8 v8 v8 v8 v8 v8 v8 v8 v8 v8 v8 v8 v8 v8 v8 v8 v8 r6v8 r6v8sX r6vCsn r6vIsf vNu1 vNu1 vNu1 vNu1 vNu1 vNu1 r6vNso r6vNso r6vNso t2r6vTso t4r6vZsA
  LINE 71 36 195
    t4v5 t2v5 v5f2 v5f2 v5f2 v5f2 v5f2 v5f2 v5f2 v5f2 v5f2 v5f2 v5f2 v5f2 v5f2 v5f2 v5f2 v5f2 v5f2 v5f2 v5f2 v5f2 v5f2 v5f2 v5f2 v5f2 v5f2 v5f2 v5f2 v5f2 v5f2 v5f2 v5f2 v5f2 v5f2 v5f2 v5f2 v5f2 v5f2 v5f2 v5f2 v5f2 v5f2 v5f2 v5f2 v5f2 v5f2 v5f2 v5f2 v5f2 v5f2 v5 v5 v5 v5 v5 v5 v5 v5 v5 v5 v5 v5 v5 v5 r6v5sf r6vA r6vA r6v5si r6v5 r6v5 r6v5 r6v5 r6v5 r6v5 v5 v5 v5 v5 v5 v5 v5 v5 v5 v5 v5 v5 v5 v5 v5 v5 v5 v5 v5 v5 v5 r6v5sn r6vBsn r6vH r6vGsD r6vGsm r6vM r6vM r6vM r6vM r6vM r6vHsi r6vH r6vH r6vBsq r6v8sS r6v8 v8 v8 v8 v8 v8h8 r8v4sah9 r8v4h9 r8v4h9 r8v4h9 r8v4h9 r8v4sXh9 v8h8 v8 v8 v8 v8 v8 v8 v8 v8 v8 v8 v8 v8 v8 v8 v8 v8 v8 v8 v8 v8 r6v8 r6v8sX r6vCsn r6vIsf vNu1 vNu1 vNu1 vNu1 vNu1 vNu1 r6vNsn r6vTso r6vTso r6vTso t2r6vZsA t4r6va
  LINE 72 36 195
    t4v5 t2v5 v5 v5f2 v5f2 v5f2 v5f2 v5f2 v5f2 v5f2 v5f2 v5f2 v5f2 v5f2 v5f2 v5f2 v5f2 v5f2 v5f2 v5f2 v5f2 v5f2 v5f2 v5f2 v5f2 v5f2 v5f2 v5f2 v5f2 v5f2 v5f2 v5f2 v5f2 v5f2 v5f2 v5f2 v5f2 v5f2 v5f2 v5f2 v5f2 v5f2 v5f2 v5f2 v5f2 v5f2 v5f2 v5f2 v5f2 v5f2 v5f2 v5 v5 v5 v5 v5 v5 v5 v5 v5 v5 v5 v5 v5 v5 r6v5sf r6vA r6vA r6vA r6v5sh r6v5sh r6v5 r6v5 r6v5so r6v5sp r6v5 v5 v5 v5 v5 v5 v5 v5 v5 v5 v5 v5 v5 v5 v5 v5 v5 v5 v5 v5 v5 v5 r6v5sm r6vBsm r6vBsr r6vBse r6vGsm r6vHse r6vHse r6vHse r6vM r6vHsi r6vH r6vH r6vH r6vBsq r6v8sS r6v8 v8 v8 v8 v8 v8h8 r8v4sZh9 r8v4h9 r8v4h9 r8v4h9 r8v4sXh9 v8h8 v8 v8 v8 v8 v8 v8 v8 v8 v8 v8 v8 v8 v8 v8 v8 v8 v8 v8 v8 v8 r6v8 r6v8sX r6vCsn r6vIsf vNu1 vNu1 vNu1 r6vHsr r6vHsm r6vHsm r6vNsn r6vTsn r6vZ r6vZsA t2r6vZsA t4r6va
  LINE 73 37 196
    t4v5 t2v5 v5 v5f2 v5f2 v5f2 v5f2 v5f2 v5f2 v5f2 v5f2 v5f2 v5f2 v5f2 v5f2 v5f2 v5f2 v5f2 v5f2 v5f2 v5f2 v5f2 v5f2 v5f2 v5f2 v5f2 v5f2 v5f2 v5f2 v5f2 v5f2 v5f2 v5f2 v5f2 v5f2 v5f2 v5f2 v5f2 v5f2 v5f2 v5f2 v5f2 v5f2 v5f2 v5f2 v5f2 v5f2 v5f2 v5f2 v5f2 v5 v5 v5 v5 v5 v5 v5 v5 v5 v5 v5 v5 v5 v5 r6v5 r6v5sf r6vAso r6vAso r6vAsp r6vA r6v5sh r6v5 r6v5so r6vB r6v5sq r6v5 v5 v5 v5 v5 v5 v5 v5 v5 v5 v5 v5 v5 v5 v5 v5 v5 v5 v5 v5 v5 v5 r6v5sm r6v8sO r6v8sO r6vBsn r6vH r6vH r6vH r6vHse r6vHsj r6vH r6vH r6vH r6vH r6vBsq r6v8sS r6v8 v8 v8 v8 v8 v8h8 r8v4sZh9 r8v4sZh9 r8v4sYh9 r8v4sYh9 v8h8 v8 v8 v8 v8 v8 v8 v8 v8 v8 v8 v8 v8 v8 v8 v8 v8 v8 v8 v8 v8 r6v8 r6v8sX r6vCsn r6vIsf vNu1 vNu1 vNu1 r6vHsr vHu1 vHu1 r6vHsm r6vNsn r6vTsn r6vZs9 r6va t2r6va t4r6va
  LINE 74 37 196
    t4v5 t2v5 v5 v5 v5f2 v5f2 v5f2 v5f2 v5f2 v5f2 v5f2 v5f2 v5f2 v5f2 v5f2 v5f2 v5f2 v5f2 v5f2 v5f2 v5f2 v5f2 v5f2 v5f2 v5f2 v5f2 v5f2 v5f2 v5f2 v5f2 v5f2 v5f2 v5f2 v5f2 v5f2 v5f2 v5f2 v5f2 v5f2 v5f2 v5f2 v5f2 v5f2 v5f2 v5f2 v5f2 v5f2 v5f2 v5f2 v5f2 v5 v5 v5 v5 v5 v5 v5 v5 v5 v5 v5 v5 v5 v5 r6v5 r6v5sf r6vAsn r6vG r6vG r6vAsp r6vAsB r6v5sp r6v5so r6vB r6v5sq r6v5 v5 v5 v5 v5 v5 v5 v5 v5 v5 v5 v5 v5 v5 v5 v5 v5 v5 v5 v5 v5 v5 v5 r6v5sO r6v6sG r6v8sP r6vBsn r6vCse r6vH r6vH r6vH r6vH r6vH r6vH r6vH r6vH r6vBsq r6v8sS r6v8 v8 v8 v8 v8 v8h8 v8h8 v8h8 v8h8 v8h8 v8 v8 v8 v8 v8 v8 v8 v8 v8 v8 v8 v8 v8 v8 v8 v8 v8 v8 v8 v8 v8 r6v8 r6v8sX r6vCsn r6vIsf vNu1 r6vHsr r6vHsr vHu1 vHu1 vHu1 r6vHsm r6vNsn r6vTsn r6vZs8 t2r6vZs8 t4r6vZs8
  LINE 75 38 197
    t4v5 t2v5 v5 v5 v5f2 v5f2 v5f2 v5f2 v5f2 v5f2 v5f2 v5f2 v5f2 v5f2 v5f2 v5f2 v5f2 v5f2 v5f2 v5f2 v5f2 v5f2 v5f2 v5f2 v5f2 v5f2 v5f2 v5f2 v5f2 v5f2 v5f2 v5f2 v5f2 v5f2 v5f2 v5f2 v5f2 v5f2 v5f2 v5f2 v5f2 v5f2 v5f2 v5f2 v5f2 v5f2 v5f2 v5f2 v5f2 v5 v5 v5 v5 v5 v5 v5 v5 v5 v5 v5 v5 v5 v5 r6v5 r6v5sf r6vAsn r6vG r6vG r6vG r6vBsh r6vBso r6vBso r6vBsp r6vB r6v5sq r6v5 v5 v5 v5 v5 v5 v5 v5 v5 v5 v5 v5 v5 v5 v5 v5 v5 v5 v5 v5 v5 v5 v5 r6v5s9 r6v6sn r6vBsA vC r6vCse r6vCse r6vH r6vH r6vH r6vH r6vH r6vH r6vH r6vBsq r6v8sS r6v8 v8 v8 v8 v8 v8 v8 v8 v8 v8 v8 v8 v8 v8 v8 v8 v8 v8 v8 v8 v8 v8 v8 v8 v8 v8 v8 v8 v8 v8 v8 r6v8sX r6vCsn r6vIsH r6vKsO r6vHsr r6vH vHu1 vHu1 vHu1 vHu1 r6vHsm r6vNsm r6vTsm r6vTsm t2r6vTsm t4r6vTsr
  LINE 76 38 197
    t4v5 t2v5 v5 v5 v5 v5f2 v5f2 v5f2 v5f2 v5f2 v5f2 v5f2 v5f2 v5f2 v5f2 v5f2 v5f2 v5f2 v5f2 v5f2 v5f2 v5f2 v5f2 v5f2 v5f2 v5f2 v5f2 v5f2 v5f2 v5f2 v5f2 v5f2 v5f2 v5f2 v5f2 v5f2 v5f2 v5f2 v5f2 v5f2 v5f2 v5f2 v5f2 v5f2 v5f2 v5f2 v5f2 v5f2 v5f2 v5 v5 v5 v5 v5 v5 v5 v5 v5 v5 v5 v5 v5 v5 r6v5 r6v5sf r6vAsn r6vG r6vG r6vG r6vG r6vGs9 r6vH r6vH r6vBsq r6v5sq r6v5 v5 v5 v5 v5 v5 v5 v5 v5 v5 v5 v5 v5 v5 v5 v5 v5 v5 v5 v5 v5 v5 v5 r6v5s9 r6v6sn r6vC vC vC vC r6vCse r6vH r6vH r6vH r6vH r6vH r6vH r6vH r6vBsq r6v8sS r6v8 v8 v8 v8 v8 v8 v8 v8 v8 v8 v8 v8 v8 v8 v8 v8 v8 v8 v8 v8 v8 v8 v8 v8 v8 v8 v8 v8 v8 v8 v8 r6v8sW r6vCsm r6vEsm r6vEsr r6vEsT r6vEsO r6vEsO vHu1 vHu1 vHu1 r6vHsm r6vNsm r6vT t2vTu1 t4vTu1
  LINE 77 39 198
    t4v5 t2v5 v5 v5 v5 v5f2 v5f2 v5f2 v5f2 v5f2 v5f2 v5f2 v5f2 v5f2 v5f2 v5f2 v5f2 v5f2 v5f2 v5f2 v5f2 v5f2 v5f2 v5f2 v5f2 v5f2 v5f2 v5f2 v5f2 v5f2 v5f2 v5f2 v5f2 v5f2 v5f2 v5f2 v5f2 v5f2 v5f2 v5f2 v5f2 v5f2 v5f2 v5f2 v5f2 v5f2 v5f2 v5f2 v5 v5 v5 v5 v5 v5 v5 v5 v5 v5 v5 v5 v5 v5 r6v5 r6v5sf r6vAsn r6vG r6vGso r6vGso r6vGso r6vGsn r6vGs9 r6vH r6vBsq r6v5sq r6v5 v5 v5 v5 v5 v5 v5 v5 v5 v5 v5 v5 v5 v5 v5 v5 v5 v5 v5 v5 v5 v5 v5 v5 r6v5s9 r6v6sn vC vC vC vC r6vCse r6vCse r6vCse r6vCse r6vCse r6vCse r6vH r6vGsC r6vBsi r6v8sS v8 v8 v8 v8 v8 v8 v8 v8 v8 v8 v8 v8 v8 v8 v8 v8 v8 v8 v8 v8 v8 v8 v8 v8 v8 v8 v8 v8 v8 v8 v8 r6v8sW r6v8sm r6v8sm r6v8sr r6v8sm r6v8sm r6vEsO r6vEsO vHu1 vHu1 r6vHsm r6vNsm vTu1 t2vTu1 t4vTu1
  LINE 78 39 198
    t4r6v5sY t2r6v5sZ v5 v5 v5 v5 v5f2 v5f2 v5f2 v5f2 v5f2 v5f2 v5f2 v5f2 v5f2 v5f2 v5f2 v5f2 v5f2 v5f2 v5f2 v5f2 v5f2 v5f2 v5f2 v5f2 v5f2 v5f2 v5f2 v5f2 v5f2 v5f2 v5f2 v5f2 v5f2 v5f2 v5f2 v5f2 v5f2 v5f2 v5f2 v5f2 v5f2 v5f2 v5f2 v5f2 v5f2 v5f2 v5 v5 v5 v5 v5 v5 v5 v5 v5 v5 v5 v5 v5 v5 r6v5 r6v5sf r6vAsn r6vG r6vGsn r6vMsA r6vMso r6vMsp r6vGsq r6vGsC r6vBsq r6v5sq r6v5 r6v5 v5 v5 v5 v5 v5 v5 v5 v5 v5 v5 v5 v5 v5 v5 v5 v5 v5 v5 v5 v5 v5 v5 v5 r6v5s9 r6v6sn vC vC vC vC vC vC vC vC vC r6vCse r6vBsr r6vAsr r6v8sS v8 v8 v8 v8 v8 v8 v8 v8 v8 v8 v8 v8 v8 v8 v8 v8 v8 v8 v8 v8 v8 v8 v8 v8 v8 v8 v8 v8 v8 v8 v8 v8 v8 v8 v8 v8 v8 r6v8sm r6v8sm r6vEsO r6vEsO r6vH r6vHsn r6vNsm t2r6vQsO t4vTu1
  LINE 79 40 199
    t4r6v9sp t2r6v5sZ v5 v5 v5 v5 v5f2 v5f2 v5f2 v5f2 v5f2 v5f2 v5f2 v5f2 v5f2 v5f2 v5f2 v5f2 v5f2 v5f2 v5f2 v5f2 v5f2 v5f2 v5f2 v5f2 v5f2 v5f2 v5f2 v5f2 v5f2 v5f2 v5f2 v5f2 v5f2 v5f2 v5f2 v5f2 v5f2 v5f2 v5f2 v5f2 v5f2 v5f2 v5f2 v5f2 v5f2 v5 v5 v5 v5 v5 v5 v5 v5 v5 v5 v5 v5 v5 v5 r6v5 r6v5sf r6vAsn r6vG r6vGsn r6vMs9 r6vNsf r6vS r6vMsq r6vGsq r6vG r6vAsq r6v5si r6v5 v5 v5 v5 v5 v5 v5 v5 v5 v5 v5 v5 v5 v5 v5 v5 v5 v5 v5 v5 v5 v5 v5 v5 v5 r6v5s9 r6v6sn vC vC vC vC vC vC vC vC vC vBsC vAsC v9sC v8sC v8 v8 v8 v8 v8 r6v8 r6v8 r6v8 r6v8 r6v8 v8 v8 v8 v8 v8 v8 v8 v8 v8 v8 v8 v8 v8 v8 v8 v8 v8 v8 v8 v8 v8 v8 v8 v8 v8 v8 v8 v8 r6v8sm r6v8sm r6vEsO r6vEsm r6vKsO r6vKsm t2r6vQsO t4r6vQsT
  LINE 80 40 199
    t4r6vF t2r6v9sp r6v5sZ v5 v5 v5 v5 v5f2 v5f2 v5f2 v5f2 v5f2 v5f2 v5f2 v5f2 v5f2 v5f2 v5f2 v5f2 v5f2 v5f2 v5f2 v5f2 v5f2 v5f2 v5f2 v5f2 v5f2 v5f2 v5f2 v5f2 v5f2 v5f2 v5f2 v5f2 v5f2 v5f2 v5f2 v5f2 v5f2 v5f2 v5f2 v5f2 v5f2 v5f2 v5f2 v5f2 v5 v5 v5 v5 v5 v5 v5 v5 v5 v5 v5 v5 v5 v5 v5 r6v5sf r6vAsn r6vG r6vGs9 r6vHse r6vHsm r6vMsm r6vMsr r6vM r6vGsq r6vAsq r6v5si r6v5 v5 v5 v5 v5 v5 v5 v5 v5 v5 v5 v5 v5 v5 v5 v5 v5 v5 v5 v5 v5 v5 v5 v5 v5 r6v5s9 r6v6sn vC vC vC vC vC vC vC vC vC vC vBsC vAsC v9sC v8sC v8 v8 v8 v8 r6v8so r6v8so r6v8so r6v8sp r6v8sp r6v8 v8 v8 v8 v8 v8 v8 v8 v8 v8 v8 v8 v8 v8 v8 v8 v8 v8 v8 v8 v8 v8 v8 v8 v8 v8 v8 v8 v8 v8 r6v8sm r6v8sm r6vEsm r6vEsm t2r6vKsm t4r6vKsm
  LINE 81 41 200
    t4r6vF t2r6v9sp r6v5sZ v5 v5 v5 v5 v5 v5f2 v5f2 v5f2 v5f2 v5f2 v5f2 v5f2 v5f2 v5f2 v5f2 v5f2 v5f2 v5f2 v5f2 v5f2 v5f2 v5f2 v5f2 v5f2 v5f2 v5f2 v5f2 v5f2 v5f2 v5f2 v5f2 v5f2 v5f2 v5f2 v5f2 v5f2 v5f2 v5f2 v5f2 v5f2 v5f2 v5f2 v5 v5 v5 v5 v5 v5 v5 v5 v5 v5 v5 v5 v5 v5 v5 v5 r6v5 r6v5sf r6vAsm r6vAsm r6vCse r6vCse r6vGsm r6vM r6vGsr r6vGsr r6vBsi r6v5sq r6v5 v5 v5 v5 v5 v5 v5 v5 v5 v5 v5 v5 v5 v5 v5 v5 v5 v5 v5 v5 v5 v5 v5 v5 v5 v5 r6v5s9 r6v6sn vC vC vC vC vC vC vC vC vC vC vBsC vAsC v9sC v8sB v8sB v8sB v8sA r6v8so r6vEso r6vEso r6vEsp r6vEsJ r6v8sp r6v8sB v8 v8 v8 v8 v8 v8 v8 v8 v8 v8 v8 v8 v8 v8 v8 v8 v8 v8 v8 v8 v8 v8 v8 v8 v8 v8 v8 v8 v8 v8 r6v8sm r6v8sm r6vEsm t2r6vEsm t4r6vK
  LINE 82 41 200
    t4r6vFso t2r6vFsp r6v9sp r6v5sZ v5 v5 v5 v5 v5 v5f2 v5f2 v5f2 v5f2 v5f2 v5f2 v5f2 v5f2 v5f2 v5f2 v5f2 v5f2 v5f2 v5f2 v5f2 v5f2 v5f2 v5f2 v5f2 v5f2 v5f2 v5f2 v5f2 v5f2 v5f2 v5f2 v5f2 v5f2 v5f2 v5f2 v5f2 v5f2 v5f2 v5f2 v5f2 v5f2 v5 v5 v5 v5 v5 v5 v5 v5 v5 v5 v5 v5 v5 v5 v5 v5 v5 r6v5sf r6vA r6vA r6vAsG r6vAsL r6vAsm r6vGsm r6vGsr r6vAsr r6vAsr r6v5sq r6v5 v5 v5 v5 v5 v5 v5 v5 v5 v5 v5 v5 v5 v5 v5 v5 v5 v5 v5 v5 v5 v5 v5 v5 v5 v5 r6v5s9 r6v6sn r6vC vC vC vC vC vC vC vC vC vC vC vBsC vAsC v9sB v9sB v9sB v9sA r6v9so r6vEso r6vKsI r6vKsJ r6vGsa r6vAsq r6v9sB r6v8sB v8 v8 v8 v8 v8 v8 v8 v8 v8 v8 v8 v8 v8 v8 v8 v8 v8 v8 v8 v8 v8 v8 v8 v8 v8 v8 v8 v8 v8 v8 v8 r6v8sm t2r6v8sm t4r6vEsm
  LINE 83 42 201
    t4r6vL t2r6vFsq r6v9sp r6v5sZ v5 v5 v5 v5 v5 v5 v5f2 v5f2 v5f2 v5f2 v5f2 v5f2 v5f2 v5f2 v5f2 v5f2 v5f2 v5f2 v5f2 v5f2 v5f2 v5f2 v5f2 v5f2 v5f2 v5f2 v5f2 v5f2 v5f2 v5f2 v5f2 v5f2 v5f2 v5f2 v5f2 v5f2 v5f2 v5f2 v5f2 v5 v5 v5 v5 v5 v5 v5 v5 v5 v5 v5 v5 v5 v5 v5 v5 v5 v5 v5 r6v5sf r6vA r6vAso r6vAsm r6vA r6vAsn r6vG r6vAsr r6vA r6vA r6v5si r6v5 v5 v5 v5 v5 v5 v5 v5 v5 v5 v5 v5 v5 v5 v5 v5 v5 v5 v5 v5 v5 v5 v5 v5 v5 r6v5 r6v5s9 r6v6sn vC vC vC vC vC vC vC vC vC vC vC vBsB vAsB vAsB vAsB vAsA r6vAso r6vFsg r6vKsH r6vM r6vGsq r6vBsi r6vAsC r6v9sB v8sB v8sB v8 v8 v8 v8 v8 v8 v8 v8 v8 v8 v8 v8 v8 v8 v8 v8 v8 v8 v8 v8 v8 v8 v8 v8 v8 v8 v8 v8 v8 v8 v8 t2r6v8sm t4r6vE
  LINE 84 42 201
    t4r6vL t2r6vFsq r6vF r6v9sp r6v5sZ v5 v5 v5 v5 v5 v5 v5f2 v5f2 v5f2 v5f2 v5f2 v5f2 v5f2 v5f2 v5f2 v5f2 v5f2 v5f2 v5f2 v5f2 v5f2 v5f2 v5f2 v5f2 v5f2 v5f2 v5f2 v5f2 v5f2 v5f2 v5f2 v5f2 v5f2 v5f2 v5f2 v5f2 v5f2 v5f2 v5 v5 v5 v5 v5 v5 v5 v5 v5 v5 v5 v5 v5 v5 v5 v5 v5 v5 v5 v5 r6v5sf r6vAsn r6vG r6vAsm r6vAsO r6vDsO r6vAsr r6vA r6vA r6v5si r6v5 v5 v5 v5 v5 v5 v5 v5 v5 v5 v5 v5 v5 v5 v5 v5 v5 v5 v5 v5 v5 v5 v5 v5 v5 v5 r6v5s9 r6v6sn vC vC vC vC vC vC vC vC vC vC vC vC vBsB vBsB vBsB vBsB r6vBsg r6vG r6vGsW r6vGsm r6vGsr r6vCsa r6vBsC r6vAsB v9sB v9sB v8sB v8 v8 v8 v8 v8 v8 v8 v8 v8 v8 v8 v8 v8 v8 v8 v8 v8 v8 v8 v8 v8 v8 v8 v8 v8 v8 v8 v8 v8 v8 t2v8 t4r6v8sm
  LINE 85 43 202
    t4r6vLsp t2r6vFsp r6vF r6v9sp r6v5sZ v5 v5 v5 v5 v5 v5 v5 v5f2 v5f2 v5f2 v5f2 v5f2 v5f2 v5f2 v5f2 v5f2 v5f2 v5f2 v5f2 v5f2 v5f2 v5f2 v5f2 v5f2 v5f2 v5f2 v5f2 v5f2 v5f2 v5f2 v5f2 v5f2 v5f2 v5f2 v5f2 v5f2 v5 v5 v5 v5 v5 v5 v5 v5 v5 v5 v5 v5 v5 v5 v5 v5 v5 v5 v5 v5 v5 v5 r6v5se r6vAsm r6vAsm r6vD r6vAsT r6vAsT r6vA r6vA r6vA r6v5si v5 v5 v5 v5 v5 v5 v5 v5 v5 v5 v5 v5 v5 v5 v5 v5 v5 v5 v5 v5 v5 v5 v5 v5 v5 r6v5s9 r6v6sn vC vC vC vC vC vC vC vC vC vC vC vC vC vC vC vC vC r6vCsW r6vCsW r6vEsG r6vCsb r6vCsb r6vC vBsB vAsB vAsB v9sB v8sB v8 v8 v8 v8 v8 v8 v8 v8 v8 v8 v8 v8 v8 v8 v8 v8 v8 v8 v8 v8 v8 v8 v8 v8 v8 v8 v8 v8 v8 v8 t2v8 t4v8
  LINE 86 43 202
    t4r6vR t2r6vLsq r6vFsp r6vFsp r6v9sp r6v5sZ v5 v5 v5 v5 v5 v5 v5 v5 v5f2 v5f2 v5f2 v5f2 v5f2 v5f2 v5f2 v5f2 v5f2 v5f2 v5f2 v5f2 v5f2 v5f2 v5f2 v5f2 v5f2 v5f2 v5f2 v5f2 v5f2 v5f2 v5f2 v5f2 v5f2 v5f2 v5f2 v5f2 v5 v5 v5 v5 v5 v5 v5 v5 v5 v5 v5 v5 v5 v5 v5 v5 v5 v5 v5 v5 v5 v5 r6v5se r6v5se r6vAsO r6vAsT r6vA r6vA r6vA r6vA r6v5si v5 v5 v5 v5 v5 v5 v5 v5 v5 v5 v5 v5 v5 v5 v5 v5 v5 v5 v5 v5 v5 v5 v5 v5 v5 r6v5s9 r6v6sn vC vC vC vC vCsI vCsJ vCsJ vC vC vC vC vC vC vC vC vC vC vC vC r6vCsG r6vCsL r6vC vC vC vBsB vBsB vAsB v9sB v8sB v8 v8 v8 v8 v8 v8 v8 v8 v8 v8 v8 v8 v8 v8 v8 v8 v8 v8 v8 v8 v8 v8 v8 v8 v8 v8 v8 v8 v8 t2v8 t4v8
  LINE 87 44 203
    t4r6vLsr t2r6vL r6vL r6vFsq r6v9sp r6v5sZ v5 v5 v5 v5 v5f2 v5 v5 v5 v5 v5f2 v5f2 v5f2 v5f2 v5f2 v5f2 v5f2 v5f2 v5f2 v5f2 v5f2 v5f2 v5f2 v5f2 v5f2 v5f2 v5f2 v5f2 v5f2 v5f2 v5f2 v5f2 v5f2 v5f2 v5f2 v5f2 v5f2 v5 v5 v5 v5 v5 v5 v5 v5 v5 v5 v5 v5 v5 v5 v5 v5 v5 v5 v5 v5 v5 v5 v5 r6v5se r6vA r6v5sj r6v5se r6vA r6vA r6v5si v5 v5 v5 v5 v5 v5 v5 v5 v5 v5 v5 v5 v5 v5 v5 v5 v5 v5 v5 v5 v5 v5 v5 v5 v5 r6v5s9 r6v6sn vC vC vC r6vCso r6vCso vEsZ vEsJ vCsJ vC vC vC vC vC vC vC vC vC vC vC vC vC vC vC vC vC vC vBsB vAsB v9sB v8sB v8 v8 v8 v8 v8 v8 v8 v8 r6v8 r6v8 r6v8 v8 v8 v8 v8 v8 v8 v8 v8 v8 v8 v8 v8 v8 v8 v8 v8 v8 v8 t2v8 t4v8
  LINE 88 44 203
    t4r6vFsm t2r6vFsm r6vL r6vFsq r6vF r6v9sp r6v5sZ v5 v5 v5 v5 v5 v5 v5 v5 v5 v5f2 v5f2 v5f2 v5f2 v5f2 v5f2 v5f2 v5f2 v5f2 v5f2 v5f2 r6v5sof2 r6v5sof2 r6v5spf2 r6v5spf2 r6v5f2 v5f2 v5f2 v5f2 v5f2 v5f2 v5f2 v5f2 v5f2 v5f2 v5f2 v5 v5 v5 v5 v5 v5 v5 v5 v5 v5 v5 v5 v5 v5 v5 v5 v5 v5 v5 v5 v5 v5 v5 v5 r6v5se r6v5sj r6v5 r6v5sf r6vA r6v5si v5 v5 v5 v5 v5 v5 v5 v5 v5 v5 v5 v5 v5 v5 v5 v5 v5 v5 v5 v5 v5 v5 v5 v5 v5 v5 r6v5s9 r6v6sn vC vC r6vCso r6vIso r6vIsp vGsJ vEsJ vCsJ vC vC vC vC vC vC vC vC vC vC vC vC vC vC vC vC vC vC vBsB vAsB v9sB v8sB v8 v8 v8 v8 r6v8 r6v8 r6v8 r6v8so r6v8sp r6v8 r6v8 v8 v8 v8 v8 v8 v8 v8 v8 v8 v8 v8 v8 v8 v8 v8 v8 v8 t2v8 t4v8
  LINE 89 45 204
    t4r6vF t2r6vFsn r6vL r6vFsq r6vF r6v9sq r6v5sa v5 v5 v5 v5 v5 v5 v5 v5 v5 v5 v5f2 v5f2 v5f2 v5f2 v5f2 v5f2 v5f2 v5f2 v5f2 r6v5sof2 r6vBsof2 r6vBsof2 r6vBspf2 r6v5spf2 r6v5f2 v5f2 v5f2 v5f2 v5f2 v5f2 v5f2 v5f2 v5f2 v5f2 v5f2 v5 v5 v5 v5 v5 v5 v5 v5 v5 v5 v5 v5 v5 v5 v5 v5 v5 v5 v5 v5 v5 v5 v5 v5 v5 v5 r6v5sf r6vA r6v5si v5 v5 v5 v5 v5 v5 v5 v5 v5 v5 v5 v5 v5 v5 v5 v5 v5 v5 v5 v5 v5 v5 v5 v5 v5 v5 v5 r6v5s9 r6v6sn vC r6vCsn r6vIsn r6vO r6vIsq vGsJ vEsJ vCsJ vC vC vC vC vC vC vC vC vC vC vC vC vC vC vC vC vC vC vBsC vAsC v9sC v8sC v8 v8 r6v8 r6v8 r6v8 r6v8so r6v8so r6vE r6v8sp r6v8 r6v8 v8 v8 v8 v8 v8 v8 v8 v8 v8 v8 v8 v8 v8 v8 v8 v8 v8 t2v8 t4v8
  LINE 90 45 204
    t4r6vFso t2r6vFso r6vL r6vFsq r6vF r6v9sq r6v5sa v5 v5 v5 v5 v5 v5 v5 v5 v5 v5 v5 v5 v5 v5 r6v5so r6v5sof2 r6v5sof2 r6v5sof2 r6v5sof2 r6v5sof2 r6vBsof2 vHf2 vHf2 r6vBspf2 r6v5spf2 r6v5spf2 r6v5spf2 r6v5spf2 v5f2 v5f2 v5f2 v5f2 v5f2 v5f2 v5f2 v5f2 v5 v5 v5 v5 v5 v5 v5 v5 v5 v5 v5 v5 v5 v5 v5 v5 v5 v5 v5 v5 v5 v5 v5 v5 v5 r6v5sf r6vA r6v5si v5 v5 v5 v5 v5 v5 v5 v5 v5 v5 v5 v5 v5 v5 v5 v5 v5 v5 v5 v5 v5 v5 v5 v5 v5 v5 v5 v5 r6v5s9 r6v6sn r6vCsn r6vIsn r6vO r6vIsq vI vGsJ vEsJ vCsJ vC vC vC vC vC vC vC vC vC vC vC vC vC vC vC vC vC vBsC vAsC vA v8sK v8 r6v8so r6v8so r6v8so r6v8so r6v8so r6vEso r6vEso r6vEsp r6v8sp r6v8sp r6v8 v8 v8 v8 v8 v8 v8 v8 v8 v8 v8 v8 v8 v8 v8 v8 v8 t2v8 t4v8
  LINE 91 46 205
    t4r6vL t2r6vL r6vFsq r6vF r6v9sq r6v5sa v5 v5 v5 v5 v5 v5 v5 v5 v5 v5 v5 v5 v5 v5 r6v5so r6vBsY r6vBsY r6vBsY r6vBsY r6vBsYf2 r6vBsof2 vHf2 vHf2 vHf2 r6vBspf2 r6vBspf2 r6vBspf2 r6vBspf2 r6v5spf2 r6v5sZf2 r6v5sYf2 r6v5sof2 r6v5sof2 r6v5spf2 r6v5spf2 r6v5sBf2 r6v5sB r6v5sB v5 v5 v5 v5 v5 v5 v5 v5 v5 v5 v5 v5 v5 v5 v5 v5 v5 v5 v5 v5 v5 v5 v5 v5 r6v5se r6v5sj v5 v5 v5 v5 v5 v5 v5 v5 v5 v5 v5 v5 v5 v5 v5 v5 v5 v5 v5 v5 v5 v5 v5 v5 v5 v5 v5 v5 v5 r6v5s9 r6v6sn r6vCsn r6vIsm r6vIsr vI vI vGsJ vEsJ vCsJ vC vC vC vC vC vC vC vC vC vC vC vC vC vC vC vC vC vBsB vAsJ vA r6v8so r6v8so r6vEso r6vEso r6vEso r6vEso r6vEso r6vKsQ r6vKsR r6vEsp r6vE r6v8sq r6v8 v8 v8 v8 v8 v8 v8 v8 v8 v8 v8 v8 v8 v8 v8 v8 v8 t2v8 t4v8
  LINE 92 46 205
    t4r6vL t2r6vL r6vL r6vFsq r6v9sq r6v9 r6v5sZ r6v5sZ v5 v5 v5 v5 r6v5sY r6v5sY r6v5sZ v5 v5 v5 v5 v5sI r6v5so r6vBsY r6vFf2 r6vFf2 r6vFf2 r6vFf2 r6vFsIf2 vHf2 vHf2 vHf2 vHf2 r6vHf2 r6vHf2 r6vHf2 r6vBspf2 r6v9spf2 r6v9sYf2 r6v9sof2 r6vBsof2 r6vBsof2 r6vBspf2 r6v6spf2 r6v6sp r6v6sZ r6v5sB v5 v5 v5 v5 v5 v5 v5 v5 v5 v5 v5 v5 v5 v5 v5 v5 v5 v5 v5 v5 v5 v5 v5 v5 v5 v5 v5 v5 v5 v5 v5 v5 v5 v5 v5 v5 v5 v5 v5 v5 v5 v5 v5 v5 v5 v5 v5 v5 v5 v5 v5 v5 v5 v5 v5 r6v5s9 r6v6sn r6vCsn r6vI vI vI vI vGsJ vEsJ vCsJ vC vC vC vC vC vC vC vC vC vC vC vC vC vC vC vC vC vC r6vAsY r6vAsY r6vEso r6vEso r6vKsQ r6vKsQ r6vKsQ r6vKsQ r6vKsQ r6vN r6vKsR r6vEsp r6v8sq r6v8 r6v8 v8 v8 v8 v8 v8 v8 v8 v8 v8 v8 v8 v8 v8 v8 v8 t2v8 t4v8
  LINE 93 47 206
    t4r6vFsm t2r6vFsm r6vL r6vFsq r6v9sp r6v9sp r6v9sp r6v5sZ r6v5sZ r6v5sZ r6v5sY r6v5sY r6v9so r6v9sp r6v5sp r6v5sp v5 v5sI v5sI v7sI r6v9sn vF vFf2 vFf2 vFf2 vFsHf2 vHf2 vHf2 vHf2 vHf2 vHf2 vHf2 vHf2 r6vHf2 r6vFsJf2 r6vDsJf2 r6vDsIf2 r6vFsQf2 r6vHsAf2 r6vHsA r6vCsp r6vCsp r6vAsR r6v6sZ r6v5sB v5 v5 v5 v5 v5 v5 v5 v5 v5 v5 v5 v5 v5 v5 v5 v5 v5 v5 v5 v5 v5 v5 v5 v5 v5 v5 v5 v5 v5 v5 v5 v5 v5 v5 v5 v5 v5 v5 v5 v5 v5 v5 v5 v5 v5 v5 v5 v5 v5 v5 v5 v5 v5 v5 v5 r6v5s9 r6v6sn r6vCsn vI vI vI vI vGsJ vEsJ vCsJ vC vC vC vC vC vC vC vC vC vC vC vC vC vC vC vC vC r6vCsI r6vEso r6vEso r6vKsQ r6vKsQ r6vN r6vN r6vN r6vN r6vN r6vNsQ r6vKsp r6vEsp r6v8sp r6v8 r6v8 v8 v8 v8 v8 v8 v8 v8 v8 v8 v8 v8 v8 v8 v8 v8 t2v8 t4v8
  LINE 94 47 206
    t4r6vF t2r6vF r6vFsn r6vL r6vFsq r6vF r6vF r6v9sp r6v9sp r6v9sp r6v9sp r6v9so r6v9so vF r6vBsZ r6vBsZ r6v5sp v5sI v7sI v7sI v9sI vBsX vFf2 vFf2 vFf2 vFf2 vFsHf2 vHf2 vHf2 vHf2 vHf2 vHf2 vHf2 vHf2 r6vHf2 r6vEsSf2 r6vEf2 r6vEsXf2 r6vIsIf2 r6vIso r6vIsp r6vIsh r6vDsi r6vAsR r6v6sZ r6v5sh r6v5sB v5 v5 v5 v5 v5 v5 v5 v5 v5 v5 v5 v5 v5 v5 v5 v5 v5 v5 v5 v5 v5 v5 v5 v5 v5 v5 v5 v5 v5 v5 v5 v5 v5 v5 v5 v5 v5 v5 v5 v5 v5 v5 v5 v5 v5 v5 v5 v5 v5 v5 v5 v5 v5 r6v5s9 r6v6sn r6vCsn vI vI vI vI vI vGsJ vEsJ vCsK vC vC vC vC vC vC vC vC vC vC vC vC vC vC vC r6vC r6vCsg r6vEso r6vKsQ r6vKsQ r6vN r6vN r6vN r6vN r6vN r6vN r6vNso r6vQsR r6vKsp r6vEsp r6v8sp r6v8 r6v8 v8 v8 v8 v8 v8 v8 v8 v8 v8 v8 v8 v8 v8 v8 t2v8 t4v8
  LINE 95 48 207
    t4r6vFso t2r6vFso r6vL r6vFsq r6vF r6vF r6vF r6vF r6vF vF vF vF vF vF vF r6vBsZ r6v7sp v7sI v9sI v9sIf2 vBsIf2 vDsHf2 vFf2 vFf2 vFf2 vFf2 vFsHf2 vHf2 vHf2 vHf2 vHf2 vHf2 vHf2 r6vHsAf2 r6vGsIf2 r6vEsJf2 r6vEf2 r6vEsnf2 r6vKsg r6vOsQ r6vNsZ r6vHsq r6vDsa r6vAsR r6vAsR r6v6sp r6v5sB v5 v5 v5 v5 v5 v5 v5 v5 v5 v5 v5 v5 v5 v5 v5 v5 v5 v5 v5 v5 v5 v5 v5 v5 v5 v5 v5 v5 v5 v5 v5 v5 v5 v5 v5 v5 v5 v5 v5 v5 v5 v5 v5 v5 v5 v5 v5 v5 v5 v5 v5 v5 v5 r6v5s9 r6v6sn r6vCsn vI vI vI vI vI vGsJ r7vCsa vC vC vC vC vC vC vC vC vC vC vC vC vC vC vC r6vCsI r6vCsg r6vHso r6vKsQ r6vN r6vN r6vN r6vN r6vN r6vN r6vNso r6vNso r6vTsQ r6vQsp r6vKsp r6vEsp r6v8sp r6v8 r6v8 v8 v8 v8 v8 v8 v8 v8 v8 v8 v8 v8 v8 v8 v8 t2v8 t4v8
  LINE 96 48 207
    t4r6vLso t2r6vLso r6vLso r6vLsp r6vFsp r6vF vF vF vF vF vFf2 vF vF vF vF vF r6vDsJ r6v9sp v9sIf2 vBsIf2 vBsIf2 vDsIf2 vFf2 vFf2 vFf2 vFf2 vFsHf2 vHf2 vHf2 vHf2 vHf2 vHf2 r6vHsAf2 r6vHsAf2 r6vIsYf2 r6vGspf2 r6vEshf2 r6vEsgf2 r6vJsn r6vPso r6vRsZ r6vLsq r6vFsq r6vDsJ r6vDsJ r6vCsR r6v6sp r6v5sp v5 v5 v5 v5 v5 v5 v5 v5 v5 v5 v5 v5 v5 v5 v5 v5 v5 v5 v5 v5 v5 v5 v5 v5 v5 v5 v5 v5 v5 v5 v5 v5 v5 v5 v5 v5 v5 v5 v5 v5 v5 v5 v5 v5 v5 v5 v5 v5 v5 v5 v5 v5 v5 r6v5sn r6vBsn vHs9 vI vI vI vI vI r7vFsS r7vCsR r7vCsR vC vC vC vC vC vC vC vC vC vC vC vC r6vC r6vCsg r6vEso r6vHso r6vN r6vN r6vN r6vN r6vN r6vN r6vN r6vNso r6vTsY r6vTsY r6vWsB r6vQsp r6vKsp r6vEsp r6v8sp r6v8 r6v8 v8 v8 v8 v8 v8 v8 v8 v8 v8 v8 v8 v8 v8 t2v8 t4v8
  LINE 97 49 208
    t4r6vR t2r6vR r6vR r6vLsp r6vFsp vF vFf2 vF vF vF vF r6vFso r6vFso r6vFsp r6vFsp vF vF vBsZ vBsIf2 vDsIf2 vDsIf2 vFf2 vFf2 vFf2 vFf2 vFf2 vFsHf2 vHf2 vHf2 vHf2 vHf2 r6vHsAf2 r6vIsof2 r6vIsof2 r6vMsQf2 r6vJspf2 r6vJspf2 r6vJso r6vPso r6vVsA r6vQsq r6vKsq r6vFsh r6vFso r6vFsp r6vCsp r6vBsp r6v5sp r6v5 v5 v5 v5 v5 v5 v5 v5 v5 v5 v5 v5 v5 v5 v5 v5 v5 v5 v5 v5 v5 v5 v5 v5 v5 v5 v5 v5 v5 v5 v5 v5 v5 v5 v5 v5 v5 v5 v5 v5 v5 v5 v5 v5 v5 v5 v5 v5 v5 v5 v5 v5 r6v5s9 r6v6sn r6vCsn vI vI vI vI vI vI r7vFsR r7vFsR r7vCsR vC vC vC vC vC vC vC vC vC vC r6vCsI r6vCsI r6vCsg r6vHso r6vKsQ r6vN r6vN r6vN r6vN r6vN r6vN r6vN r6vNso r6vTsY r6vX r6vX r6vWsB r6vQsp r6vKsp r6vEsp r6v8sp r6v8 r6v8 v8 v8 v8 v8 v8 v8 v8 v8 v8 v8 v8 v8 v8 t2v8 t4v8
  LINE 98 49 208
    t4r6vLsm t2r6vLsm t2r6vLsm t2r6vR t2r6vLsp t2r6vFsp t2vF t2vF t2vF t2vF t2vF t2r6vFsn t2r6vLsg t2r6vLsg t2r6vLsh t2r6vFsp t2vF t2vF t2vDsJ t2vDsIf2 t2vFf2 t2vFf2 t2vFf2 t2vFf2 t2vFf2 t2vFf2 t2vFsHf2 t2vHf2 t2vHf2 t2vHf2 t2vHf2 t2r6vHs9f2 t2r6vIsnf2 t2r6vOsof2 t2r6vOsof2 t2r6vPsgf2 t2r6vPshf2 t2r6vPsQ t2r6vPso t2r6vVsg t2r6vWsZ t2r6vQsq t2r6vKsp t2r6vKso t2r6vLsh t2r6vIsp t2r6vHsB t2r6vBsp t2r6v5sp t2r6v5sp t2v5 t2v5 t2v5 t2v5 t2v5 t2v5 t2v5 t2v5 t2v5 t2v5 t2v5 t2v5 t2v5 t2v5 t2v5 t2v5 t2v5 t2v5 t2v5 t2v5 t2v5 t2v5 t2v5 t2v5 t2v5 t2v5 t2v5 t2v5 t2v5 t2v5 t2v5 t2v5 t2v5 t2v5 t2v5 t2v5 t2v5 t2v5 t2v5 t2v5 t2v5 t2v5 t2v5 t2v5 t2v5 t2v5 t2v5 t2v5 t2v5 t2v5 t2v5 t2r6v5s9 t2r6v6sn t2r6vCsn t2vI t2vI t2vI t2vI t2vI t2vI t2vI t2r7vFsR t2r7vCsR t2vC t2vC t2vC t2vC t2vC t2vC t2vC t2vC t2r6vC t2r6vCsg t2r6vEso t2r6vEso t2r6vHso t2r6vN t2r6vN t2r6vN t2r6vN t2r6vN t2r6vN t2r6vN t2r6vN t2r6vNsn t2r6vTsX t2r6vX t2r6vX t2r6vX t2r6vWsB t2r6vQsp t2r6vKsp t2r6vEsp t2r6v8sp t2r6v8 t2r6v8 t2v8 t2v8 t2v8 t2v8 t2v8 t2v8 t2v8 t2v8 t2v8 t2v8 t2v8 t2v8 t2v8 t4v8
  LINE 99 50 209
    t4r6vFsm t4r6vFsm t4r6vLsm t4r6vR t4r6vLsq t4r6vFsq t4vF t4vF t4vF t4vF t4r6vFsn t4r6vLsf t4r6vQ t4r6vQ t4r6vLsi t4r6vFsq t4vF t4vF t4vF t4vF t4vFf2 t4vFf2 t4vFf2 t4vFf2 t4vFf2 t4vFsHf2 t4vHf2 t4vHf2 t4vHf2 t4vHf2 t4r6vHs9f2 t4r6vIsnf2 t4r6vOsnf2 t4r6vUf2 t4r6vUf2 t4r6vUf2 t4r6vSsI t4r6vSsQ t4r6vVsf t4r6va t4r6vUsq t4r6vQsa t4r6vQ t4r6vQ t4r6vOsK t4r6vIsq t4r6vHsC t4r6vBsq t4r6vB t4r6v5sq t4v5 t4v5 t4v5 t4v5 t4v5 t4v5 t4v5 t4v5 t4v5 t4v5 t4v5 t4v5 t4v5 t4v5 t4v5 t4v5 t4v5 t4v5 t4v5 t4v5 t4v5 t4v5 t4v5 t4v5 t4v5 t4v5 t4v5 t4v5 t4v5 t4v5 t4v5 t4v5 t4v5 t4v5 t4v5 t4v5 t4v5 t4v5 t4v5 t4v5 t4v5 t4v5 t4v5 t4v5 t4v5 t4v5 t4v5 t4v5 t4v5 t4v5 t4v5s9 t4r6v6sn t4r6vCsn t4vI t4vI t4vI t4vI t4vI t4vI t4vI t4vI t4r7vFsS t4r7vCsS t4vC t4vC t4vC t4vC t4vC t4vC t4r6vC t4r6vC t4r6vCsf t4r6vHsP t4r6vK t4r6vKsP t4r6vN t4r6vN t4r6vN t4r6vN t4r6vN t4r6vN t4r6vN t4r6vN t4r6vNsn t4r6vTsX t4r6vX t4r6vX t4r6vX t4r6vX t4r6vWsC t4r6vQsq t4r6vKsq t4r6vEsq t4r6v8sq t4r6v8 t4v8 t4v8 t4v8 t4v8 t4v8 t4v8 t4v8 t4v8 t4v8 t4v8 t4v8 t4v8 t4v8 t4v8 t4v8
END_OF_HEXES

EXTERNAL_NODES nodes.bin
ENVIROMENT
  SET 1 dummy
  SET 2 list-akatojerab
  SET 3 list-jerab-spal
  SET 4 list-platan
  SET 5 list-platan-spal
  SET 6 list-mocal-koreny
  SET 7 list-vrba
  SET 8 list-vrba-zluta
  SET 9 jehl-borovice
  SET 10 jehl-borov-vysoka
  SET 11 jehl-borovice-mala
  SET 12 stone_set_01
  SET 13 stone_set_02
  SET 14 stone_set_03
  SET 15 stone_set_04
  SET 16 stone_set_05
  SET 17 stone_set_06
  SET 18 stone_set_07
  SET 19 houby
  SET 20 mrcha
  SET 21 jehl-smrk-silny
  SET 22 jehl-smrk-stredni
  SET 23 jehl-smrk-uzky-spal
  SET 24 jehl-smrk-stredni
  SET 25 jehl-smrk-stredni-spal
  SET 26 jehl-smrk-stredni-suchy
  SET 27 list-dvoupatr
  SET 28 list-briza
  SET 29 list-paskvil
  SET 30 ker
  SET 31 jehl-borov-vysoka-spal
  SET 32 list-akat-vysoky-spal
  SET 33 plavun
  SET 34 cykas
  SET 35 list-kastan
  SET 36 mech
  SET 37 jehl-smrk-maly
  SET 38 ker-husty
  SET 39 ker-rosti
  SET 40 list-akat-rosti
  SET 41 list-briza-vyssi
  SET 42 list-sahara
  SET 43 list-akat-maly
  SET 44 list-dvoupatr-maly
  SET 45 parez
  SET 46 polosuche
  SET 47 list-dub
  SET 48 list-kastan-vanek
  SET 49 parezoid
  SET 50 branka
  SET 51 leknin
  SET 52 monolit
  ON_HEX 21 0
    sei4
  ON_HEX 40 0
    sdi6
  ON_HEX 41 0
    sdi6
  ON_HEX 45 0
    sdi2
  ON_HEX 46 0
    sdi7
  ON_HEX 67 0
    sdi5
  ON_HEX 52 1
    sdi8
  ON_HEX 53 1
    sdi2
  ON_HEX 54 1
    sdi6
  ON_HEX 61 1
    sdi9
  ON_HEX 66 1
    sdi8
  ON_HEX 84 1
    sdi8
  ON_HEX 139 1
    sdi4
  ON_HEX 33 2
    s2iE
  ON_HEX 64 2
    sdi2
  ON_HEX 114 2
    sHi5
  ON_HEX 21 3
    sei1
  ON_HEX 112 3
    sdi8
  ON_HEX 117 3
    s2i7
  ON_HEX 119 3
    sdiA
  ON_HEX 154 3
    s2iA
  ON_HEX 24 4
    sei1
  ON_HEX 29 4
    sgi5
  ON_HEX 38 4
    sdi4
  ON_HEX 39 4
    sdi8
  ON_HEX 50 4
    sdi9
  ON_HEX 86 4
    sdi8
  ON_HEX 26 5
    s2iH
  ON_HEX 40 5
    sdi7
  ON_HEX 112 5
    sdi6
  ON_HEX 117 5
    sdi8
  ON_HEX 141 5
    sdi6
  ON_HEX 147 5
    s2i7
  ON_HEX 149 5
    shi7
  ON_HEX 26 6
    sgi1
  ON_HEX 30 6
    s2iG
  ON_HEX 51 6
    sdi5
  ON_HEX 53 6
    sdi7
  ON_HEX 56 6
    sdi7
  ON_HEX 109 6
    sdi7
  ON_HEX 115 6
    sdi4
  ON_HEX 143 6
    sdi4
  ON_HEX 6 7
    s2iB
  ON_HEX 26 7
    sei3
  ON_HEX 37 7
    s2iE
  ON_HEX 90 7
    sdi7
  ON_HEX 110 7
    sdi2
  ON_HEX 119 7
    sdi7
  ON_HEX 126 7
    sdi5
  ON_HEX 160 7
    ski2
  ON_HEX 7 8
    s2i7
  ON_HEX 28 8
    seiA
  ON_HEX 50 8
    sdi6
  ON_HEX 92 8
    sdi9
  ON_HEX 112 8
    sdi7
  ON_HEX 120 8
    sdi4
  ON_HEX 145 8
    s2iD
  ON_HEX 148 8
    sdi5
  ON_HEX 153 8
    s2iH
  ON_HEX 7 9
    shi4
  ON_HEX 8 9
    sei5
  ON_HEX 38 9
    sei6
  ON_HEX 52 9
    sdi6
  ON_HEX 95 9
    sdi1
  ON_HEX 116 9
    sdi5
  ON_HEX 118 9
    sdi1
  ON_HEX 131 9
    sdi7
  ON_HEX 145 9
    sdi9
  ON_HEX 7 10
    sei9
  ON_HEX 30 10
    sei3
  ON_HEX 31 10
    s2iE
  ON_HEX 48 10
    sdi4
  ON_HEX 68 10
    sdi2
  ON_HEX 94 10
    sdi4
  ON_HEX 105 10
    sdiA
  ON_HEX 127 10
    sdi8
  ON_HEX 32 11
    sei1
  ON_HEX 99 11
    sdi1
  ON_HEX 111 11
    sdi2
  ON_HEX 118 11
    sdi6
  ON_HEX 127 11
    sdi9
  ON_HEX 35 12
    s2iH
  ON_HEX 69 12
    sdi5
  ON_HEX 113 12
    sdi5
  ON_HEX 127 12
    sdi2
  ON_HEX 150 12
    sdi6
  ON_HEX 33 13
    sei6
  ON_HEX 34 13
    sei7
  ON_HEX 36 13
    seiA
  ON_HEX 37 13
    sei1
  ON_HEX 39 13
    seiA
  ON_HEX 40 13
    sei6
  ON_HEX 71 13
    sdi9
  ON_HEX 98 13
    sdi1
  ON_HEX 112 13
    sdiA
  ON_HEX 114 13
    sdi9
  ON_HEX 129 13
    sdi5
  ON_HEX 152 13
    sdi3
  ON_HEX 116 14
    sdi4
  ON_HEX 120 14
    sdi4
  ON_HEX 127 14
    sdi2
  ON_HEX 128 14
    sdi1
  ON_HEX 139 14
    sdi6
  ON_HEX 119 15
    sdi8
  ON_HEX 140 15
    sdi1
  ON_HEX 154 15
    s2i1
  ON_HEX 102 16
    sdi9
  ON_HEX 118 16
    sdi6
  ON_HEX 120 16
    sgi2
  ON_HEX 136 16
    sdi6
  ON_HEX 142 16
    sdi5
  ON_HEX 156 16
    sdi3
  ON_HEX 112 17
    sdi3
  ON_HEX 136 17
    sdi9
  ON_HEX 143 17
    sdiA
  ON_HEX 155 17
    sdi2
  ON_HEX 164 17
    sdi2
  ON_HEX 112 18
    sdi3
  ON_HEX 118 18
    sdi4
  ON_HEX 130 18
    sgi3
  ON_HEX 103 19
    sdi7
  ON_HEX 120 19
    sdi6
  ON_HEX 142 19
    sdi4
  ON_HEX 167 19
    shi9
  ON_HEX 118 20
    sdi2
  ON_HEX 121 20
    sgi8
  ON_HEX 59 21
    sdi4
  ON_HEX 60 21
    sdi4
  ON_HEX 109 21
    sdi4
  ON_HEX 112 21
    sdi6
  ON_HEX 132 21
    sgi8
  ON_HEX 165 21
    sdi5
  ON_HEX 17 22
    s2iL
  ON_HEX 18 22
    sei8
  ON_HEX 56 22
    sdi4
  ON_HEX 62 22
    sdi3
  ON_HEX 105 22
    sdi3
  ON_HEX 125 22
    sdiA
  ON_HEX 17 23
    s2iH
  ON_HEX 111 23
    sdi8
  ON_HEX 122 23
    sdi4
  ON_HEX 123 23
    sgi5
  ON_HEX 18 24
    sei6
  ON_HEX 59 24
    sdiA
  ON_HEX 63 24
    shi9
  ON_HEX 110 24
    sdi1
  ON_HEX 164 24
    sdi4
  ON_HEX 16 25
    s2i2
  ON_HEX 17 25
    sei4
  ON_HEX 39 25
    sHi1
  ON_HEX 61 25
    sdi2
  ON_HEX 108 25
    sdi4
  ON_HEX 111 25
    sdi1
  ON_HEX 113 25
    sdi8
  ON_HEX 134 25
    sgiA
  ON_HEX 166 25
    shi9
  ON_HEX 167 26
    sdi6
  ON_HEX 168 26
    sdi1
  ON_HEX 170 26
    s2iI
  ON_HEX 171 26
    sdi5
  ON_HEX 16 27
    s2iO
  ON_HEX 18 28
    sei4
  ON_HEX 133 28
    sgi8
  ON_HEX 159 28
    sdi4
  ON_HEX 102 29
    sgi8
  ON_HEX 101 30
    sdi9
  ON_HEX 145 30
    sdi5
  ON_HEX 159 30
    sdi9
  ON_HEX 43 31
    sdi2
  ON_HEX 147 31
    sdi5
  ON_HEX 151 31
    sdi9
  ON_HEX 41 32
    sdi8
  ON_HEX 42 32
    s2iQ
  ON_HEX 80 32
    sdi7
  ON_HEX 100 32
    sdi8
  ON_HEX 101 32
    sgi3
  ON_HEX 131 32
    sdi7
  ON_HEX 136 32
    sgi3
  ON_HEX 149 32
    sdi5
  ON_HEX 43 33
    sdi3
  ON_HEX 80 33
    sdi3
  ON_HEX 97 33
    sdi7
  ON_HEX 98 33
    sdi4
  ON_HEX 100 33
    sgi2
  ON_HEX 134 33
    s2iE
  ON_HEX 137 33
    sgiA
  ON_HEX 45 34
    sdiA
  ON_HEX 79 34
    sdi4
  ON_HEX 96 34
    sdi8
  ON_HEX 139 34
    s2iJ
  ON_HEX 157 34
    sdi3
  ON_HEX 48 35
    s2i5
  ON_HEX 78 35
    sdi5
  ON_HEX 136 35
    sdi8
  ON_HEX 47 36
    s2iQ
  ON_HEX 48 36
    sei4
  ON_HEX 97 36
    sdi4
  ON_HEX 100 36
    sgi9
  ON_HEX 157 36
    sdi1
  ON_HEX 41 37
    sdi3
  ON_HEX 79 37
    s2iC
  ON_HEX 129 37
    sei5
  ON_HEX 140 37
    sdiA
  ON_HEX 148 37
    sdi2
  ON_HEX 151 37
    sdi4
  ON_HEX 152 37
    sdi6
  ON_HEX 49 38
    sdiA
  ON_HEX 81 38
    sdi3
  ON_HEX 44 39
    s2iF
  ON_HEX 79 39
    sHi3
  ON_HEX 134 39
    sdi7
  ON_HEX 148 39
    sdi7
  ON_HEX 157 39
    sdi6
  ON_HEX 43 40
    sdi5
  ON_HEX 45 40
    sdi7
  ON_HEX 79 40
    sdi4
  ON_HEX 131 40
    sdi8
  ON_HEX 138 40
    sdi5
  ON_HEX 144 40
    sjiF
  ON_HEX 146 40
    sdi7
  ON_HEX 147 40
    sdi5
  ON_HEX 154 40
    sdi6
  ON_HEX 155 40
    sdi6
  ON_HEX 157 40
    s2iE
  ON_HEX 137 41
    sdi3
  ON_HEX 141 41
    sdi7
  ON_HEX 156 42
    sdi8
  ON_HEX 38 43
    s2i1
  ON_HEX 39 43
    sdi6
  ON_HEX 141 43
    sgi1
  ON_HEX 145 43
    sdi1
  ON_HEX 55 44
    sdi9
  ON_HEX 139 44
    sgi7
  ON_HEX 145 44
    sgi1
  ON_HEX 151 44
    sdi6
  ON_HEX 157 44
    sdi4
  ON_HEX 39 45
    sdi8
  ON_HEX 56 45
    sdi7
  ON_HEX 113 45
    sdi7
  ON_HEX 136 45
    sei7
  ON_HEX 154 45
    sei1
  ON_HEX 60 46
    sdi4
  ON_HEX 61 46
    s2i8
  ON_HEX 109 46
    sdi9
  ON_HEX 116 46
    sdi3
  ON_HEX 118 46
    sgi2
  ON_HEX 140 46
    sdi9
  ON_HEX 146 46
    sgi2
  ON_HEX 147 46
    sgi1
  ON_HEX 57 47
    sdi7
  ON_HEX 58 47
    sdiA
  ON_HEX 61 47
    sdi6
  ON_HEX 111 47
    sgi9
  ON_HEX 112 47
    sdi2
  ON_HEX 114 47
    sgi3
  ON_HEX 156 47
    sdi3
  ON_HEX 59 48
    sdi9
  ON_HEX 145 48
    sdi9
  ON_HEX 147 48
    sgi5
  ON_HEX 151 48
    sdi9
  ON_HEX 57 49
    shiA
  ON_HEX 119 49
    sdiA
  ON_HEX 127 49
    sdi6
  ON_HEX 135 49
    sdi7
  ON_HEX 153 49
    sgi4
  ON_HEX 58 50
    sdi3
  ON_HEX 78 50
    sdi4
  ON_HEX 80 50
    sgi2
  ON_HEX 81 50
    sdi7
  ON_HEX 120 50
    s2iB
  ON_HEX 124 50
    sdi7
  ON_HEX 126 50
    sgi6
  ON_HEX 130 50
    sgi8
  ON_HEX 134 50
    sdi2
  ON_HEX 136 50
    sdi4
  ON_HEX 177 50
    sdi2
  ON_HEX 122 51
    sdi9
  ON_HEX 124 51
    sdi2
  ON_HEX 150 51
    sei1
  ON_HEX 180 51
    sdi1
  ON_HEX 57 52
    s2iE
  ON_HEX 75 52
    sdi1
  ON_HEX 77 52
    sdi1
  ON_HEX 80 52
    sdi4
  ON_HEX 127 52
    sdi3
  ON_HEX 133 52
    sgi5
  ON_HEX 137 52
    sdiA
  ON_HEX 58 53
    sdi9
  ON_HEX 134 53
    sgiA
  ON_HEX 60 54
    sdi2
  ON_HEX 74 54
    sgiA
  ON_HEX 75 54
    sdi7
  ON_HEX 79 54
    sdi9
  ON_HEX 80 54
    sdiA
  ON_HEX 97 54
    s2iE
  ON_HEX 123 54
    sdi7
  ON_HEX 179 54
    sgi9
  ON_HEX 72 55
    sdi5
  ON_HEX 74 55
    sdi2
  ON_HEX 98 55
    sgi5
  ON_HEX 101 55
    sHiC
  ON_HEX 124 55
    sdi7
  ON_HEX 132 55
    sgi8
  ON_HEX 177 55
    sdi4
  ON_HEX 178 55
    sgi7
  ON_HEX 60 56
    sdi3
  ON_HEX 66 56
    sdi9
  ON_HEX 130 56
    sdi8
  ON_HEX 136 56
    sdi8
  ON_HEX 179 56
    sdi3
  ON_HEX 85 57
    sgi7
  ON_HEX 97 57
    s2iB
  ON_HEX 98 57
    sgi6
  ON_HEX 100 57
    s2iG
  ON_HEX 126 57
    sdi5
  ON_HEX 129 57
    sdi5
  ON_HEX 164 57
    sgiA
  ON_HEX 101 58
    sgi8
  ON_HEX 128 58
    sdi8
  ON_HEX 137 58
    sji4
  ON_HEX 140 58
    sei3
  ON_HEX 161 58
    sdi2
  ON_HEX 162 58
    sgi9
  ON_HEX 163 58
    sdi4
  ON_HEX 54 59
    sdi1
  ON_HEX 66 59
    sdi3
  ON_HEX 78 59
    sdi4
  ON_HEX 80 59
    sdi1
  ON_HEX 81 59
    sei9
  ON_HEX 118 59
    sei7
  ON_HEX 126 59
    sdi9
  ON_HEX 165 59
    sgi4
  ON_HEX 166 59
    sdi4
  ON_HEX 178 59
    sgi9
  ON_HEX 32 60
    shiA
  ON_HEX 54 60
    sdi1
  ON_HEX 69 60
    sdi7
  ON_HEX 126 60
    sdi7
  ON_HEX 166 60
    sdi4
  ON_HEX 58 61
    sdi2
  ON_HEX 60 61
    sdi9
  ON_HEX 69 61
    sdi3
  ON_HEX 80 61
    sdi3
  ON_HEX 84 61
    sgi5
  ON_HEX 86 61
    sdi4
  ON_HEX 118 61
    sei1
  ON_HEX 158 61
    sdi6
  ON_HEX 159 61
    sdi2
  ON_HEX 78 62
    sdi1
  ON_HEX 85 62
    sdi8
  ON_HEX 158 62
    sgi1
  ON_HEX 166 62
    sdi2
  ON_HEX 84 63
    sdi1
  ON_HEX 89 63
    sgi7
  ON_HEX 122 63
    sgi9
  ON_HEX 156 63
    sdi9
  ON_HEX 157 63
    sdi2
  ON_HEX 68 64
    sdi1
  ON_HEX 88 64
    sdi5
  ON_HEX 107 64
    sdi3
  ON_HEX 109 64
    sdi1
  ON_HEX 122 64
    sgi6
  ON_HEX 123 64
    sei5
  ON_HEX 124 64
    s2iI
  ON_HEX 38 65
    s2i7
  ON_HEX 112 65
    shi8
  ON_HEX 121 65
    sei1
  ON_HEX 123 65
    sei3
  ON_HEX 168 65
    sdi9
  ON_HEX 187 65
    sgi1
  ON_HEX 63 66
    sdi7
  ON_HEX 69 66
    sdi4
  ON_HEX 105 66
    sdi2
  ON_HEX 107 66
    s2iK
  ON_HEX 113 66
    sdi9
  ON_HEX 157 66
    sdi9
  ON_HEX 167 66
    sgi5
  ON_HEX 185 66
    sgi8
  ON_HEX 103 67
    sdi9
  ON_HEX 104 67
    sei4
  ON_HEX 165 67
    sgi7
  ON_HEX 63 68
    sdi1
  ON_HEX 106 68
    sdi8
  ON_HEX 107 68
    s2iR
  ON_HEX 163 68
    sgi2
  ON_HEX 169 68
    sdi2
  ON_HEX 66 69
    sdi3
  ON_HEX 68 69
    sdi3
  ON_HEX 108 69
    sdi9
  ON_HEX 116 69
    sdi5
  ON_HEX 151 69
    sji7
  ON_HEX 108 70
    sdi3
  ON_HEX 118 70
    s2iB
  ON_HEX 142 70
    sdi4
  ON_HEX 68 71
    sdi6
  ON_HEX 92 71
    sHiA
  ON_HEX 114 71
    sdiA
  ON_HEX 144 71
    sdi7
  ON_HEX 164 71
    sgi5
  ON_HEX 166 71
    sdiA
  ON_HEX 171 71
    sdi7
  ON_HEX 112 72
    sdiA
  ON_HEX 118 72
    sdi4
  ON_HEX 121 72
    sdi9
  ON_HEX 145 72
    sdi5
  ON_HEX 160 72
    sgi9
  ON_HEX 161 72
    sdi4
  ON_HEX 162 72
    sgi3
  ON_HEX 170 72
    sgi3
  ON_HEX 188 72
    sgi3
  ON_HEX 114 73
    s2iB
  ON_HEX 144 73
    sdi9
  ON_HEX 146 73
    sdi7
  ON_HEX 170 73
    sdi6
  ON_HEX 84 74
    sdi5
  ON_HEX 121 74
    sdi7
  ON_HEX 160 74
    sdi7
  ON_HEX 40 75
    s2iA
  ON_HEX 41 75
    sdi5
  ON_HEX 91 75
    sdi6
  ON_HEX 113 75
    s2iR
  ON_HEX 147 75
    sdi5
  ON_HEX 162 75
    sdi8
  ON_HEX 192 75
    sgi5
  ON_HEX 42 76
    sdi5
  ON_HEX 122 76
    s2i3
  ON_HEX 140 76
    sgi8
  ON_HEX 168 76
    sgi6
  ON_HEX 169 76
    sdiA
  ON_HEX 44 77
    s2iF
  ON_HEX 45 77
    sdi8
  ON_HEX 81 77
    sdi3
  ON_HEX 83 77
    sgi5
  ON_HEX 86 77
    sgi5
  ON_HEX 91 77
    sdi4
  ON_HEX 93 77
    sdi2
  ON_HEX 142 77
    sdi8
  ON_HEX 149 77
    sdi8
  ON_HEX 165 77
    sdi1
  ON_HEX 166 77
    sgi3
  ON_HEX 167 77
    sdi1
  ON_HEX 44 78
    sdi5
  ON_HEX 80 78
    sdi6
  ON_HEX 88 78
    sdi6
  ON_HEX 122 78
    sdi6
  ON_HEX 43 79
    sdi6
  ON_HEX 92 79
    sgiA
  ON_HEX 142 79
    sdi4
  ON_HEX 146 79
    sdi5
  ON_HEX 154 79
    sdi2
  ON_HEX 45 80
    sdi1
  ON_HEX 83 80
    sgi8
  ON_HEX 142 80
    sgi8
  ON_HEX 148 80
    sgi9
  ON_HEX 157 80
    sdi4
  ON_HEX 43 81
    sdiA
  ON_HEX 45 81
    sdi6
  ON_HEX 82 81
    sgi3
  ON_HEX 94 81
    sdiA
  ON_HEX 146 81
    sgi3
  ON_HEX 149 81
    sdi3
  ON_HEX 156 81
    sgi5
  ON_HEX 45 82
    s2i1
  ON_HEX 82 82
    sdi5
  ON_HEX 114 82
    sdi5
  ON_HEX 115 82
    s2iM
  ON_HEX 148 82
    sdi3
  ON_HEX 45 83
    sdi4
  ON_HEX 48 83
    sdi1
  ON_HEX 118 83
    sdi8
  ON_HEX 122 83
    sdi4
  ON_HEX 152 83
    sdiA
  ON_HEX 48 84
    sdi5
  ON_HEX 86 84
    sgi2
  ON_HEX 100 84
    sdi5
  ON_HEX 116 84
    sdi4
  ON_HEX 120 84
    sdi6
  ON_HEX 56 85
    sdi8
  ON_HEX 57 85
    sdiA
  ON_HEX 89 85
    sgi4
  ON_HEX 102 85
    sdi5
  ON_HEX 122 85
    s2iH
  ON_HEX 139 85
    sdi4
  ON_HEX 144 85
    sdiA
  ON_HEX 154 85
    sgi5
  ON_HEX 49 86
    sdi5
  ON_HEX 87 86
    sdi5
  ON_HEX 91 86
    sdi2
  ON_HEX 96 86
    sgiA
  ON_HEX 144 86
    sdi2
  ON_HEX 147 86
    sdi2
  ON_HEX 155 86
    sdi7
  ON_HEX 140 87
    sgi8
  ON_HEX 158 87
    sgi3
  ON_HEX 189 87
    sdi5
  ON_HEX 91 88
    sdi6
  ON_HEX 93 88
    sgi6
  ON_HEX 135 88
    sdi9
  ON_HEX 137 88
    sgi1
  ON_HEX 141 88
    sdi3
  ON_HEX 145 88
    sdi5
  ON_HEX 189 88
    s2iP
  ON_HEX 50 89
    sdi6
  ON_HEX 69 89
    s2iC
  ON_HEX 90 89
    sdiA
  ON_HEX 97 89
    sgi9
  ON_HEX 98 89
    sdi6
  ON_HEX 102 89
    sgi6
  ON_HEX 104 89
    sdiA
  ON_HEX 144 89
    sdi1
  ON_HEX 186 89
    sdiA
  ON_HEX 95 90
    sgi8
  ON_HEX 99 90
    sdi6
  ON_HEX 101 90
    sdi8
  ON_HEX 136 90
    sgi6
  ON_HEX 139 90
    sdi1
  ON_HEX 189 90
    sdi6
  ON_HEX 66 91
    sdi5
  ON_HEX 69 91
    sdi4
  ON_HEX 71 91
    sdi4
  ON_HEX 92 91
    sdi3
  ON_HEX 100 91
    sdi5
  ON_HEX 106 91
    sdi6
  ON_HEX 188 91
    s2i7
  ON_HEX 196 91
    sdi9
  ON_HEX 68 92
    shi1
  ON_HEX 95 92
    sdi3
  ON_HEX 103 92
    sdi9
  ON_HEX 107 92
    sdi3
  ON_HEX 162 92
    sdi4
  ON_HEX 193 92
    s2iE
  ON_HEX 59 93
    sdi1
  ON_HEX 60 93
    sdi6
  ON_HEX 69 93
    sdi1
  ON_HEX 98 93
    sdi6
  ON_HEX 105 93
    sdi4
  ON_HEX 195 93
    s2i2
  ON_HEX 198 93
    sdi5
  ON_HEX 62 94
    sdi3
  ON_HEX 96 94
    sdiA
  ON_HEX 106 94
    sdi5
  ON_HEX 115 94
    sHi9
  ON_HEX 159 94
    sdi5
  ON_HEX 191 94
    sdi8
  ON_HEX 197 94
    sdi5
  ON_HEX 200 94
    sdi3
  ON_HEX 205 94
    sdiA
  ON_HEX 100 95
    sdi7
  ON_HEX 104 95
    sdi1
  ON_HEX 131 95
    sgiA
  ON_HEX 204 95
    sdi7
  ON_HEX 106 96
    sdi7
  ON_HEX 129 96
    sdi4
  ON_HEX 179 96
    sdi6
  ON_HEX 204 96
    s2iD
  ON_HEX 165 97
    sgi2
  ON_HEX 176 97
    sdi5
  ON_HEX 195 97
    sdi3
  ON_HEX 201 97
    sdi2
  ON_HEX 204 97
    s2iK
  ON_HEX 206 97
    s2iJ
  ON_HEX 133 98
    sgi2
  ON_HEX 163 98
    sgi8
  ON_HEX 181 98
    sdi4
  ON_HEX 199 98
    sdi1
  ON_HEX 200 98
    sdi7
  ON_HEX 205 98
    sdi7
  ON_HEX 132 99
    sdi3
END_OF_ENVIROMENT

EXTERNAL_SECTORS sectors.bin
ATTITUDES
  PARAMS 8
  1 0 0 0 0 0 0 0 0
  0 1 2 2 2 2 2 2 2
  0 2 1 2 2 2 2 2 2
  0 2 2 1 2 2 2 2 2
  0 2 2 2 1 2 2 2 2
  0 2 2 2 2 1 2 2 2
  0 2 2 2 2 2 1 2 2
  0 2 2 2 2 2 2 1 2
  0 2 2 2 2 2 2 2 1
  FLAG 8
  T T T T T T T T T
END_OF_ATTITUDES

TECHS
  PARAMS 72 8
  F T F F F F T T F T T F T T F T T F T T F F F F T T F
  F T F F F F T T F T T F T T F T T F T T F F F F T T F
  F T F T T F T T F T T F T T F T T F T T F T T F T T F
  F T F T T F T T F T T F T T F T T F T T F T T F T T F
  F T F T T F T T F T T F T T F T T F T T F T T F T T F
  F T F F T T T T F T T F T T F T T F T T F T T F T T F
  F T F F F F T T F T T F T T F T T F T T F T T F T T F
  F T F T T F T T F T T F T T F T T F T T F T T F T T F
  F T F T T F T T F T T F T T F T T F T T F F F F T T F
  F T F F T T T T F T T F T T F T T F T T F T T F T T F
  F T F T T F T T F T T F T T F T T F T T F F F F T T F
  F T F F T T T T F T T F T T F T T F T T F T T F T T F
  F T F F T T T T F T T F T T F T T F T T F T T F T T F
  F T F F F F T T F T T F T T F T T F T T F T T F T T F
  F T F F F F T T F T T F T T F T T F T T F T T F T T F
  F T F F F F T T F T T F T T F T T F T T F T T F T T F
  F T F T T F T T F T T F T T F T T F T T F T T F T T F
  F T F T T F T T F T T F T T F T T F T T F T T F T T F
  F T F T T F T T F T T F T T F T T F T T F F T T T T F
  F T F F T T T T F T T F T T F T T F T T F F T T T T F
  F T F F T T T T F T T F T T F T T F T T F F T T T T F
  F T F F T T T T F T T F T T F T T F T T F F T T T T F
  F T F T T F T T F T T F T T F T T F T T F F F F T T F
  F T F F F F T T F T T F T T F T T F T T F F F F T T F
  F T F F T T T T F T T F T T F T T F T T F F F F T T F
  F T F T T F T T F T T F T T F T T F T T F T T F T T F
  F T F F T T T T F T T F T T F T T F T T F F F F T T F
  F T F T T F T T F T T F T T F T T F T T F F T T T T F
  F T F T T F T T F T T F T T F T T F T T F F T T T T F
  F T F T T F T T F T T F T T F T T F T T F F T T T T F
  F T F T T F T T F T T F T T F T T F T T F F F F T T F
  F T F F T T T T F T T F T T F T T F T T F F F F T T F
  F T F T T F T T F T T F T T F T T F T T F F F F T T F
  F T F F T T T T F T T F T T F T T F T T F F T T T T F
  F T F F T T T T F T T F T T F T T F T T F T T F T T F
  F T F F T T T T F T T F T T F T T F T T F T T F T T F
  F T F T T F T T F T T F T T F T T F T T F F F F T T F
  F T F T T F T T F T T F T T F T T F T T F F F F T T F
  F T F F T T T T F T T F T T F T T F T T F F T T T T F
  F T F F T T T T F T T F T T F T T F T T F F T T T T F
  F T F T T F T T F T T F T T F T T F T T F T T F T T F
  F T F T T F T T F T T F T T F T T F T T F T T F T T F
  F T F T T F T T F T T F T T F T T F T T F T T F T T F
  F T F T T F T T F T T F T T F T T F T T F F T T T T F
  F T F F T T T T F T T F T T F T T F T T F T T F T T F
  F T F F T T T T F T T F T T F T T F T T F F T T T T F
  F T F F T T T T F T T F T T F T T F T T F F T T T T F
  F T F F T T T T F T T F T T F T T F T T F F T T T T F
  F T F F T T T T F T T F T T F T T F T T F F T T T T F
  F T F F T T T T F T T F T T F T T F T T F F F F T T F
  F T F F T T T T F T T F T T F T T F T T F F T T T T F
  F T F F T T T T F T T F T T F T T F T T F F T T T T F
  F T F F F F T T F T T F T T F T T F T T F F F F T T F
  F T F F T T T T F T T F T T F T T F T T F F T T T T F
  F T F F T T T T F T T F T T F T T F T T F F T T T T F
  F T F F T T T T F T T F T T F T T F T T F F F F T T F
  F T F F T T T T F T T F T T F T T F T T F F F F T T F
  F T F F T T T T F T T F T T F T T F T T F F F F T T F
  F T F F T T T T F T T F T T F T T F T T F F F F T T F
  F T F F T T T T F T T F T T F T T F T T F T T F T T F
  F T F F T T T T F T T F T T F T T F T T F T T F T T F
  F T F T T F T T F T T F T T F T T F T T F T T F T T F
  F T F T T F T T F T T F T T F T T F T T F F T T T T F
  F T F T T F T T F T T F T T F T T F T T F F T T T T F
  F T F T T F T T F T T F T T F T T F T T F F F F T T F
  F T F T T F T T F T T F T T F T T F T T F T T F T T F
  F T F T T F T T F T T F T T F T T F T T F T T F T T F
  F T F T T F T T F T T F T T F T T F T T F T T F T T F
  F T F F T T T T F T T F T T F T T F T T F F T T T T F
  F T F T T F T T F T T F T T F T T F T T F T T F T T F
  F T F T T F T T F T T F T T F T T F T T F F T T T T F
  F T F T T F T T F T T F T T F T T F T T F T T F T T F
END_OF_TECHS

RESTRICTS
  PARAMS 0 40 8
  T T T T T T T T T
  T T T T T T T T T
  T T T T T T T T T
  T T T T T T T T T
  T T T T T T T T T
  T T T T T T T T T
  T T T T T T T T T
  T T T T T T T T T
  T T T T T T T T T
  T T T T T T T T T
  T T T T T T T T T
  T T T T T T T T T
  T T T T T T T T T
  T T T T T T T T T
  T T T T T T T T T
  T T T T T T T T T
  T T T T T T T T T
  T T T T T T T T T
  T T T T T T T T T
  T T T T T T T T T
  T T T T T T T T T
  T T T T T T T T T
  T T T T T T T T T
  T T T T T T T T T
  T T T T T T T T T
  T T T T T T T T T
  T T T T T T T T T
  T T T T T T T T T
  T T T T T T T T T
  T T T T T T T T T
  T T T T T T T T T
  T T T T T T T T T
  T T T T T T T T T
  T T T T T T T T T
  T T T T T T T T T
  T T T T T T T T T
  T T T T T T T T T
  T T T T T T T T T
  T T T T T T T T T
  T T T T T T T T T
  T T T T T T T T T
END_OF_RESTRICTS

MISSION_OBJECTIVES_FULL 0

SPECS
  PARAMS 1 8
    23 14 1
    T T F F F F F F F
  FLAG 0 0
END_OF_SPECS

BASES
  PARAMS T T


END_OF_BASES



RANDOMS
  MICROLOGIC 2 0 1
  RANDOM_SEED 1 -927323767
  RANDOM_SEED 2 -927323767
  RANDOM_SEED 3 498764409
  RANDOM_SEED 4 898151057
  RANDOM_SEED 5 1522618451
  RANDOM_SEED 6 1708722298
  RANDOM_SEED 7 -1073745616
  RANDOM_SEED 8 1751026996
  RANDOM_SEED 9 -1051396069
  RANDOM_SEED 10 -809247816
  RANDOM_SEED 11 -443074555
  RANDOM_SEED 12 911650
  RANDOM_SEED 13 140700348
  RANDOM_SEED 14 378023
  RANDOM_SEED 15 -892818513
  RANDOM_SEED 16 907772
  RANDOM_SEED 17 435943
  RANDOM_SEED 18 -236289899
  RANDOM_SEED 19 -1462753846
  RANDOM_SEED 20 -974283553
  RANDOM_SEED 21 1663492958
  RANDOM_SEED 22 301008401
  WIND_TIME 776543 776546 776573
  WIND_STRENGTH 36.7606167791381 52.0 53.3803083895691
  WIND_SCATTER 24.1066377870272
END_OF_RANDOMS

NEW_UNITS
END_OF_NEW_UNITS

COLDMEAT
END_OF_COLDMEAT

FOGOBJ
END_OF_FOGOBJ

MISSILES
END_OF_MISSILES

EXPLOSIONS
END_OF_EXPLOSIONS

CRATERS_NEW
END_OF_CRATERS_NEW

LAPSER_EFECTS
END_OF_LAPSER_EFECTS

LASER_EFECTS
END_OF_LASER_EFECTS

USER_INTERFACE
  VIEW 1992 196 1654 734 1
  MASHA_FLAG 2 F F
END_OF_USER_INTERFACE

MC_COMMANDS
END_OF_MC_COMMANDS

DEBRIEFING
SIDE 0 10
  LINES
SIDE 1 10
  LINES
SIDE 2 10
  LINES
SIDE 3 10
  LINES
SIDE 4 10
  LINES
SIDE 5 10
  LINES
SIDE 6 10
  LINES
SIDE 7 10
  LINES
SIDE 8 10
  LINES
END_OF_DEBRIEFING

AREAS
  ACTIVE 1
  LAST 15
  AREA 1
    NAME gray_fog_area
    COLOR FF9955
    SHORTCUT 1
    LINES 110 9 30 32
    -++++-------------------------
    ++++++++++--------------------
    ++++++++++++------------------
    ++++++++++++++----------------
    ++++++++++++++++--------------
    ++++++++++++++++++------------
    +++++++++++++++++++-----------
    ++++++++++++++++++++----------
    -++++++++++++++++++++---------
    -+++++++++++++++++++++--------
    --++++++++++++++++++++++------
    ----+++++++++++++++++++++-----
    -----++++++++++++++++++++-----
    ------++++++++++++++++++++----
    -------+++++++++++++++++++----
    ---------++++++++++++++++++---
    ----------+++++++++++++++++---
    ------------+++++++++++++++---
    --------------++++++++++++++--
    ---------------+++++++++++++--
    ---------------++++++++++++++-
    ---------------++++++++++++++-
    ----------------+++++++++++++-
    ----------------+++++++++++++-
    ----------------++++++++++++++
    ----------------++++++++++++++
    -----------------+++++++++++++
    -----------------+++++++++++++
    ------------------+++++++++++-
    ------------------+++++++++++-
    ---------------------+++++++--
    -----------------------+++++--
END_OF_AREAS

