0:10
0:10
0:10
0:10
0:11
0:11
0:11
0:11
0:13
0:13
0:13
0:13
0:13
0:13
0:13
0:13
0:15
0:15
0:15
0:15
0:17
0:17
0:17
0:17
0:18
0:22
0:22
0:22
0:22
0:22
0:22
0:22
0:23
0:23
0:23
0:23
0:23
0:23
0:23
0:23
0:24
0:24
0:24
0:24
0:24
0:24
0:24
0:24
0:26
0:26
0:26
0:26
0:26
0:26
0:26
0:28
0:28
0:28
0:28
0:28
0:28
0:28
0:28
0:28
0:28
0:28
0:28
0:28
0:29
0:29
0:29
0:29
0:29
0:29
0:29
0:29
0:29
0:29
0:29
0:29
0:29
0:30
0:30
0:30
0:30
0:30
0:30
0:30
0:30
0:30
0:30
0:30
0:30
0:30
0:31
0:31
0:31
0:31
0:31
0:31
0:31
0:31
0:31
0:31
0:31
0:31
0:31
0:32
0:32
0:32
0:32
0:32
0:32
0:32
0:32
0:32
0:32
0:32
0:32
0:32
0:33
0:33
0:33
0:33
0:33
0:33
0:33
0:33
0:33
0:33
0:33
0:33
0:33
0:34
0:34
0:34
0:34
0:34
0:34
0:34
0:34
0:34
0:34
0:34
0:34
0:34
0:35
0:35
0:35
0:35
0:35
0:35
0:35
0:35
0:35
0:35
0:35
0:35
0:35
0:36
0:36
0:36
0:36
0:36
0:36
0:36
0:36
0:36
0:36
0:36
0:36
0:36
0:37
0:37
0:37
0:37
0:37
0:37
0:37
0:37
0:37
0:37
0:37
0:37
0:37
0:38
0:38
0:38
0:38
0:38
0:38
0:38
0:38
0:38
0:38
0:38
0:38
0:38
0:39
0:39
0:39
0:39
0:39
0:39
0:39
0:39
0:39
0:39
0:39
0:39
0:39
0:40
0:40
0:40
0:40
0:40
0:40
0:40
0:40
0:40
0:40
0:40
0:40
0:40
0:42
0:42
0:42
0:42
0:42
0:42
0:42
0:42
0:42
0:42
0:42
0:42
0:42
0:42
0:42
0:42
0:42
0:43
0:43
0:46
0:46
0:46
0:46
0:48
0:48
0:48
0:48
0:48
0:48
0:48
0:48
0:48
0:48
0:49
0:49
0:49
0:49
0:49
0:49
0:49
0:49
0:50
0:50
0:50
0:50
0:50
0:50
0:50
0:50
0:50
0:50
0:52
0:52
0:52
0:52
0:52
0:52
0:52
0:52
0:52
0:52
0:53
0:53
0:53
0:53
0:53
0:53
0:53
0:53
0:54
0:54
0:54
0:54
0:54
0:54
0:54
0:54
0:54
0:54
0:56
0:56
0:56
0:56
0:56
0:56
0:56
0:56
0:56
0:56
0:57
0:57
0:57
0:57
0:57
0:57
0:57
0:57
0:58
0:58
0:58
0:58
0:58
0:58
0:58
0:58
0:58
0:58
0:60
0:60
0:60
0:60
0:61
0:61
0:61
0:61
0:61
0:61
0:61
0:61
0:62
0:62
0:62
0:62
0:62
0:62
0:62
0:62
0:63
0:63
0:63
0:63
0:63
0:63
0:63
0:63
0:64
0:64
0:64
0:64
0:64
0:64
0:64
0:64
0:64
0:64
0:65
0:65
0:65
0:65
0:65
0:65
0:65
0:65
0:67
0:67
0:67
0:67
0:67
0:67
0:67
0:68
0:68
0:68
0:68
0:69
0:69
0:69
0:69
0:69
0:69
0:69
0:69
0:69
0:69
0:69
0:69
0:69
0:69
0:69
0:69
0:71
0:71
0:71
0:71
0:71
0:71
0:71
0:71
0:71
0:71
0:71
0:71
0:71
0:71
0:71
0:71
0:71
0:71
0:71
0:71
0:71
0:71
0:71
0:71
0:71
0:71
0:71
0:71
0:71
0:71
0:71
0:71
0:71
0:71
0:71
0:71
0:71
0:71
0:71
0:71
0:72
0:72
0:72
0:72
0:72
0:72
0:72
0:72
0:72
0:72
0:72
0:72
0:72
0:72
0:72
0:72
0:73
0:73
0:73
0:73
0:76
0:76
0:76
0:76
0:76
0:76
0:76
0:76
0:76
0:76
0:76
0:76
0:76
0:80
0:80
0:80
0:80
0:80
0:80
0:80
0:81
0:81
0:81
0:81
0:81
0:81
0:81
0:83
0:83
0:83
0:83
0:84
0:84
0:84
0:84
0:84
0:84
0:84
0:84
0:85
0:85
0:85
0:85
0:85
0:85
0:85
0:85
0:86
0:86
0:86
0:86
0:86
0:86
0:86
0:86
0:87
0:87
0:87
0:87
0:87
0:87
0:87
0:87
0:88
0:88
0:88
0:88
0:88
0:88
0:88
0:88
0:90
0:90
0:90
0:90
0:90
0:90
0:90
0:90
0:90
0:90
0:91
0:91
0:91
0:91
0:91
0:91
0:91
0:91
0:91
0:91
0:91
0:91
0:91
0:91
0:91
0:92
0:92
0:92
0:92
0:92
0:92
0:92
0:92
0:92
0:92
0:92
0:92
0:92
0:92
0:92
0:92
0:94
0:94
0:94
0:94
0:94
0:94
0:94
0:94
0:94
0:94
0:95
0:95
0:95
0:95
0:95
0:95
0:95
0:95
0:95
0:95
0:95
0:95
0:95
0:95
0:95
0:96
0:96
0:96
0:96
0:96
0:96
0:96
0:96
0:96
0:96
0:96
0:96
0:96
0:96
0:96
0:97
0:97
0:97
0:97
0:97
0:97
0:97
0:97
0:97
0:97
0:97
0:97
0:97
0:97
0:97
0:97
0:99
0:99
0:99
0:99
0:99
0:99
0:99
0:99
0:99
0:99
0:101
0:101
0:101
0:101
0:101
0:101
0:101
0:101
0:101
0:101
0:103
0:103
0:103
0:103
0:103
0:103
0:103
0:103
0:103
0:103
0:105
0:105
0:105
0:105
0:105
0:105
0:105
0:105
0:105
0:105
0:105
0:105
0:105
0:105
0:105
0:106
0:106
0:106
0:106
0:106
0:106
0:106
0:106
0:106
0:106
0:106
0:106
0:106
0:106
0:106
0:107
0:107
0:110
0:110
0:110
0:110
0:110
0:110
0:110
0:110
0:110
0:110
0:110
0:110
0:110
0:110
0:110
0:111
0:111
0:111
0:111
0:111
0:111
0:111
0:111
0:111
0:111
0:111
0:111
0:111
0:111
0:111
0:114
0:114
0:114
0:114
0:114
0:114
0:114
0:114
0:114
0:114
0:114
0:114
0:114
0:114
0:114
0:114
0:117
0:117
0:117
0:117
0:117
0:117
0:117
0:117
0:117
0:117
0:117
0:117
0:117
0:117
0:117
0:117
0:117
0:117
0:117
0:117
0:117
0:117
0:117
0:117
0:117
0:117
0:117
0:117
0:117
0:117
0:117
0:117
0:117
0:119
0:119
0:119
0:119
0:119
0:119
0:119
0:119
0:119
0:119
0:119
0:119
0:119
0:119
0:119
0:119
0:119
0:119
0:119
0:119
0:119
0:119
0:119
0:119
0:119
0:119
0:119
0:120
0:120
0:120
0:120
0:120
0:120
0:120
0:120
0:120
0:120
0:120
0:120
0:120
0:120
0:120
0:120
0:121
0:121
0:121
0:121
0:124
0:124
0:124
0:124
0:124
0:124
0:124
0:124
0:124
0:124
0:124
0:124
0:124
0:124
0:124
0:124
0:124
0:124
0:124
0:124
0:124
0:124
0:124
0:124
0:124
0:124
0:124
0:124
0:124
0:124
0:124
0:124
0:124
0:124
0:124
0:124
0:124
0:124
0:124
0:124
0:124
0:124
0:124
0:124
0:124
0:124
0:124
0:124
0:124
0:124
0:124
0:124
0:124
0:124
0:124
0:124
0:124
0:124
0:124
0:124
0:124
0:124
0:124
0:124
0:124
0:124
0:124
0:124
0:124
0:124
0:124
0:124
0:124
0:124
0:124
0:124
0:124
0:124
0:124
0:124
0:124
0:124
0:124
0:124
0:124
0:124
0:124
0:124
0:124
0:125
0:125
0:125
0:125
0:125
0:125
0:125
0:125
0:125
0:125
0:125
0:125
0:125
0:125
0:125
0:125
0:125
0:125
0:125
0:127
0:127
0:127
0:127
0:127
0:127
0:127
0:127
0:128
0:128
0:128
0:128
0:128
0:128
0:128
0:128
0:128
0:128
0:128
0:128
0:128
0:129
0:129
0:129
0:129
0:129
0:129
0:129
0:129
0:129
0:129
0:129
0:129
0:129
0:129
0:129
0:131
0:131
0:131
0:131
0:131
0:131
0:131
0:131
0:131
0:131
0:132
0:132
0:133
0:133
0:133
0:133
0:135
0:135
0:135
0:135
0:135
0:135
0:135
0:135
0:135
0:135
0:135
0:135
0:135
0:135
0:135
0:135
0:135
0:135
0:135
0:135
0:136
0:136
0:136
0:136
0:136
0:136
0:136
0:136
0:136
0:136
0:136
0:136
0:136
0:136
0:136
0:136
0:136
0:136
0:136
0:136
0:136
0:136
0:136
0:136
0:136
0:136
0:136
0:136
0:138
0:138
0:138
0:138
0:138
0:138
0:138
0:138
0:138
0:138
0:139
0:139
0:141
0:141
0:141
0:141
0:141
0:141
0:141
0:141
0:141
0:141
0:141
0:141
0:141
0:141
0:142
0:142
0:142
0:142
0:142
0:142
0:142
0:142
0:142
0:142
0:142
0:142
0:142
0:142
0:142
0:142
0:143
0:143
0:143
0:143
0:145
0:145
0:145
0:145
0:145
0:145
0:145
0:145
0:145
0:145
0:146
0:146
0:146
0:146
0:146
0:146
0:146
0:146
0:146
0:146
0:147
0:147
0:147
0:147
0:147
0:147
0:147
0:147
0:147
0:147
0:147
0:147
0:147
0:147
0:147
0:147
0:148
0:148
0:148
0:148
0:148
0:150
0:150
0:150
0:151
0:151
0:151
0:151
0:151
0:151
0:151
0:151
0:151
0:151
0:151
0:151
0:151
0:151
0:151
0:152
0:152
0:152
0:152
0:152
0:152
0:152
0:152
0:152
0:152
0:152
0:152
0:152
0:152
0:152
0:152
0:152
0:152
0:152
0:152
0:152
0:154
0:154
0:154
0:154
0:154
0:154
0:154
0:154
0:155
0:155
0:155
0:155
0:155
0:159
0:159
0:159
0:159
0:159
0:160
0:160
0:160
0:160
0:160
0:160
0:160
0:160
0:160
0:160
0:162
0:162
0:162
0:162
0:164
0:164
0:164
0:164
0:164
0:164
0:164
0:164
0:164
0:164
0:166
0:166
0:166
0:166
0:166
0:166
0:166
0:166
0:166
0:166
0:166
0:166
0:166
0:166
0:166
0:166
0:166
0:166
0:166
0:166
0:166
0:166
0:166
0:166
0:166
0:167
0:167
0:167
0:167
0:167
0:167
0:167
0:167
0:167
0:167
0:167
0:167
0:167
0:167
0:167
0:167
0:167
0:167
0:167
0:167
0:167
0:167
0:167
0:167
0:167
0:169
0:169
0:169
0:169
0:169
0:169
0:169
0:169
0:169
0:169
0:169
0:169
0:169
0:169
0:169
0:169
0:169
0:169
0:169
0:169
0:169
0:169
0:169
0:169
0:169
0:169
0:169
0:172
0:172
0:172
0:172
0:172
0:172
0:172
0:173
0:173
0:173
0:173
0:173
0:173
0:173
0:173
0:173
0:173
0:173
0:173
0:173
0:173
0:173
0:173
0:173
0:173
0:173
0:173
0:173
0:175
0:175
0:175
0:175
0:175
0:175
0:175
0:175
0:177
0:177
0:177
0:177
0:177
0:177
0:177
0:177
0:177
0:177
0:177
0:177
0:177
0:177
0:179
0:179
0:179
0:179
0:179
0:179
0:179
0:179
0:179
0:179
0:179
0:179
0:179
0:179
0:180
0:180
0:180
0:180
0:180
0:180
0:180
0:180
0:180
0:180
0:180
0:180
0:180
0:180
0:180
0:180
0:180
0:180
0:180
0:180
0:180
0:182
0:182
0:182
0:182
0:182
0:182
0:182
0:183
0:183
0:183
0:183
0:183
0:183
0:183
0:183
0:183
0:183
0:183
0:183
0:183
0:183
0:183
0:183
0:183
0:183
0:183
0:183
0:183
0:183
0:183
0:183
0:183
0:183
0:183
0:183
0:183
0:183
0:183
0:183
0:183
0:183
0:183
0:183
0:183
0:183
0:183
0:183
0:183
0:183
0:183
0:183
0:183
0:183
0:183
0:183
0:183
0:183
0:183
0:183
0:183
0:183
0:183
0:183
0:183
0:183
0:183
0:183
0:183
0:183
0:185
0:185
0:185
0:185
0:185
0:185
0:185
0:185
0:185
0:185
0:187
0:187
0:187
0:187
0:187
0:187
0:187
0:187
0:187
0:187
0:187
0:187
0:188
0:188
0:188
0:188
0:188
0:188
0:188
0:188
0:188
0:188
0:188
0:188
0:189
0:189
0:189
0:189
0:189
0:189
0:189
0:189
0:189
0:189
0:189
0:189
0:190
0:190
0:190
0:190
0:190
0:190
0:190
0:190
0:190
0:190
0:190
0:190
0:191
0:191
0:191
0:191
0:191
0:191
0:191
0:191
0:191
0:191
0:191
0:191
0:192
0:192
0:192
0:192
0:192
0:192
0:192
0:192
0:192
0:192
0:192
0:192
0:193
0:193
0:193
0:193
0:193
0:193
0:193
0:193
0:193
0:193
0:193
0:193
0:194
0:194
0:194
0:194
0:194
0:194
0:194
0:194
0:194
0:194
0:194
0:194
0:195
0:195
0:195
0:195
0:195
0:195
0:195
0:195
0:195
0:195
0:195
0:195
0:196
0:196
0:196
0:196
0:196
0:196
0:196
0:196
0:196
0:196
0:196
0:196
0:198
0:198
0:198
0:198
0:198
0:198
0:198
0:200
0:200
0:200
0:200
0:200
0:200
0:200
0:200
0:200
0:200
0:200
0:200
0:200
0:200
0:200
0:200
0:200
0:200
0:200
0:200
0:200
0:200
0:200
0:200
0:200
0:200
0:200
0:202
0:202
0:202
0:202
0:202
0:202
0:202
0:205
0:205
0:205
0:205
0:205
0:205
0:205
0:206
0:206
0:206
0:206
0:206
0:206
0:206
0:206
0:206
0:206
0:206
0:206
0:206
0:206
0:206
0:206
0:206
0:206
0:206
0:207
0:207
0:207
0:207
0:207
0:207
0:207
0:207
0:207
0:207
0:207
0:207
0:207
0:207
0:207
0:207
0:207
0:207
0:207
0:207
0:207
0:207
0:207
0:207
0:207
0:207
0:207
0:207
0:207
0:207
0:207
0:207
0:207
0:207
0:207
0:207
0:207
0:207
0:207
0:207
0:207
0:207
0:207
0:207
0:207
0:207
0:207
0:207
0:207
0:207
0:207
0:207
0:207
0:207
0:207
0:207
0:207
0:207
0:207
0:207
0:207
0:207
0:207
0:207
0:207
0:207
0:207
0:207
0:207
0:207
0:207
0:207
0:207
0:207
0:207
0:207
0:207
0:207
0:207
0:207
0:207
0:207
0:207
0:207
0:207
0:207
0:207
0:207
0:207
0:207
0:207
0:207
0:207
0:207
0:207
0:207
0:207
0:207
0:207
0:207
0:207
0:207
0:207
0:207
0:207
0:207
0:207
0:207
0:207
0:207
0:207
0:207
0:207
0:207
0:207
0:207
0:207
0:207
0:207
0:207
0:207
0:207
0:207
0:207
0:207
0:207
0:207
0:207
0:207
0:207
0:207
0:207
0:207
0:207
0:207
0:207
0:207
0:207
0:207
0:209
0:209
0:209
0:209
0:209
0:209
0:209
0:209
0:209
0:209
0:209
0:209
0:211
0:211
0:211
0:211
0:211
0:211
0:211
0:211
0:211
0:211
0:213
0:213
0:213
0:213
-1:-1
