begin
new
? type grass
? subtype 4
 ! hue -15
 ! sat 77
 ! contr 75
 ! all 76
new
? inident "STree: list-sahara"
 ! sat 104
 ! rgb 118 100 100
 ! add 5 000FC2
new
? inident "STree: ker-husty"
 ! rgb 128 100 100
 ! add 3 00FF00
 ! sat 114
 ! all 110
end
