MAIN_DEFINITIONS
  SIZE 120 100
  TICK 0
  PLAYER_NUMBER 2
  FOG_TYPE 0
  FOGSIDES 1 2 3 4 5 6 7 8
  MAP_GBI am13a.gbi
  MUCHY_RECT 0 0 0 0
  EAGLES 0 50
  WAVES 20
  WATER_COLORS E8E860 3 FFE0D0 3 FFE0D0
END_OF_MAIN_DEFINITIONS

HEXES
  LINE 0 0 119
    t4r2 t4r2 t4r2 t4r2 t4r2 t4r2 t4r2 t4r2 t4r2 t4r2 t4r2 t4r2 t4r2 t4r2 t4r2 t4r2 t4r2 t4r2 t4r2 t4r2 t4r2 t4r2 t4r2 t4r2 t4r2 t4 t4 t4 t4 t4 t4 t4 t4r7s9 t4r6v1sf t4r6v6sX t4r6vAsX t4r6vEsA t4r6vAsh t4r6v6sZ t4r6v1sh t4r7sB t4 t4 t4 t4 t4 t4rA t4rA t4rA t4 t4 t4 t4 t4 t4 t4 t4 t4 t4 t4 t4 t4 t4 t4 t4 t4 t4 t4 t4r7s9 t4r6v1sf t4r6v6sf t4r6vBsf t4r6vG t4r6vBsi t4r6v6si t4r6v1si t4r7sC t4 t4 t4 t4 t4s9 t4r7v1sX t4r6v5sn t4r6vBsn t4r6vHsn t4r6vNsn t4r6vTsf t4vYs9 t4vZ t4vZ t4vZ t4r2vZ t4r2vZ t4r2vZ t4r2vZ t4r2vZ t4r2vZ t4r2vZ t4r2vZ t4r2vZ t4r2vZ t4r2vZ t4r2vZ t4r2vZ t4r2vZ t4r2vZ t4r2vZ t4vZ t4vZ t4vZ t4vZ t4vZ t4vZ t4vZ t4vZ t4vZ t4vZ t4vZ t4vZ
  LINE 1 1 120
    t4r2 t2r2 t2r2 t2r2 t2r2 t2r2 t2r2 t2r2 t2r2 t2r2 t2r2 t2r2 t2r2 t2r2 t2r2 t2r2 t2r2 t2r2 t2r2 t2r2 t2r2 t2r2 t2r2 t2r2 t2 t2 t2 t2 t2 t2 t2 t2 t2r7s9 t2r6v1sf t2r6v6sX t2r6vAsf t2r6vF t2r6vAsh t2r6v6sZ t2r6v1sh t2r7sB t2 t2 t2 t2 t2rA t2rA t2rA t2 t2 t2 t2 t2 t2 t2 t2 t2 t2 t2 t2 t2 t2 t2 t2 t2 t2 t2 t2 t2r7s9 t2r6v1sf t2r6v6sf t2r6vBsf t2r6vDsT t2r6v8si t2r6v3si t2r7sS t2 t2 t2 t2 t2s9 t2r7v1sX t2r6v5sn t2r6vBsn t2r6vHsn t2r6vNsn t2r6vTsf t2vYs9 t2vZ t2vZ t2vZ t2r2vZ t2r2vZ t2r2vZ t2r2vZ t2r2vZ t2r2vZ t2r2vZ t2r2vZ t2r2vZ t2r2vZ t2r2vZ t2r2vZ t2r2vZ t2r2vZ t2r2vZ t2r2vZ t2vZ t2vZ t2vZ t2vZ t2vZ t2vZ t2vZ t2vZ t2vZ t2vZ t2vZ t2vZ t4vZ
  LINE 2 1 120
    t4r2 t2r2 r2 r2 r2 r2 r2 r2 r2 r2 r2 r2 r2 r2 r2 r2 r2 r2 r2 r2 r2 r2 r2 r2 "" "" "" "" "" "" "" "" "" r7s9 r6v1sf r6v6sX r6vAsf r6vF r6vAsi r6v6sa r6v1si r7sC "" "" "" "" rA rA rA "" "" "" "" "" "" "" "" "" "" "" "" "" "" "" "" "" "" "" "" r7sP r6v3sf r6v8sf r6vD r6v8si r6v3si r7sS "" "" "" "" "" r6sf r6v5sn r6vBsn r7vHsX r7vLsX r6vPsf r6vUsf vZ vZ vZ r2vZ r2vZ r2vZ r2vZ r2vZ r2vZ r2vZ r2vZ r2vZ r2vZ r2vZ r2vZ r2vZ r2vZ r2vZ r2vZ r2vZ vZ vZ vZ vZ vZ vZ vZ vZ vZ vZ t2vZ t4vZ
  LINE 3 2 121
    t4r2 t2r2 r2 r2 r2 r2 r2 r2 r2 r2 r2 r2 r2 r2 r2 r2 r2 r2 r2 r2 r2 r2 r2 "" "" "" "" "" "" "" "" "" r7s9 r6v1sf r6v6sX r6vAsf r6vF r6vAsi r6v6sa r6v1si r7sC "" "" "" "" "" rA rA rA "" "" "" "" "" "" "" "" "" "" "" "" "" "" "" "" "" "" "" r7sP r6v3sf r6v8sf r6vD r6v8si r6v3si r7sS "" "" "" "" "" r6sf r6v5sn r6vBsn r7vHsX r7vLsX r7vPsX r6vTsf vYs9 vZ vZ r2vZ r2vZ r2vZ r2vZ r2vZ r2vZ r2vZ r2vZ r2vZ r2vZ r2vZ r2vZ r2vZ r2vZ r2vZ r2vZ r2vZ vZ vZ vZ vZ vZ vZ vZ vZ vZ vZ vZ t2vZ t4vZ
  LINE 4 2 121
    t4r2 t2r2 r2 r2 r2 r2 r2 r2 r2 r2 r2 r2 r2 r2 r2 r2 r2 r2 r2 r2 r2 r2 r2 "" "" "" "" "" "" "" "" "" "" r7sX r6v4sn r6vAsf r6vFsY r6vFsZ r6vAsi r6v5si r6si "" "" "" "" "" "" rA rA rA "" "" "" "" "" "" "" "" "" "" "" "" "" "" "" "" "" "" "" r7sP r6v3sf r6v8sf r6vD r6v8si r6v3si r7sS "" "" "" "" r7sP r6v3sf r7v8sX r6vCsf r7vHsX r7vLsX r7vPsX r6vTsn vZ vZ vZ r2vZ r2vZ r2vZ r2vZ r2vZ r2vZ r2vZ r2vZ r2vZ r2vZ r2vZ r2vZ r2vZ r2vZ r2vZ r2vZ r2vZ vZ vZ vZ vZ vZ vZ vZ vZ vZ vZ t2vZ t4vZ
  LINE 5 3 122
    t4r2 t2r2 r2 r2 r2 r2 r2 r2 r2 r2 r2 r2 r2 r2 r2 r2 r2 r2 r2 r2 r2 r2 "" "" "" "" "" "" "" "" "" "" r7sX r6v4sn r6vAsf r6vFsX r6vJ r6vFsZ r6vAsi r6v4sq r7sa "" "" "" "" "" rA rA rA "" "" "" "" "" "" "" "" "" "" "" "" "" "" "" "" "" "" "" r7sP r6v3sf r6v8sf r6vD r6v8si r6v3si r7sS "" "" "" "" r7sP r6v3sf r7v8sH r6vAsf r7vFsX r6vJsn r7vPsX r6vTsf vYs9 vZ vZ r2vZ r2vZ r2vZ r2vZ r2vZ r2vZ r2vZ r2vZ r2vZ r2vZ r2vZ r2vZ vZ vZ vZ r2vZ r2vZ vZ vZ vZ vZ vZ vZ vZ vZ vZ vZ vZ t2vZ t4vZ
  LINE 6 3 122
    t4r2 t2r2 r2 r2 r2 r2 r2 r2 r2 r2 r2 r2 r2 r2 r2 r2 r2 r2 r2 r2 r2 r2 "" "" "" "" "" "" "" "" "" "" r7sX r6v4sf r6v9sn r6vFsP r6vIsX r6vJsR r6vFsZ r6v9sq r6v4si r7sa "" "" "" "" "" rA rA rA "" "" "" "" "" "" "" "" "" "" "" "" "" "" "" "" "" "" r7sP r6v3sf r6v8sf r6vD r6v8si r6v3si r7sS "" "" "" "" r7s9 r6v1sn r7v7sP r6vAsf r7vFsH r7vHsH r6vJsn r7vPsX r6vTsn vZ vZ r2vZ r2vZ r2vZ r2vZ r2vZ r2vZ r2vZ r2vZ r2vZ r2vZ r2vZ r2vZ vZ vZ vZ vZ vZ vZ vZ vZ vZ vZ vZ vZ vZ vZ vZ vZ t2vZ t4vZ
  LINE 7 4 123
    t4r2 t2r2 r2 r2 r2 r2 r2 r2 r2 r2 r2 r2 r2 r2 r2 r2 r2 r2 r2 r2 r2 "" "" "" "" "" "" "" "" "" "" r7sX r6v4sf r6v9sf r6vEsf r6vIso r6vMsJ r6vJsh r6vEsi r6v9si r6v4si r7sa "" "" "" "" rA rA rA "" "" "" "" "" "" "" "" "" "" "" "" "" "" "" "" "" "" "" r7sP r6v3sf r6v8sf r6vAsS r6v4sq r7sa "" "" "" "" "" r7sH r6v2sf r7v7sP r6vAsf r7vFsX r6vJsn r7vPsX r6vTsf vYs9 vZ vZ r2vZ r2vZ r2vZ r2vZ r2vZ r2vZ r2vZ r2vZ r2vZ r2vZ r2vZ vZ vZ vZ vZ vZ vZ vZ vZ vZ vZ vZ vZ vZ vZ vZ vZ vZ t2vZ t4vZ
  LINE 8 4 123
    t4r2 t2r2 r2 r2 r2 r2 r2 r2 r2 r2 r2 r2 r2 r2 r2 r2 r2 r2 r2 r2 r2 "" "" "" "" "" "" "" "" "" "" r7sX r6v4sf r6v9sf r6vEsf r6vJsf r6vOso r6vOsp r6vJsi r6vEsi r6v9si r6v4si r7sa "" "" "" "" rA rA rA "" "" "" "" "" "" "" "" "" "" "" "" "" "" "" "" "" "" r7sH r6v2sf r6v7sf r6vC r6v7si r6v2si r7sK "" "" "" "" r7sH r6v2sf r7v7sP r7vAs9 r6vBsf r7vGsP r6vJsn r7vPsX r6vTsn vZ vZ vZ r2vZ r2vZ r2vZ r2vZ r2vZ r2vZ r2vZ r2vZ rAvZ rAvZ rAvZ rAvZ vZ vZ vZ vZ vZ vZ vZ vZ vZ vZ r2vZ r2vZ r2vZ r2vZ r2vZ t2r2vZ t4vZ
  LINE 9 5 124
    t4r2 t2r2 r2 r2 r2 r2 r2 r2 r2 r2 r2 r2 r2 r2 r2 r2 r2 r2 r2 r2 "" "" "" "" "" "" "" "" "" "" r7s9 r6v1sn r6v7sf r6vCsn r6vIsn r6vOsn r6vU r6vOsq r6vIsq r6vCsq r6v6sq r6sq "" "" "" "" "" rA rA rA "" "" "" "" "" "" "" "" "" "" "" "" "" "" "" "" "" "" r7sH r6v2sf r6v7sf r6vC r6v7si r6v2si r7sK "" "" "" r7sH r6v2sf r7v7sP r7vAs9 r6vBsf r7vGsP r6vJsn r7vPsX r6vTsf vYs9 vZ vZ r2vZ r2vZ r2vZ r2vZ r2vZ r2vZ r2vZ rAvZ rAvZ r2vZ r2vZ vZ rAvZ rAvZ rAvZ vZ vZ vZ vZ vZ vZ r2vZ r2vZ r2vZ r2vZ r2vZ r2vZ r2vZ t2r2vZ t4r2vZ
  LINE 10 5 124
    t4r2 t2r2 r2 r2 r2 r2 r2 r2 r2 r2 r2 r2 r2 r2 r2 r2 r2 r2 r2 r2 "" "" "" "" "" "" "" "" "" "" "" r7sX r6v4sf r6v9sf r6vEsf r6vJse r6vOsm r6vOsr r6vJsi r6vEsi r6v9si r6v4si r7sa "" "" "" "" rA rA rA "" "" "" "" "" "" "" "" "" "" "" "" "" "" "" "" "" "" r7sH r6v2sf r6v7sf r6vC r6v7si r6v2si r7sK "" "" "" "" r7sH r6v2sf r7v7sP r7vAs9 r6vBsf r7vGsP r6vJsn r7vPsX r6vTsn vZ vZ vZ r2vZ r2vZ r2vZ r2vZ r2vZ r2vZ rAvZ r2vZ r2vZ r2vZ r2vZ vZ vZ vZ vZ vZ vZ vZ vZ vZ r2vZ r2vZ r2vZ r2vZ r2vZ r2vZ r2vZ t2r2vZ t4r2vZ
  LINE 11 6 125
    t4r2 t2r2 r2 r2 r2 r2 r2 r2 r2 r2 r2 r2 r2 r2 r2 r2 r2 r2 r2 "" "" "" "" "" "" "" "" "" "" "" "" r7sX r6v4sf r6v9sf r6vEse r6vIsm r6vJse r6vIsr r6vEsj r6v9si r6v4si r7sa "" "" "" "" "" rA rA rA "" "" "" "" "" "" "" "" "" "" "" "" "" "" "" "" "" r7sH r6v2sf r6v7sX r6vBs8 r6v7sj r6v2si r7sK "" "" "" "" r7sH r7v2sP r6v5sf r7vAsI r6vBsf r7vGsP r6vJsf r6vOsf r7vTsP r7vWsP vZ vZ r2vZ r2vZ r2vZ r2vZ r2vZ rAvZ rAvZ r2vZ r2vZ r2vZ r2vZ r2vZ vZ vZ vZ vZ vZ vZ vZ vZ r2vZ r2vZ r2vZ r2vZ r2vZ r2vZ r2vZ r2vZ t2r2vZ t4r2vZ
  LINE 12 6 125
    t4r2 t2r2 r2 r2 r2 r2 r2 r2 r2 r2 r2 r2 r2 r2 r2 r2 r2 r2 r2 "" "" "" "" "" "" "" "" "" "" "" "" "" r7sX r6v4sf r6v9se r6vCsm r6vEse r6vGsT r6vDsj r6v9sj r6v4si r7sa "" "" "" "" "" "" rA rA rA "" "" "" "" "" "" "" "" "" "" "" "" "" "" "" "" "" r7sH r6v2sf r6v7sW r6v7sb r6v2sj r7sK "" "" "" "" "" r6sf r7v5sH r6v7sf r7vCsH r6vEsf r7vJsH r6vLsf r6vQsf r7vVsP rAvYs9 rAvZ rAvZ rAvZ rAvZ rAvZ rAvZ rAvZ r2vZ r2vZ r2vZ r2vZ r2vZ r2vZ r2vZ vZ vZ vZ vZ vZ vZ vZ r2vZ r2vZ r2vZ r2vZ r2vZ r2vZ r2vZ r2vZ t2r2vZ t4r2vZ
  LINE 13 7 126
    t4r2 t2r2 r2 r2 r2 r2 r2 r2 r2 r2 r2 r2 r2 r2 r2 r2 r2 r2 "" "" "" "" "" "" "" "" "" "" "" "" "" "" r7sW r6v4se r6v6sm r6v9se r6vDsO r6vDsT r6v9sb r6v4si r7sa "" "" "" "" "" "" rA rA rA "" "" "" "" "" "" "" "" "" "" "" "" "" "" "" "" "" "" r7sG r6v2se r6v2se r6v2sj r7sL "" "" "" "" "" r6sf r7v5s9 r7v6sP r6v9sf r7vEsH r6vGsf r7vLsP r6vOsf r7vTsP r7vWsP vZ vZ r2vZ r2vZ r2vZ r2vZ r2vZ r2vZ r2vZ r2vZ r2vZ r2vZ r2vZ r2vZ r2vZ r2vZ vZ vZ r2vZ r2vZ r2vZ r2vZ r2vZ r2vZ r2vZ r2vZ r2vZ r2vZ r2vZ r2vZ t2r2vZ t4r2vZ
  LINE 14 7 126
    t4r2 t2r2 r2 r2 r2 r2 r2 r2 r2 r2 r2 r2 r2 r2 r2 r2 r2 r2 "" "" "" "" "" "" "" "" r7sQ r7sQ r7sQ r7sR r7sR "" "" r7sW r6sm r6v4se r6v8se r6vDs8 r6v9si r6v7sK r6v2si r7sK "" "" "" "" "" "" rA rA rA "" "" "" "" "" "" "" "" "" "" "" "" "" "" "" "" "" "" r7sG r7sG r7sG r7sL "" "" "" "" "" "" r6sf r7v5sH r7v7sP r6vAsf r7vFs9 r6vGsf r7vLsP r6vOsf r6vTsn vZ vZ r2vZ r2vZ r2vZ r2vZ r2vZ r2vZ r2vZ r2vZ r2vZ r2vZ r2vZ r2vZ r2vZ r2vZ r2vZ r2vZ r2vZ r2vZ r2vZ r2vZ r2vZ r2vZ r2vZ r2vZ r2vZ r2vZ r2vZ r2vZ t2r2vZ t4r2vZ
  LINE 15 8 127
    t4r2 t2r2 r2 r2 r2 r2 r2 r2 r2 r2 r2 r2 r2 r2 r2 r2 "" "" "" "" "" "" "" "" "" r7sQ r6v3sg r6v3sg r6v3sh r6v3sh r7sR "" "" "" r7sW r6v3se r6v8sn r6vE r6v8sq r6v2sq r7sK "" "" "" "" "" "" rA rA rA "" "" "" "" "" "" "" "" "" "" "" "" "" "" r7sI r7sI r7sJ r7sJ "" "" "" "" "" "" "" "" "" "" s9 r6v1sn r7v7sP r6vAsf r7vFs9 r7vGsX r7vKsX r6vOsf r6vTsf vYs9 vZ vZ r2vZ r2vZ r2vZ r2vZ r2vZ r2vZ r2vZ r2vZ r2vZ r2vZ r2vZ r2vZ r2vZ r2vZ r2vZ r2vZ r2vZ r2vZ r2vZ r2vZ r2vZ r2vZ r2vZ r2vZ r2vZ r2vZ r2vZ r2vZ t2r2vZ t4r2vZ
  LINE 16 8 127
    t4 t2 r2 r2 r2 r2 r2 r2 r2 r2 r2 r2 r2 r2 r2 r2 "" "" "" "" "" "" "" "" "" r7sY r6v3sg r6v8sg r6v8sh r6v8sh r6v3sh r7sR "" "" "" r7sO r6v3se r6v8sm r6vCsG r6v8sZ r6v2sp r7sZ "" "" "" "" "" "" rA rA rA "" "" "" "" "" "" "" "" "" r7sQ r7sQ r7sQ r7sY r7sY r6v2so r6v2so r6v2sp r7sJ "" "" "" "" "" "" "" "" "" "" s9 r6v1sn r7v7sP r6vAsf r7vFs9 r7vGsX r7vKsX r6vOsf r6vTsn vZ vZ r2vZ r2vZ r2vZ r2vZ r2vZ r2vZ r2vZ r2vZ r2vZ r2vZ r2vZ r2vZ r2vZ r2vZ r2vZ r2vZ r2vZ r2vZ r2vZ r2vZ r2vZ r2vZ r2vZ r2vZ r2vZ r2vZ r2vZ r2vZ t2r2vZ t4r2vZ
  LINE 17 9 128
    t4 t2 "" "" r2 r2 r2 r2 r2 r2 r2 r2 r2 r2 r2 "" "" "" "" "" "" "" "" "" r7sY r6v4sg r6v8so r7vDsB r7vD r6v8si r6v3si r7sS "" "" "" r7sP r6v3sf r6v8sf r6vCsJ r6v8sp r6v4sp r7sZ r7sZ r7sZ "" "" "" "" rA rA rA "" "" "" "" "" "" "" r7sQ r6so r6v3so r6v3sp r7v3sY r6v4so r6v4so r6v8so r6v8sp r6v2sp r7sJ "" "" "" "" "" "" "" "" "" "" sH r6v2sf r7v7sP r6vAsf r7vFsX r7vJsX r6vNsn r6vTsf vYs9 vZ vZ r2vZ r2vZ r2vZ r2vZ r2vZ r2vZ r2vZ r2vZ r2vZ r2vZ r2vZ r2vZ r2vZ r2vZ r2vZ r2vZ r2vZ r2vZ r2vZ r2vZ r2vZ r2vZ r2vZ r2vZ r2vZ r2vZ r2vZ r2vZ t2r2vZ t4r2vZ
  LINE 18 9 128
    t4 t2 "" "" "" "" "" "" "" r2 r2 r2 r2 r2 "" "" "" "" "" "" "" "" r7sQ r7sQ r7sY r6v4sg r6v9sf r7vE r7vDsC r6v8si r6v3si r7sS "" "" "" r7s9 r6v1sn r6v7sn r6vDsI r6vEsB r6vAsh r6v4sp r6v4sh r6v4sh r6sp r7sR r7sB "" rA rA rA "" "" "" "" "" "" "" r7sY r6v3so r6v6so r6v9sQ r6v7sh r6v7so r6vAsQ r6vAsY r6vE r6v8sq r6v2sq r7sK "" "" "" "" "" "" "" "" "" s9 v1s9 r6v2sf r7v7sP r6vAsn r7vGsP r7vJsX r6vNsn r6vTsn vZ vZ r2vZ r2vZ r2vZ r2vZ r2vZ r2vZ r2vZ r2vZ r2vZ r2vZ r2vZ r2vZ r2vZ r2vZ r2vZ r2vZ r2vZ r2vZ r2vZ r2vZ r2vZ r2vZ r2vZ r2vZ r2vZ r2vZ r2vZ r2vZ t2r2vZ t4r2vZ
  LINE 19 10 129
    t4 t2 "" "" "" "" "" "" "" "" r2 r2 "" "" "" "" "" "" "" "" "" r7sQ r6v3so r6v3so r6v4sg r6v9sA r7vAsX r7vE r7vDsC r6v8si r6v3si r7sS "" "" r7sA r6v1sn r6v7sf r6vCsP r6vF r6vFsA r6vAsp r6v9sh r6v9sh r6v6sp r6v3sp r6v1sh r7sB "" rA rA rA "" "" "" "" "" "" r7sY r6v4so r6v9so r6vCso r6vCsp r6vCsB r6vD r6vD r6vDsA r6vAsa r6v4sq r7sa "" "" "" "" "" "" "" "" "" "" s9 r7v1sP r6v4sf r7v9sX r6vDsf r6vIsf r7vNsX r6vRsn vXsH vZ r2vZ r2vZ r2vZ r2vZ r2vZ r2vZ r2vZ r2vZ r2vZ r2vZ r2vZ r2vZ r2vZ r2vZ r2vZ r2vZ r2vZ r2vZ r2vZ r2vZ r2vZ r2vZ r2vZ r2vZ r2vZ r2vZ r2vZ r2vZ r2vZ t2vZ t4vZ
  LINE 20 10 129
    t4 t2 "" "" "" "" "" "" "" "" "" "" "" "" "" "" "" "" "" "" "" r7sQ r6v3so r6v9so r6v9so r6v9so r6vAsg r7vCsH r7vCsL r6v7sr r6v3sj r7sS "" "" r7sI r6v1so r6v7sf r6vCsH r6vEs9 r6vFsI r6vGsQ r6vEsh r6vEsh r6vCsp r6v9sh r6v6sR r6v1si r7sC "" rA rA rA "" "" "" "" "" r7sY r6v4so r6vAsg r6vFsP r6vI r6vCsp r6v7sp r6v7sm r6v8sm r6vE r6vAsa r6v4sq r7sa "" "" "" "" "" "" "" "" "" "" s9 r6v1sn r7v7sX r7vBsX r6vFsf r6vKsn r7vQsX r6vUsf vZ vZ r2vZ r2vZ r2vZ r2vZ r2vZ r2vZ r2vZ r2vZ r2vZ r2vZ r2vZ r2vZ r2vZ r2vZ r2vZ r2vZ r2vZ r2vZ r2vZ r2vZ r2vZ r2vZ r2vZ r2vZ r2vZ r2vZ r2vZ vZ t2vZ t4vZ
  LINE 21 11 130
    t4 t2 "" "" "" "" "" "" "" "" "" "" "" "" "" "" "" "" "" "" r7sQ r6v3so r6v9so r6vFso r6vFso r6vFsp r6vCsi r7vC r6v7si r7v3sa r7sS "" "" r7sQ r6v2sg r6v7sg r6vCsg r6vEsQ r6vFsY r6vHsg r6vJsg r6vJsh r6vIsp r6vEsh r6v9sh r6v4si r7sa "" rA rA rA "" "" "" "" "" r7sY r6v4so r6vAsg r6vF r6vCsr r6vCsr r6v6sr r6v2sj r6v2sm r6v8sm r6vE r6vAsa r6v4sq r7sa "" "" "" "" "" "" "" "" "" "" r7sP r6v3sn r6v9sn r7vFsX r6vJsn r7vPsX r6vTsf vYs9 vZ vZ r2vZ r2vZ r2vZ r2vZ r2vZ r2vZ r2vZ r2vZ r2vZ r2vZ r2vZ r2vZ r2vZ r2vZ r2vZ r2vZ r2vZ r2vZ r2vZ r2vZ r2vZ r2vZ r2vZ r2vZ r2vZ r2vZ vZ vZ t2vZ t4vZ
  LINE 22 11 130
    t4 t2 "" "" "" "" "" "" "" "" "" "" "" "" "" "" "" "" "" "" r7sP r6v3sn r6v9sn r6vFsn r6vLso r6vLsp r6vHsa r6vCsi r7v8sa r7v4sa r7sa "" "" r7sP r7v3sX r6v7sf r6vCsf r6vHsg r6vHsg r6vJsg r6vMsg r6vOso r6vOsp r6vJsh r6vEsi r6v9si r6v3sq r7sS "" rA rA rA "" "" "" "" r7sY r6v4so r6vAsg r6vF r6v9sr r6v6sr r6v6sr r6sr r7sG r6v2sm r6v8sm r6vE r6vAsa r6v4sq r7sa "" "" "" "" "" "" "" "" "" "" r6sf r6v5sX r6v9sn r7vFsX r6vJsn r7vPsX r6vTsn vZ vZ r2vZ r2vZ r2vZ r2vZ r2vZ r2vZ r2vZ r2vZ r2vZ r2vZ r2vZ r2vZ r2vZ r2vZ r2vZ r2vZ r2vZ r2vZ r2vZ r2vZ r2vZ r2vZ r2vZ vZ vZ vZ vZ vZ t2vZ t4vZ
  LINE 23 12 131
    t4 t2 "" "" "" "" "" "" "" "" "" "" "" "" "" "" "" "" "" r7sP r6v3sn r6v9sn r6vFsn r6vLsn r6vR r6vLsq r6vFsq r6v9sq r6v3sq r7sb "" "" r7s9 r6v1sn r6v7sf r6vCsf r6vHsf r6vMsg r6vMsg r7vOsQ r7vRsP r7vU r6vOsq r6vIsq r6vDsi r6v7sq r6v2si r7sK rA rA rA "" "" "" "" r6sg r6v4so r6vAsg r6vF r6v9sr r6v3sr r6sr r6sr "" r7sG r6v2sm r6v8sm r6vE r6vAsa r6v4sq r7sa "" "" "" "" "" "" "" "" "" r7sP r6v3sn r6v9sn r7vFsX r6vJsn r7vPsX r6vTsf vYs9 vZ r2vZ r2vZ r2vZ r2vZ r2vZ r2vZ r2vZ r2vZ r2vZ r2vZ r2vZ r2vZ r2vZ r2vZ r2vZ r2vZ r2vZ r2vZ r2vZ vZ vZ vZ vZ vZ vZ vZ vZ vZ vZ t2vZ t4vZ
  LINE 24 12 131
    t4 t2 "" "" "" "" "" "" "" "" "" "" "" "" "" r7sA r7sY r7sZ r7sJ "" r6sn r6v6sP r6v9sn r6vFsn r6vLsm r6vLsr r6vFsq r6v9sq r6v3sq r7sS "" "" "" r7sP r6v3sn r6v9sn r6vFsn r6vLsn r7vR r7vPsI r7vPsG r6vPse r6vOsr r6vJsi r6vEsi r6v9si r6v4si r7sa rA rA rA "" "" "" "" r6sg r6v5so r6vAsg r6vF r6v9sq r6v3sq r7sT "" "" "" r7sG r6v2sm r6v8sm r6v8sr r6v4sr r7sa "" "" "" "" "" "" "" "" "" "" r6sf r6v5sf r6vAsn r7vGsX r6vKsf r7vPsX r6vTsn vZ vZ r2vZ r2vZ r2vZ r2vZ r2vZ r2vZ r2vZ r2vZ r2vZ r2vZ r2vZ r2vZ r2vZ r2vZ r2vZ vZ vZ vZ vZ vZ vZ vZ vZ vZ vZ vZ vZ vZ t2vZ t4vZ
  LINE 25 13 132
    t4r7sI t2r7sI r7sJ "" "" "" "" "" "" "" "" "" "" "" r7sI r6v1sg r7v4sQ r6v2sh r7sR r7s8 r6v1se r6v5se r6vAse r6vFsm r6vGse r6vFsr r6v9sq r6v3sq r7sS "" "" "" r7s9 r6v1sf r6v6sf r6vBsf r6vGse r6vLsm r6vLsr r7vLsb r6vKsj r6vKsj r6vIsr r6vEsj r6v9si r6v4si r7sa rA rA rA "" "" r7sA r7sI r6sg r6v5so r6vBso r6vFsJ r6v9sq r6v3sq r7sS "" "" "" "" r7sG r6v2sm r6v2sm r6v2sr r7sb "" "" "" "" "" "" "" "" "" "" "" r6sf r6v5sn r6vBsn r7vHsX r6vLsf r7vQsP r6vTsn vZ vZ r2vZ r2vZ r2vZ r2vZ r2vZ r2vZ r2vZ r2vZ r2vZ r2vZ r2vZ r2vZ r2vZ vZ vZ vZ vZ vZ vZ vZ vZ vZ vZ vZ vZ vZ vZ vZ t2vZ t4vZ
  LINE 26 13 132
    t4r6sg t2r6v2so r6v2sp r7sR r7sR r7sR "" "" "" "" "" "" "" "" r7sI r6v2so r6v6so r6v7sh r6v3sh r7sR r7s8 r7v1sW r6v4sm r6v9sm r6vBse r6vBsj r6v9sr r6v3sq r7sS "" "" "" "" r7s9 r6v1sf r6v6sf r6vBse r6vFsm r6vGse r7vHsb r6vGsj r6vFsj r6vFsj r6vCsr r6v9sj r6v4si r7sa rA rA rA "" r7sI r7sQ r7v1sY r6v2sg r6v5so r6vBsn r6vH r6vBsq r6v5sq r6si "" "" "" "" "" r7sG r7sG r7sG r7sL "" "" "" "" "" "" "" "" "" "" "" r7sX r6v4sf r6v9sn r6vFsn r7vLsX r7vPsX r6vTsf vYs9 vZ r2vZ r2vZ r2vZ r2vZ r2vZ r2vZ r2vZ r2vZ r2vZ r2vZ r2vZ r2vZ vZ vZ vZ vZ vZ vZ vZ vZ vZ vZ vZ vZ vZ vZ vZ vZ t2vZ t4vZ
  LINE 27 14 133
    t4r6v5so t2r6v8sR r6v3sh r7v3sZ r7v3sZ r7sR "" "" "" "" "" "" "" r7sQ r6v2so r6v8so r6vCsJ r6v8sa r6v3si r7sO s8 r7sW r6v3sm r6v6se r6v7sW r6v6sj r6v3sr r7sS "" "" "" "" "" r7sH r6v2sn r6v8sO r6v9sm r6vBse r7vDsW r6vBsr r6vBsj r6v9sr r6v9sr r6v6sr r6v4sj r7sa rA rA rA r7sA r7sQ r6v2sg r6v3sg r6v5so r6v7sY r6vBsY r6vFsL r6vFsL r6v9sq r6v3sq r7sS "" "" r2 "" "" "" "" "" "" "" "" "" "" "" "" "" "" "" "" "" r6sf r6v5sX r6v9sn r6vFsn r7vLsX r7vPsX r6vTsn vZ vZ r2vZ r2vZ r2vZ r2vZ r2vZ r2vZ r2vZ r2vZ r2vZ r2vZ vZ vZ vZ vZ vZ vZ vZ vZ vZ vZ vZ vZ vZ vZ vZ vZ vZ vZ t2vZ t4vZ
  LINE 28 14 133
    t4r6vBso t2r6vBsp r6v8sR r6v7sh r6v7sh r6v3sp r7sZ r7sZ r7sZ r7sR r7sR r7sR r7sI r7sQ r6v3so r6v8so r6vE r6v9si r6v3sq r7sS "" "" r7sO r6sm r6v2se r6v2sj r6sr r7sT "" "" "" "" "" "" r7sG r6v2sm r6v3sm r6v6se r6v7sm r7v9sb r7v7sb r7v7sb r7v5sb r7v5sb r6v1sj r7sb rA rA rA r7sA r6v1sg r6v3so r6v7so r6v8sg r6vBso r6vBso r6vFsA r6vBsb r6v9sr r6v3sq r7sS "" "" r2 r2 "" "" "" "" "" "" "" "" "" "" "" "" "" "" "" "" "" r6sf r6v5sn r6vBsn r6vHsn r6vNsn r6vTsf vYs9 vZ r2vZ r2vZ r2vZ r2vZ r2vZ r2vZ r2vZ r2vZ r2vZ vZ vZ vZ vZ vZ vZ vZ vZ vZ vZ vZ vZ vZ vZ vZ vZ vZ vZ vZ t2vZ t4vZ
  LINE 29 15 134
    t4r6vHsp t2r6vBsp r6vBsY r6vCsR r6v9sp r6v4sp r6v4sp r6v4sp r6v3sp r6v3sp r6v3sp r7v2sZ r7v2sY r6v3so r6v9so r6vEsA r6vEsB r6v9sp r6v3sq r7sS "" "" "" r7sG r7sG r7sL "" "" "" "" "" "" "" "" r7sG r7sO r7v2sW r6v2se r6v3sm r6v3sr r6v2sj r6v2sj r7v1sb r7v1sb r7sD rA rA rA r7sA r6v1sg r6v6sg r6v9so r6vDsQ r6vDsY r6vH r6vGsA r6vBsi r6v9sK r6v3sq r7sS "" "" r2 r2 r2 r2 "" "" "" "" "" "" "" "" "" "" "" "" "" "" "" "" r6sf r6v5sn r6vBsn r6vHsn r6vNsn r6vTsn vZ vZ r2vZ r2vZ r2vZ r2vZ r2vZ r2vZ r2vZ vZ vZ vZ vZ vZ vZ vZ vZ vZ vZ vZ vZ vZ vZ vZ vZ vZ vZf4 vZ vZ vZ t2vZ t4vZ
  LINE 30 15 134
    t4r6vN t2r6vHsp r6vFsp r6vFsp r6vFsp r6vAsp r6vAsp r6vAsp r6v9sp r6v9sp r6v9sp r6v6sh r6v6so r6v6so r6v9so r6vFso r6vFso r6vFsp r6v9sp r6v3sq r7sS "" "" "" "" "" "" "" "" "" "" "" "" "" "" "" sG r7sG r7sO r7sO r7sT r7sL r7sL r7sD r7sD rA rA rA r7s9 r6v1sf r6v6sf r6vBsg r6vFso r6vGsg r6vHsY r6vHsY r6vGsh r6vAsq r6v4sq r7sa "" "" "" r2 r2 r2 r2 "" "" "" "" "" "" "" "" "" "" "" "" "" "" "" r6sf r6v5sn r6vBsn r6vHsn r6vNsn r6vTsf vYs9 vZ vZ r2vZ r2vZ r2vZ r2vZ vZ vZ vZ vZ vZ vZ vZ vZ vZ vZ vZ vZ vZ vZ vZ vZ vZ vZ vZ vZ vZ vZ vZ t2vZ t4vZ
  LINE 31 16 135
    t4r6vNsY t2r6vLsp r6vLsp r6vLsp r6vGsp r6vGsZ r6vGsg r6vFsp r6vFsp r6vFsp r6vBsZ r6vBsg r6vCso r6vCso r6vFso r6vLso r6vLsp r6vFsp r6v9sq r6v3sq r7sS "" "" "" "" "" "" "" "" "" "" "" "" "" "" "" "" "" "" "" "" "" "" "" rA rA rA r7s9 r6v1sf r6v6sf r6vBsf r6vGsf r6vLso r6vLsp r6vLsZ r6vLsZ r6vFsq r6v9sq r6v3sq r7sS "" "" r2 r2 r2 r2 r2 r2 "" "" "" "" "" "" "" "" "" "" "" "" "" s9 r7v1sX r6v5sn r6vBsn r6vHsn r6vNsn r6vTsn vZ vZ vZ r2vZ r2vZ r2vZ vZ vZ vZ vZ vZ vZ vZ vZ vZ vZ vZ vZ vZ vZ vZ vZ vZ vZ vZ vZ vZf4 vZ vZ vZ t2vZ t4vZ
  LINE 32 16 135
    t4r6vLsn t2r6vR r6vR r6vR r6vMsi r6vKsJ r6vKsQ r6vLsg r6vLsh r6vLsJ r6vFsp r6vFsp r6vGsI r6vIso r6vIso r6vLso r6vR r6vLsq r6vFsq r6v9sq r6v3sq r7sS "" "" "" "" "" "" "" "" "" "" "" "" "" "" "" "" "" "" "" "" "" "" rA rA rA "" r7sP r6v3sn r6v9sn r6vFsn r6vLsn r6vR r6vPsJ r6vPsB r6vJsq r6vDsq r6v7sq r6v1sq r7sC "" "" r2 r2 r2 r2 r2 r2 "" "" "" "" "" "" "" "" "" "" "" "" s9 r7v1sX r6v5sn r6vBsn r6vHsn r6vNsn r6vTsf vYs9 vZ vZ vZ vZ vZ vZ vZ vZ vZ vZ vZ vZ vZ vZ vZ vZ vZ vZ vZ vZ vZ vZ vZ vZ vZ vZ vZ vZ vZ t2vZ t4vZ
  LINE 33 17 136
    t4r6vLsm t2r6vLsm r6vNsW r6vQsD r6vMsb r6vMs9 r6vNsP r6vQ r6vNsR r6vLsp r6vLsp r6vIsR r6vIso r6vOso r6vOso r6vOsQ r6vLsr r6vGsi r6vBsi r6v6si r6v1si r7sC "" "" "" "" "" "" "" "" "" "" "" "" "" "" "" "" "" "" "" "" "" rA rA rA "" r7s9 r6v1sf r6v6sf r6vBsf r6vGse r6vLsm r6vLsm r6vQ r6vLsi r6vFsq r6v9sq r6v3sq r7sS "" "" r2 r2 r2 r2 r2 r2 "" "" "" "" "" "" "" "" "" "" "" "" "" s8 r6se r6v5sn r6vBsn r6vHsn r6vNsn r6vTsn vZ vZ vZ vZ vZ vZ vZ vZ vZ vZ vZ vZ vZ vZ vZ vZ vZ vZ vZ vZ vZ vZ vZ vZ vZ vZ vZ vZ vZ vZ t2vZ t4vZ
  LINE 34 17 136
    t4r6vFsm t2r6vFsm r6vLsG r6vLse r6vKsr r6vKsG r6vMsP r6vPs8 r6vPs8 r6vQs9 r6vR r6vLsp r6vLsR r6vOsn r6vU r6vOsq r6vIsr r6vFsr r6vBsj r6v6si r6v1si r7sC "" "" "" "" "" "" "" "" "" "" "" "" "" "" "" "" "" "" "" "" "" "" rA rA "" "" r7s9 r6v1sf r6v6sf r6vBse r6vFsm r6vGse r6vKsm r6vKsr r6vFsr r6v9sq r6v3sq r7sS "" "" "" r2 r2 r2 r2 r2 r2 "" "" "" "" "" "" "" "" "" "" "" "" "" "" r6sn r6v6sn r6vCsn r6vIsn r6vOsn r6vUsf vZ vZ vZ vZ vZ vZ vZ vZ vZ vZ vZ vZ vZ vZ vZ vZ vZ vZ vZ vZ vZ vZ vZ vZ vZ vZ vZ vZ vZ t2vZ t4vZ
  LINE 35 18 137
    t4r6v9sm t2r6vFsm r6vFsm r6vFsm r6vGsW r6vKsG r6vLsW r6vLsW r6vLse r6vLsm r6vLsr r6vIsT r6vIsm r6vOsm r6vOsr r6vIsr r6vCsr r6v9sr r6v6sj r6v1si r7sC "" "" "" "" "" "" "" "" "" "" "" "" "" "" "" "" "" "" "" "" "" "" "" "" "" "" "" r7s9 r6v1sf r6v6se r6v9sm r6vBse r6vEsm r6vEsr r6vEsr r6v9sr r6v3sq r7sS "" "" "" r2 r2 r2 r2 r2 r2 "" "" "" "" "" "" "" "" "" "" "" "" "" "" "" r6sn r6v6sn r6vCsn r6vIsn r6vOsn r6vUsf vZ vZ vZ vZ vZ vZ vZ vZ vZ vZ vZ vZ vZ vZ vZ vZ vZf4 vZ vZ vZ vZ vZ vZ vZ vZ vZ vZ vZ vZ t2vZ t4vZ
  LINE 36 18 137
    t4r6v3sm t2r6v9sm r6v9sm r6v9sm r6vAsm r6vFse r6vFsm r6vFsm r6vFsm r6vFsm r6vFsm r6vFsr r6vFsO r6vIsm r6vIsr r6vIsr r6vCsr r6v6sr r6v3sr r6v1sj r7sC "" "" "" "" "" "" "" "" "" "" "" "" "" "" "" "" "" "" "" "" "" "" "" "" "" "" "" "" r7s8 r6v1se r6v3sm r6v6se r6vAsW r6vDs8 r6vCsL r6v8sr r6v3sr r7sS "" "" "" r2 r2 r2 r2 r2 r2 r2 "" "" "" "" "" "" "" "" "" "" "" "" "" "" "" r6sn r6v6sn r6vCsn r6vIsn r6vOsn r6vUsf vZ vZ vZ vZ vZ vZ vZ vZ vZ vZ vZ vZ vZ vZ vZ vZ vZ vZ vZ vZ vZ vZ vZ vZ vZ vZ vZ vZ t2vZ t4vZ
  LINE 37 19 138
    t4r6v3sm t2r6v3sm r6v3sm r6v4sm r6v9sm r6v9sm r6v9sm r6v9sm r6v9sm r6v9sm r6v9sm r6v9sm r6vCsm r6vFsO r6vCsr r6vCsr r6v6sr r6sr r7sT r7sD "" "" "" "" "" "" "" "" "" "" "" "" "" "" "" "" "" "" "" "" "" "" "" "" "" "" "" "" "" r7s8 r7sO r6v1se r6v4sm r6v9sW r6vCs8 r6v8sa r6v3si r7sS "" "" "" r2 r2 r2 r2 r2 r2 r2 "" "" "" "" "" "" "" "" "" "" "" "" "" "" "" r7s9 r6v1sf r6v6sn r6vCsn r6vIsn r6vOsn r6vUsf vZ vZ vZ vZ vZ vZ vZ vZ vZ vZ vZ vZ vZ vZ vZ vZ vZ vZ vZ vZ vZ vZ vZ vZ vZ vZ vZ vZ t2vZ t4vZ
  LINE 38 19 138
    t4r7sO t2r7sO r7sO r7v1sO r6v3sm r6v3sm r6v4se r6v4se r6v3sr r6v3sm r6v3sm r6v3sm r6v6sm r6v9sm r6v9sr r6v6sr r6v6sr r6sr "" "" "" "" "" "" "" "" "" "" "" "" "" "" "" "" "" "" "" "" "" "" "" "" "" "" "" "" "" "" "" "" "" r7s8 r7sW r6v3sm r6v9sO r6vCs8 r6v8sh r6v3sh r7sR "" "" r2 r2 r2 r2 r2 r2 r2 "" "" "" "" "" "" "" "" "" "" "" "" "" "" "" r7s9 r6v1sf r6v6sn r6vCsn r6vIsf r6vNsn r6vTsf vYs9 vZ vZ vZ vZ vZ vZ vZ vZ vZ vZ vZ vZ vZ vZ vZ vZ vZ vZ vZ vZ vZ vZ vZ vZ vZ vZ vZ t2vZ t4vZ
  LINE 39 20 139
    t4 t2 r7s8 r7sO r7sO r7v1sO r7v2sG r7sb r7sT r7sO r7sO r7v2sW r6v3sm r6v3sm r6v3sr r6sr r6sr "" "" "" "" "" "" "" "" "" "" "" "" "" "" "" "" "" "" "" "" "" "" "" "" "" "" "" "" "" "" "" "" "" "" "" r7sO r6v3sn r6v9sX r6vDsA r6v8sp r6v3sh r7sR "" "" r2 r2 r2 r2 r2 r2 r2 "" "" "" "" "" "" "" "" "" "" "" "" "" "" "" r7s8 r6sm r6v6sn r6vCsn r6vIsn r6vOsn r6vUsf vZ vZ vZ vZ vZ vZ vZ vZ vZ vZ vZ vZ vZ vZ vZ vZ vZ vZ vZ vZ vZ vZ vZ vZ vZ vZ vZ vZ t2vZ t4vZ
  LINE 40 20 139
    t4 t2 "" "" "" r7s8 r7sG r7sL "" "" "" r7sG r7sO r7v3 r7v3 r7sT "" "" "" "" "" "" "" "" "" "" "" "" "" "" "" "" "" "" "" "" "" "" "" "" "" "" "" "" "" "" "" "" "" "" "" "" "" r6sf r6v5sX r6v9sn r6vEsB r6v8sp r6v3sp r7sR "" "" r2 r2 r2 r2 r2 r2 "" "" "" "" "" "" "" "" "" "" "" "" "" "" "" "" "" r6sn r6v6sn r6vCsn r6vIsn r6vOsn r6vUsf vZ vZ vZ vZ vZ vZ vZ vZ vZ vZ vZ vZ vZ vZ vZ vZ vZ vZ vZ vZ vZ vZ vZ vZ vZ vZ vZ t2vZ t4vZ
  LINE 41 21 140
    t4 t2 "" "" "" "" "" "" "" "" "" "" r7sP r7v3 r7sS "" "" "" "" "" "" "" "" "" "" "" "" "" "" "" "" "" "" "" "" "" "" "" "" "" "" "" "" "" "" "" "" "" "" "" "" "" r7sX r6v4sf r6v9sn r6vFsY r6vEsh r6v9sh r6v3sq r7sS "" "" "" r2 r2 r2 r2 "" "" "" "" "" "" "" "" "" "" "" "" "" "" "" "" "" s9 r6v1sf r6v6sn r6vCsn r6vIsn r6vOsn r6vUsf vZ vZ vZ vZ vZ vZ vZ vZ vZ vZ vZ vZ vZ vZ vZf4 vZ vZ vZ vZ vZ vZ vZ vZ vZ vZ vZ vZ t2vZ t4vZ
  LINE 42 21 140
    t4 t2 "" "" "" "" "" "" "" "" "" "" s9 r7v1sG r7v1sL sC "" "" "" "" "" "" "" "" "" "" "" "" "" "" "" "" "" "" "" "" "" "" "" "" "" "" "" "" "" "" "" "" "" "" "" "" r7sH r6v2sn r6v8sn r6vEsf r6vJ r6vEsi r6v8sq r6v2sq r7sK "" "" "" "" "" "" "" "" "" "" "" "" "" "" "" "" "" "" "" "" "" "" "" s9 r6v1sf r6v6sn r6vCsn r6vIsf r6vNsn r6vTsf vYs9 vZf4 vZ vZ vZ vZ vZ vZ vZ vZ vZ vZ vZ vZf4 vZ vZ vZ vZ vZ vZ vZ vZ vZ vZ vZ vZ vZ t2vZ t4vZ
  LINE 43 22 141
    t4 t2 "" "" "" "" "" "" "" "" "" "" s8 s8 sD "" "" "" "" "" "" "" "" "" "" "" "" "" "" "" "" "" "" "" "" "" "" "" "" "" "" "" "" "" "" "" "" "" "" "" "" "" r7sX r6v4sf r6v9se r6vEse r6vEsj r6v9si r6v4si r7sa "" "" "" "" "" "" "" "" "" "" "" "" "" "" "" "" "" "" "" "" "" "" "" "" s9 r6v1sf r6v6sn r6vCsn r6vIsn r6vOsn r6vUsf vZ vZ vZ vZ vZ vZ vZ vZ vZ vZ vZ vZ vZ vZ vZ vZ vZ vZ vZ vZ vZ vZ vZ vZf4 vZ vZ vZ t2vZ t4vZ
  LINE 44 22 141
    t4 t2 "" "" "" "" "" "" "" "" "" "" "" "" "" "" "" "" "" "" "" "" "" "" "" "" "" "" "" "" "" "" "" "" "" "" "" "" "" "" "" "" "" "" "" "" "" "" "" "" "" "" "" r7sW r6v4se r6v8sm r6vCsG r6v8sr r6v4sj r7v1sS sC "" "" "" "" "" "" "" "" "" "" "" "" "" "" "" "" "" "" "" "" "" "" "" "" sH r7v2sX r6v6sn r6vCsn r6vIsn r6vOsn r6vUsf vZ vZ vZ vZ vZ vZ vZ vZ vZ vZ vZ vZ vZ vZ vZ vZ vZ vZ vZ vZ vZ vZ vZ vZ vZ vZf4 t2vZ t4vZ
  LINE 45 23 142
    t4 t2 "" "" "" "" "" "" "" "" "" "" r7sI r7sJ "" "" "" "" "" "" "" "" "" "" "" "" "" "" "" "" "" "" "" "" "" "" "" "" "" "" "" "" "" "" "" "" "" "" "" "" "" "" "" r7sW r6v2sm r6v6sm r6v7sj r7v4sb r7v2sK sK "" "" "" "" "" "" "" "" "" "" "" "" "" "" "" "" "" "" "" "" "" "" "" "" sH r6v2sg r6v6so r6vCsn r6vIsn r6vOsn r6vUsf vZ vZ vZ vZ vZ vZ vZ vZ vZ vZ vZ vZ vZ vZ vZ vZ vZ vZ vZ vZ vZ vZ vZf4 vZ vZ vZ vZ t2vZ t4vZ
  LINE 46 23 142
    t4 t2 "" "" "" "" "" "" "" "" "" "" r7sY r7v2sJ r7sK "" "" "" "" "" "" "" "" "" "" "" "" "" "" "" "" "" "" "" "" "" "" "" "" "" "" "" "" "" "" "" "" "" "" "" "" "" "" "" r7sG r7v2sW r7v4sO r7v7 r7v4sS v2sK sK "" "" "" "" "" "" "" "" "" "" "" "" "" "" "" "" "" "" "" "" "" "" "" sH r6v2sf r6v7sf r6vCsn r6vIsX r6vMsf r6vRsf r7vWsP vZ vZ vZ vZ vZ vZ vZ vZ vZ vZ vZ vZ vZ vZ vZ vZ vZ vZ vZ vZ vZ vZ vZ vZ vZ vZ t2vZ t4vZ
  LINE 47 24 143
    t4 t2 "" "" "" "" "" "" "" "" "" r7sY r7v4 r7v1sS r7sB "" "" "" "" "" "" "" "" "" "" "" "" "" "" "" "" "" "" "" "" "" "" "" "" "" "" "" "" "" "" "" "" "" "" "" "" "" "" "" sH v2sH r7v4sP r7v4sS v2sK sK "" "" "" "" "" "" "" "" "" "" "" "" "" "" "" "" "" "" "" "" "" "" "" s9 r6v1sf r6v6sn r6vCsn r6vIso r6vMso r6vRso r7vWsQ vZ vZ vZ vZ vZ vZ vZ vZ vZ vZ vZf4 vZ vZ vZ vZ vZ vZ vZ vZf4 vZ vZ vZ vZ vZ vZ vZ vZ t2vZ t4vZ
  LINE 48 24 143
    t4 t2 "" "" "" "" "" "" "" "" "" r7sY r7v4sI r7v4sI r6v1sh r7sJ "" "" "" "" "" "" "" "" "" "" "" "" "" "" "" "" "" "" "" "" "" "" "" "" "" "" "" "" "" "" "" "" "" "" "" "" "" "" sH v2sH v4sH v6 v4sK v2sK sK "" "" "" "" "" "" "" "" "" "" "" "" "" "" "" "" "" "" "" "" "" "" s9 r6v1sf r6v6sn r6vCsn r6vIsn r6vOsX r6vSsf r7vXsH vZ vZ vZ vZ vZ vZ vZ vZ vZ vZ vZ vZ vZ vZ vZ vZf4 vZ vZ vZ vZ vZ vZ vZ vZ vZ vZ vZ t2vZ t4vZ
  LINE 49 25 144
    t4 t2 "" "" "" "" "" "" "" "" r7sY r7v4sQ r6v6sg r6v6sh r6v2sh r7sZ "" "" "" "" "" "" "" "" "" "" "" "" "" "" "" "" "" "" "" "" "" "" "" "" "" "" "" "" "" "" "" "" "" "" "" "" "" "" sH v2sH v4sH r7v6sA r7v4sR v2sK sK "" "" "" "" "" "" "" "" "" "" "" "" "" "" "" "" "" "" "" "" "" "" s9 r6v1sf r6v6sn r6vCsn r6vIsn r6vOsn r6vUsf vZ vZ vZ vZ vZ vZ vZ vZ vZ vZ vZ vZ vZ vZ vZ vZ vZ vZ vZ vZ vZ vZ vZ vZ vZ vZ vZ vZ t2vZ t4vZ
  LINE 50 25 144
    t4 t2 "" "" "" "" "" "" r6sg r6sg r6sg r6v4so r6v7sg r6vBsA r6v7sh r6v4sp r7sZ "" "" "" "" "" "" "" "" "" "" "" "" "" "" "" "" "" "" "" "" "" "" "" "" "" "" "" "" "" "" "" "" "" "" "" "" "" s9 v1sH r7v3sP r7v6s9 r7v7 r7v4sS r7v1sS sC "" "" "" "" "" "" "" "" "" "" "" "" "" "" "" "" "" "" "" "" "" s9 r6v1sf r6v6sn r6vCsn r6vIsf r6vNsn r6vTsf vYs9 vZ vZ vZ vZ vZ vZ vZ vZ vZ vZ vZ vZ vZ vZ vZ vZ vZ vZ vZ vZ vZ vZ vZ vZ vZ vZ vZ t2vZ t4vZ
  LINE 51 26 145
    t4 t2 "" "" "" "" "" r6sf r6v5 r6v5sY r6v5sg r6vAso r6vCsg r6vCsh r6vAsp r6v4sp r7sZ "" "" "" "" "" "" "" "" "" "" "" "" "" "" "" "" "" "" "" "" "" "" "" "" "" "" "" "" "" "" "" "" "" "" "" "" "" r7s9 r7v1sP r6v4sf r7v7sJ r7v4sZ r7v1sS r7sC "" "" "" "" "" "" "" "" "" "" "" "" "" "" "" "" "" "" "" "" "" "" s9 r6v1sf r6v6sn r6vCsn r6vIsn r6vOsn r6vUsf vZ vZ vZ vZ vZ vZ vZ vZ vZ vZ vZ vZ vZ vZf4 vZ vZ vZ vZf4 vZ vZ vZf4 vZ vZ vZ vZ vZ vZ vZ t2vZ t4vZ
  LINE 52 26 145
    t4 t2 "" "" "" "" "" "" r6sf r6v5sX r6v9so r6vAso r6vGso r6vHsg r6vGsp r6vAsp r6v4sp r7sZ "" "" "" "" "" "" "" "" "" "" "" "" "" "" "" "" "" "" "" "" "" "" "" "" "" "" "" "" "" "" "" "" "" "" "" "" r7sI r6v1sg r6v4so r6v9sg r6v8sp r6v4sh r6v1sh r7sR "" "" "" "" "" "" "" "" "" "" "" "" "" "" "" "" "" "" "" "" "" "" r6sn r6v6sn r6vCsn r6vIsn r6vOsn r6vUsf vZ vZ vZ vZ vZ vZ vZ vZ vZ vZ vZ vZ vZ vZ vZ vZ vZ vZ vZ vZ vZ vZ vZ vZ vZ vZ vZ vZ t2vZ t4vZ
  LINE 53 27 146
    t4 t2 "" "" "" "" "" r7sP r6v3sn r6v9sn r6vFs9 r6vGsn r6vMso r6vMsp r6vGsp r6vAsp r6v4sp r7sZ "" "" "" "" "" "" "" "" "" "" "" "" "" "" "" "" "" "" "" "" "" "" "" "" "" "" "" "" "" "" "" "" "" "" "" r7sQ r6v2sg r6v6so r6vAso r6vEsJ r6v9sh r6v6sp r6v3sp r6sh sB "" "" "" "" "" "" "" "" "" "" "" "" "" "" "" "" "" "" "" "" r6sn r6v6sn r6vCsn r6vIsn r6vOsn r6vUsf vZ vZ vZ vZ vZ vZ vZ vZ vZ vZ vZ vZ vZ vZ vZ vZ vZ vZ vZ vZ vZ vZ vZ vZ vZ vZ vZ vZ vZf4 t2vZ t4vZ
  LINE 54 27 146
    t4 t2 "" "" "" "" "" "" r7sX r6v4sn r6vAsn r6vGsn r6vMsn r6vS r6vMsq r6vGsq r6vAsq r6v4sq r7sa "" "" "" "" "" "" "" "" "" "" "" "" "" "" "" "" "" "" "" "" "" "" "" "" "" "" "" "" "" "" "" "" "" "" r7sP r6v3sg r6v7so r6vCso r6vGsQ r6vEsh r6vCsp r6v9sh r6v5sh r6v1sh sB "" "" "" "" "" "" "" "" "" "" "" "" "" "" "" "" "" "" "" r6sn r6v6sn r6vCsn r6vIsn r6vOsn r6vUsf vZ vZ vZ vZ vZ vZ vZ vZ vZ vZf4 vZ vZ vZ vZ vZ vZ vZ vZ vZ vZ vZ vZ vZ vZ vZ vZf4 vZ vZ vZ t2vZ t4vZ
  LINE 55 28 147
    t4 t2 "" "" "" "" "" "" r7sX r6v4sn r6vAsn r6vGsn r6vMsm r6vMsr r6vGsq r6vAsq r6v4sq r7sa "" "" "" "" "" "" "" "" "" "" "" "" "" "" "" "" "" "" "" "" "" "" "" "" "" "" "" "" "" "" "" "" "" "" r7sP r6v3sf r6v8sf r6vDso r6vIso r6vJsg r6vIsp r6vEsh r6vAsZ r6v6sZ r6v1si r7sC "" "" "" "" "" "" "" "" "" "" "" "" "" "" "" "" "" sA r6sg r6v5sn r6vBsn r6vHsn r6vNsn r6vTsn vZ vZ vZ vZ vZ vZ vZ vZ vZf4 vZ vZf4 vZ vZ vZ vZ vZ vZ vZ vZ vZ vZ vZf4 vZ vZ vZ vZ vZ vZ vZ vZ t2vZ t4vZ
  LINE 56 28 147
    t4 t2 "" "" "" "" "" "" "" r7sX r6v4sn r6vAsn r6vGsm r6vGsm r6vGsr r6vAsr r6v5si r7v1sa sC "" "" "" "" "" "" "" "" "" "" "" "" "" "" "" "" "" "" "" "" "" "" "" "" "" "" "" "" "" "" "" "" "" r7s9 r6v1sn r6v7sn r6vDsn r6vJsf r7vOsI r7vOsJ r6vJsh r6vEsi r6vAsa r6v5si r7v1sa sC "" "" "" "" "" "" "" "" "" "" "" "" "" "" "" "" s9 r7v1sX r6v5sn r6vBsn r6vHsn r6vNsn r6vTsf vYs9 vZ vZ vZ vZ vZ vZ vZ vZ vZ vZf4 vZ vZ vZ vZ vZ vZ vZ vZ vZ vZ vZ vZ vZ vZ vZ vZ vZ vZ vZ t2vZ t4vZ
  LINE 57 29 148
    t4 t2 "" "" "" "" "" "" "" r7sX r6v4sn r6vAsm r6vAsm r6vCsb r6vAsr r6v4sr r7v1sb sC "" "" "" "" "" "" "" "" "" "" "" "" "" "" "" "" "" "" "" "" "" "" "" "" "" "" "" "" "" "" "" "" "" r7 r6sn r6v6sn r6vCsn r7vIsX r7vMsX r7vQ r7vOsK r6vIsq r6vCsq r6v6sq r6v1si r7sC "" "" "" "" "" "" "" "" "" "" "" "" "" "" "" "" "" s9 r7v1sX r6v5sn r6vBsn r6vHsn r6vNsn r6vTsn vZ vZ vZ vZ vZ vZ vZ vZ vZ vZ vZ vZ vZ vZ vZ vZ vZ vZ vZ vZ vZ vZ vZ vZ vZ vZ vZ vZ vZ vZ t2vZ t4vZ
  LINE 58 29 148
    t4 t2 "" "" "" "" "" "" "" s9 r7v1sX r6v5sf r6vA r6vAsL r6vAsL r6v4sq r7v1sS sC "" "" "" "" "" "" "" "" "" "" "" "" "" "" "" "" "" "" "" "" "" "" "" "" "" "" "" "" "" "" "" "" "" "" r7sP r6v3sn r6v9sf r7vEsX r6vIsn r7vOsG r7vOsL r6vJsi r6vEsi r6v9si r6v4si r7sa "" "" "" "" "" "" "" "" "" "" "" "" "" "" "" "" "" "" r6sf r6v5sn r6vBsn r6vHsn r6vNsn r6vTsn vZ vZ vZ vZ vZ vZ vZ vZ vZ vZ vZ vZ vZ vZ vZ vZ vZ vZ vZ vZ vZ vZ vZ vZ vZ vZ vZ vZ vZ vZ t2vZ t4vZ
  LINE 59 30 149
    t4 t2 "" "" "" "" "" "" "" r7s9 r7v1sX r6v5sf r6vAsA r6vAsA r6v5si r7v1sa r7sC "" "" "" "" "" "" "" "" "" "" "" "" "" "" "" "" "" "" "" "" "" "" "" "" "" "" "" "" "" "" "" "" "" "" "" r7sX r6v4sn r7vAsW r6vDse r6vIsm r6vIsr r6vIsr r6vEsj r6v9sj r6v5sa r6si "" "" "" "" "" "" "" "" "" "" "" "" "" "" "" "" "" "" r6sf r6v5sn r6vBsn r6vHsn r6vNsn r6vTsf vYs9 vZ vZ vZ vZ vZ vZ vZ vZ vZ vZ vZ vZ vZ vZ vZ vZ vZ vZ vZ vZ vZ vZ vZ vZ vZ vZ vZ vZ vZ vZf4 t2vZ t4vZ
  LINE 60 30 149
    t4 t2 "" "" "" "" "" "" "" "" r7s9 r6v1sf r6v6sf r6vBsA r6v7sg r7v3sa r7sS "" "" "" "" "" "" "" "" "" "" "" "" "" "" "" "" "" "" "" "" "" "" "" "" "" "" "" "" "" "" "" "" "" "" "" s9 r7v1sX r6v5se r7v9sW r6vCsm r6vEsW r6vCsr r6vCsr r6v9sj r6v4sj r6sj "" "" "" "" "" "" "" "" "" "" "" "" "" "" "" "" "" "" r6sf r6v5sn r6vBsn r6vHsn r6vNsn r6vTso vYsA vZ vZ vZ vZ vZ vZ vZ vZ vZ vZ vZ vZ vZ vZ vZ vZ vZ vZ vZ vZ vZ vZ vZ vZ vZ vZ vZ vZ vZ vZ t2vZ t4vZ
  LINE 61 31 150
    t4 t2 "" "" "" "" "" "" "" "" r7sH r6v2sf r6v7sf r6vC r6v7si r7v3sa r7sR r7sB r7sB "" "" "" "" "" "" "" "" "" "" "" "" "" "" "" "" "" "" "" "" "" "" "" "" "" "" "" "" "" "" "" "" "" s9 r7v1sX r7v5sW r6v7se r6vAsW r6vAsb r6v6sr r6v6sr r6v3sr r7sb "" "" "" "" "" "" "" "" "" "" "" "" "" "" "" "" "" "" r6sf r6v5sn r6vBsn r6vHsn r6vNsn r6vTsn vZ vZ vZ vZ vZ vZ vZ vZ vZ vZ vZ vZ vZ vZ vZ vZ vZ vZ vZ vZ vZ vZ vZ vZ vZ vZ vZ vZ vZ vZ vZ vZ t2vZ t4vZ
  LINE 62 31 150
    t4 t2 "" "" "" "" "" "" "" "" "" r7sH r6v2sf r6v7sf r6vC r6v7sh r7v3sZ r7v1sZ r7v1sZ r6sh r7sZ "" "" "" "" "" "" "" "" "" "" "" "" "" "" "" "" "" "" "" "" "" "" "" "" "" "" "" "" "" "" "" "" r7sH r7v2sO r6v2se r6v7sP r6vA r6v4sr r7v2sb r6sr r7sT "" "" "" "" "" "" "" "" "" "" "" "" "" "" "" "" "" sA r6sg r6v5sn r6vBsn r6vHsn r6vNsn r6vTsn vZ vZ vZ vZ vZ vZ vZ vZ vZ vZ vZ vZ vZ vZ vZ vZ vZ vZ vZ vZ vZ vZ vZ vZ vZ vZ vZ vZ vZ vZ vZ vZ t2vZ t4vZ
  LINE 63 32 151
    t4 t2 "" "" "" "" "" "" "" "" "" r7sP r7v3sX r6v7sf r6vCsA r6v7sp r6v5sh r6v5so r6v5sp r6v4sh r6sh r7sZ "" "" "" "" "" "" "" "" "" "" "" "" "" "" "" "" "" "" "" "" "" "" "" "" "" "" "" "" "" "" s9 r7v1s8 r7v1s8 r6v2sn r6v8sG r6v4sr r7sb r7sL "" "" "" "" "" "" "" "" "" "" "" "" "" "" "" "" "" "" s9 r7v1sX r6v5sn r6vBsn r6vHsn r6vNsn r6vTsf vYs9 vZ vZ vZ vZ vZ vZ vZ vZ vZ vZ vZ vZ vZ vZ vZ vZ vZ vZ vZ vZ vZ vZ vZ vZ vZ vZ vZ vZ vZ vZ vZ vZ t2vZ t4vZ
  LINE 64 32 151
    t4 t2 "" "" "" "" "" "" "" "" "" "" r7sP r6v3sf r6v8sf r6vD r6vAsY r6vAsg r6vBsZ r6v9sh r6v5sp r6v4sh r7sZ "" "" "" "" "" "" "" "" "" "" "" "" "" "" "" "" "" "" "" "" "" "" "" "" "" "" "" "" "" "" s8 s8 r7sO r6v3se r6v2sr r7sb "" "" "" "" "" "" "" "" "" "" "" "" "" "" "" "" "" "" "" "" r7s9 r7v1sX r6v5sn r6vBsn r6vHsn r6vNsn r6vTsn vZ vZ vZ vZ vZ vZ vZ vZ vZ vZ vZ vZ vZ vZ vZ vZ vZ vZ vZ vZ vZ vZ vZ vZ vZ vZ vZ vZ vZ vZ vZ vZ t2vZ t4vZ
  LINE 65 33 152
    t4 t2 "" "" "" "" "" "" "" "" "" r7s9 r6v1sf r6v6sf r6vBsH r6vDsY r6vEsg r6vFsY r6vEsh r6vBsp r6v9sh r6v4sh r7sZ "" "" "" "" "" "" "" rA rA "" "" "" "" "" "" "" "" "" "" "" "" "" "" "" "" "" "" "" "" "" "" "" r7sO r7sT r7sL "" "" "" "" "" "" "" "" "" "" "" "" "" "" "" "" "" "" "" "" s9 r7v1sX r6v5sn r6vBsn r6vHsn r6vNsn r6vTsf vYs9 vZ vZ vZ vZ vZ vZ vZ vZ vZS vZ vZ vZ vZ vZ vZ vZf4 vZ vZ vZ vZ vZ vZ vZ vZ vZ vZ vZ vZ vZ vZ vZ vZ t2vZ t4vZ
  LINE 66 33 152
    t4 t2 "" "" "" "" "" "" "" "" "" r7s9 r7v1sX r6v5sn r6vBsg r6vDsg r6vHso r6vJsg r6vJsh r6vHsp r6vEsh r6v9sh r6v4sh r7sZ "" "" sA sB rA rA rA rA rA "" "" "" "" "" "" "" "" "" "" "" "" "" "" "" "" "" "" "" "" "" "" r7sQ r7sO "" "" "" "" "" "" "" "" "" "" "" "" "" "" "" "" "" "" "" "" "" "" s8 r6se r6v5sn r6vBsn r6vHsn r6vNsn r6vTsn vZ vZ vZ vZ vZ vZ vZ vZ vZ vZ vZ vZ vZ vZ vZ vZ vZ vZ vZ vZ vZ vZ vZ vZ vZ vZ vZ vZ vZ vZf4 vZ vZ t2vZ t4vZ
  LINE 67 34 153
    t4 t2 "" "" "" "" "" "" "" "" "" r7sX r6v4sn r6vAsn r6vGsQ r6vIso r6vNso r6vOsg r6vNsp r6vJsh r6vEsh r6v9sh r6v4sh r6sh r6sh r6sh rAv1sJ rAsJ rA rA rA rA "" "" "" "" "" "" "" "" "" "" "" "" "" "" "" "" "" "" "" "" "" r7sY r6sg r7v3sJ r7sS "" "" "" "" "" "" "" "" "" "" "" "" "" "" "" "" "" "" "" "" "" "" "" r6sf r6v5sn r6vBsn r6vHsn r6vNsn r6vTsn vZ vZ vZ vZ vZ vZ vZ vZ vZ vZ vZ vZ vZ vZ vZ vZ vZ vZ vZ vZ vZ vZ vZ vZ vZ vZ vZ vZ vZ vZ vZ vZ t2vZ t4vZ
  LINE 68 34 153
    t4 t2 "" "" "" "" "" "" "" "" "" r7sX r6v4sn r6vAsX r6vEsf r6vJsf r6vOsf r6vTso r6vTsp r6vOsh r6vJsi r6vEsi r6v8sq r7v5sR r7v5sB r7v5sB rAv3sJ rAv2sJ rAsJ rA rA rA "" "" "" "" "" "" "" "" "" "" "" "" "" "" "" "" "" "" "" "" "" r7sY r6v4so r6v5sh r6v2sp sJ "" "" "" "" "" "" "" "" "" "" "" "" "" "" "" "" "" "" "" "" "" "" "" r6sf r6v5sn r6vBsn r6vHsn r6vNsn r6vTsn vZ vZ vZ vZ vZ vZ vZ vZ vZ vZ vZ vZ vZ vZ vZ vZ vZ vZ vZ vZ vZ vZ vZ vZ vZ vZ vZ vZf4 vZ vZ vZ t2vZ t4vZ
  LINE 69 35 154
    t4r7sA t2r7sB r7sB "" "" "" "" "" "" r7sY r7sY r7v4sP r6v7sf r6vCsf r6vHsn r6vNsn r6vTsn r6vZ r6vTsq r6vNsq r6vHsq r6vBsq r7v8sR r7v6sJ rAv6sJ rAv5sB rAv4sJ rAv2sJ sJ "" "" "" "" "" "" "" "" "" "" "" r7sA r7sB "" "" "" "" "" "" "" "" "" sA r7sY r6v4so r6vAsQ r6v8sh r6v2sp r6sh "" "" "" "" "" "" "" "" "" "" "" "" "" "" "" "" "" "" "" "" "" "" s9 r6v1sn r6v7sn r6vDsn r6vJsn r6vPsX r6vTsn vZ vZ vZ vZ vZ vZ vZ vZ vZ vZ vZ vZ vZ vZ vZ vZ vZ vZ vZ vZ vZ vZ vZ vZ vZ vZ vZ vZ vZ vZ vZ t2vZ t4vZ
  LINE 70 35 154
    t4r7v1sQ t2r7v1sR r7v1sR r7sB "" "" "" "" r7sQ r7sY r7v4sY r7v4sY r7v7sY r7vBsP r6vEsf r6vJsf r6vOsf r6vTsm r6vVsb r6vQsi r6vKsq r6vGsa r6vBsi r7v8sR rAv8sJ rAv6sJ rAv6sJ r7v4sJ r7v2sJ r7sZ r7sZ r7sB "" "" "" "" "" "" "" r7sQ r7sY r7v1sQ r7sZ r7sZ "" "" "" "" "" "" "" sA r6v1sg r6v4so r6vAso r6vDsR r6v8sh r6v5sp r6sh r7sB "" "" "" "" "" "" "" "" "" "" "" "" "" "" "" "" "" "" "" "" "" s9 r6v1sn r6v7sn r6vDsn r6vJsm r6vNsm r6vTsn vZ vZ vZ vZ vZ vZ vZ vZ vZ vZ vZ vZ vZ vZ vZ vZ vZ vZ vZ vZf4 vZf4 vZ vZ vZ vZ vZ vZ vZ vZ vZ t2vZ t4vZ
  LINE 71 36 155
    t4r6v4sh t2r6v4sh r7v1sR r7sB "" "" r7sA r7sY r7v3sY r7v4sY r7v8 r7v8sP r7vBs9 r7vCsP r7vFsX r6vJsf r6vOse r6vRsW r6vV r6vQsi r6vKsq r6vFsi r7vBsa rAvAsJ rAv8sJ rAv8sJ r7v6sR r6v4sh r6v4sh r6v4sh r6v1sh r7sR r7sR sJ sJ sB sB r7sA r6so r6v3so r6v4sg r6v4so r6v4sp r6sp r7sZ r7sB "" "" "" "" sA r6v1sg r6v6sg r6vAso r6vGsQ r6vDsp r6vBsJ r6v5sq r7v1sa r7sC "" "" "" "" "" "" "" "" "" "" "" "" "" "" "" "" "" "" "" "" s9 r6v1sf r6v6sP r6v9sX r6vDsn r6vJsX r6vNsn r6vTsn vZ vZ vZ vZ vZ vZf4 vZ vZ vZ vZ vZ vZ vZ vZ vZ vZ vZ vZ vZ vZ vZ vZ vZ vZ vZ vZ vZ vZ vZ vZ t2vZ t4vZ
  LINE 72 36 155
    t4r6v9sg t2r6v9sh r6v4sh r7v1sR r7sB "" r7s9 r7v1sP r7v4sP r7v7s9 r7v8 r7v5sT r6v5sm r6v6sm r6vAse r7vFsX r6vJsf r6vOsO r6vPsm r6vQsj r6vLsi r6vGsi r7vEsK rAvCsJ rAvAsJ rAvAsJ r7v9sR r6v9sg r6v9sh r6v9sh r6v6sp r6v3sp r6v3sp r7v2sZ v2sB v1sJ v1sJ r7v1sI r6v1so r6v6so r6v9sg r6v9sg r6vAsZ r6v6sp r6v4sh r7v1sZ r7sB "" "" "" sA r6v1so r6v6sg r6vBso r6vGso r6vJsR r6vDsq r6v8si r6v2sq r7sK "" "" "" "" "" "" "" "" "" "" "" "" "" "" "" "" "" "" "" "" "" s9 r6v1se r6v5sn r6vBsn r6vHsn r6vNsn r6vTsf vYs9 vZ vZ vZ vZ vZ vZ vZ vZ vZ vZ vZ vZ vZ vZ vZ vZ vZ vZ vZ vZ vZf4 vZ vZ vZ vZ vZ vZ vZ vZ t2vZ t4vZ
  LINE 73 37 156
    t4r6vEsR t2r6v9sh r6v4sh r7v1sR r7sB "" r7sP r7v3sX r7v7 r7v4sb r7v4sb r7v3sL r7v3sO r7v6sX r6vAsn r6vGsn r6vMsG r6vKse r6vKsm r6vLsj r7vHsa r7vGsC rAvEsK rAvCsJ rAvCsJ r7vCsQ r6vCso r6vEsg r6vEsh r6vCsp r6v9sp r6v9sp r6v6sh r7v3sR v3sJ v3sB r7v3sY r6v3sg r6v7so r6vCso r6vEsg r6vEsh r6vCsp r6v9sh r6v5sh r7v1sZ r7sB "" "" r7sA r6v1so r6v7sg r6vBso r6vHso r6vMsA r6vHsp r6vCsi r6v8sa r6v2sq r7sK "" "" "" "" "" "" "" "" "" "" "" "" "" "" "" "" "" "" "" "" "" r7s9 r7v1sX r6v5sn r6vBsn r6vHsn r6vNsn r6vTsn vZ vZ vZ vZ vZ vZ vZ vZ vZ vZ vZ vZ vZ vZ vZ vZ vZ vZ vZ vZ vZ vZ vZ vZ vZ vZ vZ vZ vZ vZ t2vZ t4vZ
  LINE 74 37 156
    t4r6vH t2r6vEsS r6v9si r6v4si r7v1sS r7sC r7sH r7v2sX r7v6s8 r7v3sb r7sb r7sb r7v3 r7v3sX r6v7sf r6vCsf r6vHse r6vGsr r6vFsj r6vFsm r6vFsm r7vGsD rAvFsC rAvEsC rAvEsB r7vEsI r6vFsg r6vIso r6vJsg r6vIsp r6vFsp r7vFsZ r7vBsa r6v6sh r7v5sJ r7v4sJ r7v4sQ r6v7so r6v8so r6vDso r6vIso r6vJsg r6vIsp r6vEsh r6vAsh r6v5sh r7v1sZ r7sB "" r7sI r6v1so r6v7sf r6vCsf r6vHsn r6vNso r6vNsp r6vHsp r6vCsp r6v8sh r6v2sq sK "" "" "" "" "" "" "" "" "" "" "" "" "" "" "" "" "" "" "" "" r7s9 r7v1sX r6v5sn r6vBsn r6vHsn r6vNsn r6vTsf vYs9 vZ vZ vZ vZ vZ vZ vZ vZ vZ vZ vZ vZ vZ vZ vZ vZ vZ vZ vZ vZ vZ vZ vZ vZ vZ vZ vZ vZ vZ t2vZ t4vZ
  LINE 75 38 157
    t4r6vEsS t2r6v9si r6v4si r7v1sS r7sC "" r7sG r7v2sW r7v2sb r7sT "" r7sP r7v3sX r7v7sX r7vBsX r7vFsG r6vCsj r6vAsr r6v9sr r6v9sm r6vBse r7vEsL rAvEs8 rAvF r7vFs9 r7vGsX r6vKsg r6vOso r6vOsp r6vLsp r7vJsZ r6vDsq r7v9sa r7v7sJ r7v6sB r7v6sI r6v7so r6vDso r6vEso r6vJso r6vOso r6vOsp r6vJsh r6vFsa r6vAsi r6v5si r7v1sa r7sC r7sH r6v2sf r6v7sX r6vBsn r6vHsn r6vNsn r6vT r6vNsq r6vIsi r6vDsi r6v7sq r6v1sq r7sC "" "" "" "" "" "" "" "" "" "" "" "" "" "" "" "" "" "" "" r7s9 r7v1 r7v1sX r6v5sn r6vBsn r6vHsn r6vNsn r6vTsn vZ vZ vZ vZ vZ vZ vZ vZ vZ vZ vZ vZ vZ vZ vZ vZ vZ vZ vZ vZ vZ vZ vZ vZ vZ vZ vZ vZ vZ vZ t2vZ t4vZ
  LINE 76 38 157
    t4r6vH t2r6vEsS r6v9si r6v4si r7v1sS r7sC "" r7sG r7sG r7sL "" "" r7sP r7v3sX r7v7sX r7vBsW r7vBsb r6v7sj r6v4sr r6v4se r6v6se r7vAsW rAvCsG rAvEs8 rAvEs8 r6vFsf r6vKsf r6vPsf r7vU r7vRsS r7vNsa r6vHsq r7vDsa r6v9sh r7v7sJ r7v7sA r6v8sg r6vDsn r6vJs9 r6vKsf r6vPsf r6vU r6vOsq r6vIsq r6vCsq r6v7si r6v1sq r7sC "" r7sP r6v3sf r6v8sf r6vDsf r6vIsn r6vOse r6vNsr r6vIsj r6vDsi r6v8si r6v3si r7sS "" "" "" "" "" "" "" "" "" "" "" "" "" "" "" "" "" "" "" r7sA r7v1sY r7v1sY r6v5sn r6vBsn r6vHsn r6vNsn r6vTsf vYs9 vZ vZ vZ vZ vZ vZ vZ vZ vZ vZ vZ vZ vZ vZ vZ vZ vZ vZ vZ vZ vZ vZ vZ vZ vZ vZ vZ vZ vZf4 t2vZ t4vZ
  LINE 77 39 158
    t4r6vEsS t2r6v9si r6v4si r7v1sS r7sC r7 "" "" "" "" "" "" r7sP r7v3sX r7v7sW r7vAs8 r7v7sa r7v4sS r7v4 r7v4sG r7v6sX rAvAsG rAvCsG rAvCsG r7vCsO r6vEsm r6vJsm r6vOsm r6vOsr r6vLsr r6vIsj r7vGsK r7vEsK r6v9sh r6v8sh r6v8sg r7vDsA r6vEse r6vFse r6vKsf r6vPsf r6vOsq r6vJsi r6vEsi r6v9si r6v4si r7sa "" "" r7sP r6v3sf r6v8sf r6vDse r6vIsm r6vJsj r6vHsr r6vDsj r6v8si r6v3si r7sS "" "" "" "" "" "" "" "" "" sA sB "" r6sg r6sg r6sg r6sg r6sg r6sg r6sg r6sg r6v1so r7v5sY r6v5sg r6vAs9 r6vBsn r6vHsn r6vNsn r6vTsn vZ vZ vZ vZ vZ vZ vZ vZ vZ vZ vZ vZ vZ vZ vZ vZ vZ vZ vZ vZ vZ vZ vZ vZ vZ vZ vZ vZ vZ vZ t2vZ t4vZ
  LINE 78 39 158
    t4r6vH t2r6vEsS r6v9si r6v4si r7v1sS r7sC "" "" "" "" "" "" "" r7sP r7v3sX r7v7sP r7vA r7v6sa r7v2sa r7v2sG r7v4sX r7v8sG rAvAsG rAvAsG rAvAsG r7vAsW r6vDsm r6vIsm r6vIsm r6vIsr r6vFsr r6vDsj r7vDsS r7vE r7vDsB r7vDsB r7vDsA r7vE r7vEs9 r6vFsn r6vLsn r6vRsH r6vNsq r6vHsq r6vBsq r6v5sq r7v1sa sC "" "" r7sP r6v3sf r6v8se r6vCsm r6vFsW r6vFsb r6vDsb r6v8sj r6v3si r7v1sK sC "" "" "" "" "" "" "" "" sA v1sI r6sg r6sg r7v5 r6v5sg r6v5sg r6v5sg r6v5sg r6v5sg r6v5sg r6v5so r6v7so r6v9so r6vAso r6vBso r6vHsn r6vNsn r6vTsf vYs9 vZ vZ vZ vZ vZ vZ vZf4 vZ vZ vZ vZ vZ vZ vZ vZ vZ vZ vZ vZ vZ vZ vZ vZf4 vZ vZ vZ vZ vZ vZ t2vZ t4vZ
  LINE 79 40 159
    t4r6vH t2r6vEsS r6v9si r6v4si r7v1sS r7sC "" "" "" "" "" "" r7s9 r7v1sX r7v5sX r7v9s8 r7v6sa r7v2sa r7v2 r7v2sP r7v5sP rAv8sG rAv8sG rAv8sG r7v7sT r6v7sm r6vCsm r6vCsm r6vCsm r6vCsr r6v9sr r6v8sj r6v8sm r6v9se r7vE r6v9sj r6v9se r7vDsH r6vFsn r6vLsX r6vPsX r6vT r6vNsq r6vHsq r6vBsq r6v5sq r7v1sa sC "" "" r7sO r6v3se r6v6sm r6vAse r6vDsG r6vDsL r6v8sj r6v3sj r7sT sD "" "" "" "" "" "" "" "" sI v1sI v3sI r7v5sI r7v5sY r6v5sg r6vAsg r6vAsg r6vAso r6vAso r6vAso r6vAso r6vBso r6vDso r6vFso r6vGso r6vHsg r6vMs9 r6vNsn r6vTsn vZ vZ vZ vZ vZ vZ vZf4 vZ vZ vZ vZ vZ vZ vZ vZ vZ vZ vZ vZ vZ vZ vZ vZ vZ vZ vZ vZ vZ vZ vZ t2vZ t4vZ
  LINE 80 40 159
    t4r6vH t2r6vEsS r6vAsa r6v5si r7v2sS r7sK "" "" "" "" "" "" "" r7s9 r7v1sX r7v5sX r7v9 r7v5sa r7v1sa r7v1sH r7v3sX r7v7s8 rAv6sL rAv6sG rAv6sL r7v6s8 r6v6sm r6v6sm r6v6sm r6v6sr r6v6sr r6v3sr r6v3se r6v3sm r6v9se r6v9sj r6v8sD r6v8se r7vDsX r6vHsf r6vMsn r6vSs8 r6vOsj r6vLsS r6vFsq r6v9sq r7v5sa r7v1sa sC "" "" r7sO r6v1se r6v5se r6vAsO r6vCs8 r6v8si r6v3si r7sS "" "" "" "" "" "" "" "" "" sI v2sA v3sI v5sI v7sI r7v9sI r6vAsg vF vFs9 r7vGsA r7vGsQ r6vGsg r6vGsg r6vHso r6vJso r6vLso r6vMsg r6vMsg r6vNso r6vTsn vZ vZf4 vZ vZ vZ vZ vZ vZ vZ vZ vZ vZ vZ vZ vZ vZ vZ vZ vZ vZ vZ vZ vZ vZ vZ vZ vZ vZ vZ vZ t2vZ t4vZ
  LINE 81 41 160
    t4r6vH t2r6vEsS r6v9si r6v4si r7v1sS r7sC "" "" "" "" "" "" r7s9 r7v1sX r7v5sP r7v8s8 r7v5sb r7v1sb r7sD r7sO r7v3sW r7v4sT rAv4sL rAv4sL rAv4sL r7v4sL r7v2sb r7v2sW r7v2sb r6v1sj r6v1sj r7sT r7sO r6v3sm r6v3sm r6v3sm r6v8 r6v8sf r6vDsf r6vIsf r6vNse r6vMsr r6vJsj r6vFsq r7vBsa r7v7sa r7v3sa r7sS "" "" "" r7s8 r7v1sW r6v5sn r6vBs8 r6vAsK r6v4sq r7sa "" "" "" "" "" "" "" "" "" sH v2s9 v3sH v5sH v7sH v9sH vBsH vDsH vF vFsH vHsH vJsH vL vLsH vNsH vPsH r7vRsI r7vRsI r7vRsY r7vTsY r7vXsH vZ vZ vZ vZ vZ vZ vZ vZ vZ vZ vZ vZ vZ vZ vZ vZ vZ vZ vZ vZ vZ vZ vZ vZ vZ vZ vZ vZ vZ vZ t2vZ t4vZ
  LINE 82 41 160
    t4r6vH t2r6vEsS r6v9si r6v4si r7v1sS r7sC "" "" "" "" "" "" r7s9 r7v1s9 r7v2sX r7v6sG r7v4sb r7v1sb r7sD "" r7sO r7sW v2sG rAv2sL rAv2sL rAv2sL v2sL sL sL sL r7sD r7sD "" r7sO r7sO r7sO r6v3sf r6v8sX r6vCsf r7vHsH r7vJsX r7vMs9 r7vJsS r7vJ r7vFsa r7vBsa r7v7sa r6v1sq r7sC "" "" "" r7s9 r6v1sf r6v6sn r6vC r6v6sq r6v1si sC "" "" "" "" "" "" "" "" sH v2s9 v3sH v5s9 v6sH v8s9 v9sH vBsH vDsH vFs9 vGs9 vHsH vJsH vLsH vNsH vPsH vRsH vT vTsH vVsH vXsH vZ vZ vZ vZ vZ vZ vZ vZ vZ vZ vZ vZ vZ vZ vZ vZ vZ vZ vZ vZ vZ vZ vZ vZ vZ vZ vZ vZ vZ vZ t2vZ t4vZ
  LINE 83 42 161
    t4r6vEsT t2r6v9si r6v4si r7v1sS r7sC "" "" "" "" "" "" "" r7s8 r7sG r7v2sW r7v2sb r7sb sD "" "" "" sG sG rAsL rAsL rAsL sL "" "" "" "" "" "" "" "" r7sP r6v3sn r6v9sn r7vFsX r7vJsY r7vMsH r7vMsJ r7vJsS r7vFsa r7vBsa r7v7sa r6v1sq r7sC "" "" "" s9 r6v1sf r6v6sn r6vC r6v6sq r6v1si sC "" "" "" "" "" "" "" "" "" sH v2s9 v3sH v5sH v7sH v9sH vBsH vDs9 vEsH vG vGs9 vHsH vJsH vLsH vNsH vPsH vRsH vTsH vVsH vXsH vZ vZ vZ vZ vZ vZ vZ vZ vZ vZ vZ vZ vZ vZ vZ vZ vZ vZ vZ vZ vZ vZ vZ vZ vZ vZ vZ vZ vZf4 vZ vZ t2vZ t4vZ
  LINE 84 42 161
    t4r6vE t2r6v9sj r6v4si r7v1sS r7sC "" "" "" "" "" "" "" "" "" r7sG r7v2 r7sK "" "" "" "" "" "" "" rA rA rA "" "" "" "" "" "" "" "" r7sP r6v3sn r6v9sn r7vFsX r7vJsX r7vNs9 r7vO r7vKsa r7vHsS r7vDsa r7v9sa r6v3sq r7sS "" "" "" "" s9 r6v1sf r6v6sn r6vC r6v6sq r6v1si sC "" "" "" "" "" "" "" "" sH v2s9 v3sH v5sH v7sH v9sH vBsH vD vDsH vFs9 vG vGs9 vHsH vJsH vLsH vNsH vPsH vRsH vTsH vVsH vXsH vZ vZ vZ vZ vZ vZ vZ vZ vZ vZ vZ vZ vZ vZ vZ vZ vZ vZ vZ vZ vZ vZ vZf4 vZ vZ vZ vZ vZ vZ vZ t2vZ t4vZ
  LINE 85 43 162
    t4r6v9sj t2r6v4sj r7v1sS r7sC "" "" "" "" "" "" "" "" "" "" r7sG r7v2 r7sK "" "" "" "" "" "" rA rA rA "" "" "" "" "" "" "" "" r7sP r7v3sX r6v7sf r6vCsn r7vIsH r7vKsP r7vNs9 r7vMsK r7vJsS r6vEsi r6v9si r6v3sq r7sS "" "" "" "" "" r7s9 r6v1sf r6v6sn r6vAsL r6v4sq r7v1sS sC "" "" "" "" "" "" "" "" sH v2s9 v3sH v5sH v7sH v9sH vBsH vDsH vFs9 vG vGs9 vHsH vJsH vLsH vNsH vPsH vRsH vTsH vVsH vXsH vZ vZ vZ vZ vZ vZ vZf4 vZ vZ vZ vZ vZ vZ vZ vZ vZ vZ vZ vZ vZ vZ vZ vZf4 vZ vZ vZ vZ vZ vZ vZ vZ t2vZ t4vZ
  LINE 86 43 162
    t4r6v9 t2r6v4sj r7v1sT r7sC "" "" "" "" "" "" "" "" "" "" "" r7sG r7sL "" "" "" "" "" "" "" rA rA rA "" "" "" "" "" "" "" "" r7sP r6v3sn r6v9sn r7vFsX r7vJsX r7vNs9 r7vO r7vKsa r7vJsC r6vDsq r6v8si r6v3si r7sS "" "" "" "" s9 r7v1sP r6v4sf r6v9s8 r6v4sq r7v1sS r7sC "" "" "" "" "" "" "" "" sH v2s9 v3sH v5sH v7sH v9s9 vAsH vCsH vEs9 vFs8 vG vGs9 vHsH vJsH vLsH vNsH vPsH vRsH vTsH vVsH vXsH vZ vZ vZ vZ vZ vZ vZ vZ vZ vZ vZ vZ vZ vZ vZ vZ vZ vZ vZ vZ vZ vZ vZ vZ vZ vZ vZ vZ vZ vZ t2vZ t4vZ
  LINE 87 44 163
    t4r6v4sj t2r7v1sT r7sD "" "" "" "" "" "" "" "" "" "" "" "" "" "" "" "" "" "" "" "" rA rA rA "" "" "" "" "" "" "" "" r7sP r6v3sn r6v9sn r7vFsX r7vJsH r7vLsP r7vO r7vMsK r7vJsS r7vFsa r6v9sq r6v3sq r7sS "" "" "" "" "" s9 r7v1sP r6v4sf r6v9 r6v4si r7v1sS sC "" "" "" "" "" "" "" "" sH v2s9 v3sH v5sH v7sH v9sH vBs9 vCsH vEs8 vEsG vGs9 vHsH vJsH vLsH vNsH vPsH vRsH vTsH vVsH vXsH vZ vZ vZ vZ vZ vZ vZ vZ vZ vZ vZ vZ vZ vZ vZ vZ vZ vZ vZ vZ vZ vZ vZ vZ vZ vZ vZ vZ vZ vZ vZ t2vZ t4vZ
  LINE 88 44 163
    t4r7v1sO t2r7v1sT r7sD "" "" "" "" "" "" "" "" "" "" "" "" "" "" "" "" "" "" "" "" rA rA rA "" "" "" "" "" "" "" "" "" r7sP r6v3sn r6v9sn r7vFsX r7vJsP r7vMsH r7vO r7vKsa r7vJsC r7vFsa r6v9sq r6v3sq r7sS "" "" "" "" "" s9 r7v1sP r6v4sf r6v9 r6v4si r7v1sS sC "" "" "" "" "" "" "" "" sH v2s9 v3sH v5sH v7sH v9sH vBs9 vCsH vE vEsH vGs9 r7vHsG r7vHsW r6vHsm vNsG vPsG vRsG vTsG vVsH vXsH vZ vZ vZ vZ vZ vZ vZ vZ vZ vZ vZ vZ vZ vZ vZ vZ vZ vZ vZ vZ vZ vZ vZ vZ vZ vZ vZ vZ vZ vZ t2vZ t4vZ
  LINE 89 45 164
    t4r7sD t2r7sD "" "" "" "" "" "" "" "" "" "" "" "" "" "" "" "" "" "" "" "" rA rA rA "" "" "" "" "" "" "" "" "" r7sP r6v3sn r6v9sn r7vFsX r7vJs9 r7vKsH r7vMsH r7vMsK r7vJsS r7vFsa r6v9sq r6v3sq r7sS "" "" "" "" "" "" r7sH r6v2sn r6v8s8 r6v4sj r7v1sS sC "" "" "" "" "" "" "" "" sH v2s9 v3sH v5sH v7sH v9sH vBs9 vCsH vE r7vEsH vG r6vBsr r6vBsm r6vBsm r6vHsm r6vKse r6vLsm r6vNsm r6vPsm r6vUse vZ vZf4 vZ vZ vZ vZ vZ vZ vZ vZ vZ vZ vZ vZ vZ vZ vZ vZ vZ vZ vZ vZ vZ vZ vZ vZ vZ vZ vZ vZ vZ t2vZ t4vZ
  LINE 90 45 164
    t4 t2 "" "" "" "" "" "" "" "" "" "" "" "" "" "" "" "" "" "" "" "" "" rA rA rA "" "" "" "" "" "" "" "" r7sP r6v3sn r6v9sn r7vFsX r7vJ r7vJsX r7vMsQ r7vMsQ r7vKsR r7vJsC r7vFsa r6v9sq r6v3sq r7sS "" "" "" "" "" "" r7sG r6v2sm r6v3sj r7v1sT sC "" "" "" "" "" "" "" "" "" sH v2s9 v3sH v5sH v7sG r7v9sG r7vAsG r7vAsW r7vAsW r6vAsm r6vAsr r6v5sr r6v5sm r6vBsm r6vFse r6vFsm r6vHsm r6vJsm r6vOsm r6vUse vZ vZ vZ vZ vZ vZ vZ vZ vZ vZ vZ vZ vZ vZ vZ vZ vZ vZ vZ vZ vZ vZ vZ vZ vZ vZ vZ vZ vZ vZ t2vZ t4vZ
  LINE 91 46 165
    t4 t2 "" "" "" "" "" "" "" "" "" "" "" "" "" "" "" "" "" "" "" "" rA rA rA "" "" "" "" "" "" "" "" "" r7sP r6v3sn r6v9sn r7vFsX r7vJsX r7vNsY r7vPsI r7vNsZ r7vKsZ r6vFsi r6v9sq r6v3sq r7sS "" "" "" "" "" "" "" r7sG r7sO r7sT sD "" "" "" "" "" "" "" "" "" "" sH v2s9 v3sH v5sG r7v5sW r6v5se r6v5se r6v5se r6v5se r6v5se r6v5sj r7v5 r6v5sm r6v9sm r6vAse r6vBsm r6vGsO r6vJsf r6vOsm r6vUse r6vUse vZ vZ vZ vZ vZ vZ vZ vZ vZ vZ vZ vZ vZ vZ vZ vZ vZ vZ vZ vZ vZ vZ vZ vZ vZ vZ vZ vZ vZ t2vZ t4vZ
  LINE 92 46 165
    t4 t2 "" "" "" "" "" "" "" "" "" "" "" "" "" "" "" "" "" "" "" "" "" rA rA rA "" "" "" "" "" "" "" r7sQ r7sQ r6v3sn r6v9sn r7vFsX r7vJsX r7vNsX r7vR r7vR r7vOsR r7vKsZ r6vFsp r6v9sq r6v3sq r7sS "" "" "" "" "" "" "" "" "" "" "" "" "" "" "" "" "" "" "" "" "" sG v1sG r6se r6se r6se r6se r6se r7v1sW r6sj r6se r7v1sW r7v1sW r6v4se r6v5se r6v6se r6vBsf r6vGsX r6vKsW r6vOsm r6vOsm r6vUse vYs8 vZ vZ vZ vZ vZ vZ vZ vZ vZ vZ vZ vZ vZ vZ vZ vZ vZ vZ vZ vZ vZ vZ vZ vZ vZ vZ vZ t2vZ t4vZ
  LINE 93 47 166
    t4 t2 "" "" "" "" "" "" "" "" "" "" "" "" "" "" "" "" "" "" "" "" rA rA rA "" "" "" "" "" "" "" r7sQ r6v3so r6v3so r6v9so r6vFso r7vJsY r7vNsX r7vR r7vR r7vR r7vOsS r7vLsR r6vFsp r6v9sq r6v3sq r7sS "" "" "" "" "" "" "" "" "" "" "" "" "" "" "" "" "" "" "" "" "" s8 sD "" "" "" "" r7s8 r7sD "" r7s8 r7s8 r7v1sO r7v2sO r7v4sG r6v6sn r6vCsn r6vIsG r6vIsm r6vIsm r6vOsm r6vTse r6vUse vZ vZ vZ vZ vZ vZ vZ vZ vZ vZ vZ vZ vZ vZ vZ vZ vZ vZ vZ vZ vZ vZ vZ vZ vZ vZ vZ t2vZ t4vZ
  LINE 94 47 166
    t4 t2 "" "" "" "" "" "" "" "" "" "" "" "" "" "" "" "" "" "" "" "" rA rA rA "" "" "" "" "" "" r7sQ r7sQ r6v3so r6v9so r6v9so r6vFso r7vLsQ r7vNsA r7vOsO r7vOsO r7vOsO r7vOsT r7vO r7vLsR r6vFsp r6v9sq r6v3sq r7sS "" "" "" "" "" "" "" "" r7sQ r7sQ r7sR "" "" "" "" "" "" "" "" "" "" "" "" "" "" "" "" "" "" "" "" r7s8 r7sG r7sW r6sm r6v6sm r6vCsm r6vCsm r6vCsm r6vIsm r6vOse r6vPse r6vUse vZ vZ vZ vZ vZ vZ vZ vZ vZ vZ vZ vZ vZ vZ vZ vZ vZ vZ vZ vZ vZ vZ vZ vZ vZ vZ t2vZ t4vZ
  LINE 95 48 167
    t4 t2 "" "" "" "" "" "" "" "" "" "" "" "" "" "" "" "" "" "" "" rA rA rA "" "" "" "" "" "" r7sQ r6v3so r6v3so r6v9so r6vFso r6vFso r7vLsQ r7vO r7vKsW r7vKsW r7vKsW r7vKsW r7vKsW r7vO r7vLsR r6vFsp r6v9sq r6v3sq r7sS "" "" "" "" "" "" "" r7sP r6v3so r6v3sp r7sR r7sB "" "" "" "" "" "" "" "" "" "" "" "" "" "" "" "" "" "" "" "" "" "" r6sn r6v6sm r6v6sm r6v6sm r6vCsm r6vIsm r6vKse r6vPsf r6vUse vZ vZ vZ vZ vZ vZ vZ vZ vZ vZ vZ vZ vZ vZ vZ vZ vZ vZ vZ vZ vZ vZ vZ vZ vZ vZ t2vZ t4vZ
  LINE 96 48 167
    t4 t2 "" "" "" "" "" "" "" "" "" "" "" "" "" "" "" "" "" "" "" rA rA rA "" "" "" "" "" "" r7sQ r6v3so r6v9so r6v9so r6vFso r7vLsY r7vLsY r7vO r7vKsb r6vEsr r6vEsm r6vEsm r6vEsm r7vKsW r7vO r7vLsR r6vFsp r6v9sq r6v3sq r7sS "" "" "" "" "" "" r7sP r6v3sn r6v9 r6v3sp r7v1sZ r7sR "" "" "" "" "" "" "" "" "" "" "" "" "" "" "" "" "" "" "" "" "" r7s9 r6v1se r6v1se r6v1se r6v6sm r6vCsm r6vEsm r6vKsn r6vQsW r6vUse vXsG vZ vZ vZ vZ vZ vZ vZ vZ vZ vZ vZ vZ vZ vZ vZ vZ vZ vZ vZ vZ vZ vZ vZ vZ t2vZ t4vZ
  LINE 97 49 168
    t4 t2 "" "" "" "" "" "" "" "" "" "" "" "" "" "" "" "" "" "" rA rA rA "" "" "" "" "" "" r7sQ r6v3so r6v9so r6vFso r6vFso r7vLsY r7vP r7vOsC r7vKsa r6vEsr r6v8sr r6v8sm r6v8sm r6vEsm r7vKsW r7vO r7vLsR r6vFsp r6v9sq r6v3sq r7sS "" "" "" "" "" "" r7sP r6v3sn r6v9sI r6v5sp r6v3sh r7sR "" "" "" "" "" "" "" "" "" "" "" "" "" "" "" "" "" "" "" "" "" r7s8 r7s8 r7s8 r6v1se r6v6sm r6v8sm r6vEsm r6vKsm r6vOsm r6vSse r6vUse r6vUse vZ vZ vZ vZ vZ vZ vZ vZ vZ vZ vZ vZ vZ vZ vZ vZ vZ vZ vZ vZ vZ vZ vZ t2vZsA t4vZsB
  LINE 98 49 168
    t4 t2 t2 t2 t2 t2 t2 t2 t2 t2 t2 t2 t2 t2 t2 t2 t2 t2 t2 t2 t2rA t2rA t2rA t2 t2 t2 t2 t2 t2 t2r7sP t2r6v3sn t2r6v9sn t2r6vFsn t2r7vLsY t2r7vLsY t2r7vP t2r7vOsC t2r7vKsa t2r6vEsq t2r6v8sr t2r6v5sT t2r6v5sO t2r6v8sm t2r6vEsm t2r7vKsW t2r7vO t2r7vLsR t2r6vFsq t2r6v9sq t2r6v3sq t2r7sS t2 t2 t2 t2 t2 t2r7sP t2r6v3sn t2r6v9sH t2r6vBsI t2r6v8sh t2r6v3sh t2r7sR t2 t2 t2 t2 t2 t2 t2 t2 t2 t2 t2 t2 t2 t2 t2 t2 t2 t2 t2 t2 t2 t2 t2 t2r7s8 t2r6v1se t2r6v2sm t2r6v8sm t2r6vEsm t2r6vIsm t2r6vMsm t2r6vOsm t2r6vOsm t2r6vUse t2r6vUse t2vXsG t2vZ t2vZ t2vZ t2vZ t2vZ t2vZ t2vZ t2vZ t2vZ t2vZ t2vZ t2vZ t2vZ t2vZ t2vZ t2vZ t2vZ t2vZ t2vZ t2vZ t2vZs9 t4va
  LINE 99 50 169
    t4 t4 t4 t4 t4 t4 t4 t4 t4 t4 t4 t4 t4 t4 t4 t4 t4 t4 t4 t4rA t4rA t4rA t4 t4 t4 t4 t4 t4 t4r7sP t4r6v3sn t4r6v9sn t4r6vFsn t4r7vLsX t4r7vP t4r7vP t4r7vOsC t4r7vKsa t4r6vEsq t4r6v8sq t4r6v5sT t4r6v5 t4r6v5sO t4r6v8sm t4r6vEsm t4r7vKsW t4r7vO t4r7vLsS t4r6vFsq t4r6v9sq t4r6v3sq t4r7sS t4 t4 t4 t4 t4r7s9 t4r6v1sf t4r6v6sf t4r6vBsH t4r6vD t4r6v8si t4r6v3si t4r7sS t4 t4 t4 t4 t4 t4 t4 t4 t4 t4 t4 t4 t4 t4 t4 t4 t4 t4 t4 t4 t4 t4 t4 t4r7s8 t4r7sG t4r6v2sm t4r6v8sm t4r6vCsm t4r6vGsm t4r6vIsm t4r6vIsm t4r6vOsm t4r6vOsm t4r6vSse t4r6vUse t4vZ t4vZ t4vZ t4vZ t4vZ t4vZ t4vZ t4vZ t4vZ t4vZ t4vZ t4vZ t4vZ t4vZ t4vZ t4vZ t4vZ t4vZ t4vZ t4vZs9 t4va t4va
END_OF_HEXES

EXTERNAL_NODES nodes.bin
ENVIROMENT
  SET 1 dummy
  SET 2 list-akatojerab
  SET 3 list-jerab-spal
  SET 4 list-platan
  SET 5 list-platan-spal
  SET 6 list-mocal-koreny
  SET 7 list-vrba
  SET 8 list-vrba-zluta
  SET 9 jehl-borovice
  SET 10 jehl-borov-vysoka
  SET 11 jehl-borovice-mala
  SET 12 stone_set_01
  SET 13 stone_set_02
  SET 14 stone_set_03
  SET 15 stone_set_04
  SET 16 stone_set_05
  SET 17 stone_set_06
  SET 18 stone_set_07
  SET 19 houby
  SET 20 mrcha
  SET 21 jehl-smrk-silny
  SET 22 jehl-smrk-stredni
  SET 23 jehl-smrk-uzky-spal
  SET 24 jehl-smrk-stredni
  SET 25 jehl-smrk-stredni-spal
  SET 26 jehl-smrk-stredni-suchy
  SET 27 list-dvoupatr
  SET 28 list-briza
  SET 29 list-paskvil
  SET 30 ker
  SET 31 jehl-borov-vysoka-spal
  SET 32 list-akat-vysoky-spal
  SET 33 plavun
  SET 34 cykas
  SET 35 list-kastan
  SET 36 mech
  SET 37 jehl-smrk-maly
  SET 38 ker-husty
  SET 39 ker-rosti
  SET 40 list-akat-rosti
  SET 41 list-briza-vyssi
  SET 42 list-sahara
  SET 43 list-akat-maly
  SET 44 list-dvoupatr-maly
  SET 45 parez
  SET 46 polosuche
  SET 47 list-dub
  SET 48 list-kastan-vanek
  SET 49 parezoid
  SET 50 branka
  SET 51 leknin
  SET 52 monolit
  ON_HEX 5 0
    sci4
  ON_HEX 89 0
    sci7
  ON_HEX 102 0
    sci4
  ON_HEX 4 1
    sci6
  ON_HEX 7 1
    sci1
  ON_HEX 8 1
    sci5
  ON_HEX 13 1
    sci6
  ON_HEX 14 1
    sci7
  ON_HEX 19 1
    sci4
  ON_HEX 20 1
    sci7
  ON_HEX 83 1
    sci9
  ON_HEX 88 1
    sci7
  ON_HEX 91 1
    sci4
  ON_HEX 92 1
    sci2
  ON_HEX 105 1
    sci2
  ON_HEX 19 2
    sgi1
  ON_HEX 21 2
    sci4
  ON_HEX 23 2
    sci7
  ON_HEX 24 2
    sci2
  ON_HEX 89 2
    sci1
  ON_HEX 95 2
    sgi4
  ON_HEX 101 2
    sci6
  ON_HEX 102 2
    sgi5
  ON_HEX 105 2
    sgi1
  ON_HEX 3 3
    sgi5
  ON_HEX 13 3
    sgi1
  ON_HEX 14 3
    sci8
  ON_HEX 99 3
    sgi1
  ON_HEX 100 3
    sgi9
  ON_HEX 107 3
    sgi4
  ON_HEX 71 4
    sciA
  ON_HEX 91 4
    sci1
  ON_HEX 18 5
    sgi6
  ON_HEX 20 5
    sci6
  ON_HEX 21 5
    sciA
  ON_HEX 22 5
    sci3
  ON_HEX 85 5
    sci8
  ON_HEX 91 5
    sci7
  ON_HEX 96 5
    sgi9
  ON_HEX 97 5
    sciA
  ON_HEX 99 5
    sciA
  ON_HEX 4 6
    sgi3
  ON_HEX 11 6
    sci7
  ON_HEX 12 6
    sciA
  ON_HEX 20 6
    sgi2
  ON_HEX 77 6
    sci4
  ON_HEX 8 7
    sgi6
  ON_HEX 13 7
    sgi8
  ON_HEX 18 7
    sci3
  ON_HEX 19 7
    sgi9
  ON_HEX 36 7
    sci7
  ON_HEX 37 7
    sgi4
  ON_HEX 48 7
    sci8
  ON_HEX 75 7
    sci3
  ON_HEX 92 7
    sci9
  ON_HEX 95 7
    sgi3
  ON_HEX 97 7
    sgi1
  ON_HEX 121 7
    sci2
  ON_HEX 5 8
    sgi7
  ON_HEX 7 8
    sci3
  ON_HEX 8 8
    sci2
  ON_HEX 12 8
    sci1
  ON_HEX 24 8
    sci6
  ON_HEX 47 8
    sgi8
  ON_HEX 60 8
    sci5
  ON_HEX 73 8
    sci3
  ON_HEX 92 8
    sciA
  ON_HEX 119 8
    sciA
  ON_HEX 6 9
    sgi5
  ON_HEX 7 9
    sci5
  ON_HEX 12 9
    sci1
  ON_HEX 14 9
    sci5
  ON_HEX 18 9
    sci4
  ON_HEX 58 9
    sci4
  ON_HEX 77 9
    sci8
  ON_HEX 87 9
    sci3
  ON_HEX 93 9
    sci3
  ON_HEX 94 9
    sci8
  ON_HEX 96 9
    sci7
  ON_HEX 13 10
    sci2
  ON_HEX 24 10
    sci9
  ON_HEX 39 10
    sci9
  ON_HEX 47 10
    sci5
  ON_HEX 49 10
    sgi3
  ON_HEX 96 10
    sci9
  ON_HEX 7 11
    sgi9
  ON_HEX 15 11
    sgi2
  ON_HEX 17 11
    sci9
  ON_HEX 62 11
    sgi6
  ON_HEX 63 11
    sci7
  ON_HEX 78 11
    sci3
  ON_HEX 123 11
    sgi3
  ON_HEX 124 11
    sciA
  ON_HEX 7 12
    sci3
  ON_HEX 16 12
    sci4
  ON_HEX 19 12
    sci5
  ON_HEX 21 12
    sci5
  ON_HEX 47 12
    sci4
  ON_HEX 62 12
    sgi3
  ON_HEX 76 12
    sci9
  ON_HEX 77 12
    sci3
  ON_HEX 109 12
    sci1
  ON_HEX 122 12
    sgi2
  ON_HEX 7 13
    sci2
  ON_HEX 11 13
    sciA
  ON_HEX 15 13
    sci8
  ON_HEX 40 13
    sgi3
  ON_HEX 60 13
    sciA
  ON_HEX 62 13
    sci6
  ON_HEX 115 13
    sgi7
  ON_HEX 122 13
    sgiA
  ON_HEX 124 13
    sci1
  ON_HEX 12 14
    sci7
  ON_HEX 17 14
    sci3
  ON_HEX 22 14
    sci2
  ON_HEX 48 14
    sgi6
  ON_HEX 50 14
    sci8
  ON_HEX 52 14
    sci9
  ON_HEX 101 14
    sci4
  ON_HEX 112 14
    sci1
  ON_HEX 114 14
    sci1
  ON_HEX 126 14
    sci9
  ON_HEX 12 15
    sci2
  ON_HEX 15 15
    sci8
  ON_HEX 21 15
    sci9
  ON_HEX 51 15
    sgi1
  ON_HEX 53 15
    sci7
  ON_HEX 60 15
    sgi5
  ON_HEX 117 15
    sgiA
  ON_HEX 120 15
    sci1
  ON_HEX 122 15
    sci5
  ON_HEX 17 16
    sci8
  ON_HEX 22 16
    sci4
  ON_HEX 44 16
    sgi1
  ON_HEX 63 16
    sgi1
  ON_HEX 123 16
    sci7
  ON_HEX 125 16
    sciA
  ON_HEX 126 16
    sci2
  ON_HEX 127 16
    sci8
  ON_HEX 39 17
    sci3
  ON_HEX 46 17
    sgi5
  ON_HEX 54 17
    sgi2
  ON_HEX 97 17
    sci9
  ON_HEX 109 17
    sci9
  ON_HEX 110 17
    sci4
  ON_HEX 112 17
    sci8
  ON_HEX 113 17
    sgi8
  ON_HEX 115 17
    sgi9
  ON_HEX 118 17
    sgi8
  ON_HEX 120 17
    sci2
  ON_HEX 45 18
    sgi4
  ON_HEX 97 18
    sci4
  ON_HEX 107 18
    sgi4
  ON_HEX 111 18
    sgi7
  ON_HEX 117 18
    sci7
  ON_HEX 120 18
    sci7
  ON_HEX 122 18
    sci8
  ON_HEX 103 19
    sci1
  ON_HEX 104 19
    sci3
  ON_HEX 106 19
    sgi9
  ON_HEX 45 20
    sgi2
  ON_HEX 98 20
    sciA
  ON_HEX 106 20
    sgi4
  ON_HEX 109 20
    sci9
  ON_HEX 45 21
    sci3
  ON_HEX 73 21
    sci6
  ON_HEX 74 21
    sci7
  ON_HEX 104 21
    sci9
  ON_HEX 102 22
    sci1
  ON_HEX 103 22
    sci4
  ON_HEX 104 22
    sgi5
  ON_HEX 106 22
    sgi7
  ON_HEX 108 22
    sci9
  ON_HEX 33 23
    sci9
  ON_HEX 47 23
    sci5
  ON_HEX 73 23
    sci5
  ON_HEX 77 23
    sci6
  ON_HEX 108 23
    sci2
  ON_HEX 109 23
    sci8
  ON_HEX 33 24
    sci6
  ON_HEX 73 24
    sgi9
  ON_HEX 94 24
    sci4
  ON_HEX 112 24
    sgi2
  ON_HEX 35 25
    sgi8
  ON_HEX 36 25
    sciA
  ON_HEX 37 25
    sci7
  ON_HEX 40 25
    sciA
  ON_HEX 74 25
    sci7
  ON_HEX 107 25
    sci6
  ON_HEX 34 26
    sci5
  ON_HEX 35 26
    sci6
  ON_HEX 40 26
    sci9
  ON_HEX 73 26
    sgi3
  ON_HEX 107 26
    sciA
  ON_HEX 110 26
    sci1
  ON_HEX 38 27
    sci2
  ON_HEX 39 27
    sci1
  ON_HEX 72 27
    sci1
  ON_HEX 96 27
    sci2
  ON_HEX 97 27
    sci9
  ON_HEX 103 27
    sci6
  ON_HEX 16 28
    sgi8
  ON_HEX 74 28
    sci1
  ON_HEX 103 28
    sgi6
  ON_HEX 105 28
    sci1
  ON_HEX 107 28
    sci7
  ON_HEX 28 29
    sgi2
  ON_HEX 52 29
    sgi5
  ON_HEX 107 29
    sgi3
  ON_HEX 26 30
    sgi2
  ON_HEX 52 30
    sciA
  ON_HEX 53 30
    sgiA
  ON_HEX 97 30
    sci5
  ON_HEX 16 31
    sci7
  ON_HEX 18 31
    sci6
  ON_HEX 83 31
    sci8
  ON_HEX 26 32
    sci5
  ON_HEX 29 32
    sci8
  ON_HEX 30 32
    sci4
  ON_HEX 82 32
    sgi4
  ON_HEX 27 33
    sci5
  ON_HEX 74 33
    sci6
  ON_HEX 75 33
    sci7
  ON_HEX 36 34
    sci7
  ON_HEX 81 34
    sci8
  ON_HEX 85 34
    sci5
  ON_HEX 34 35
    sci6
  ON_HEX 35 35
    sgi3
  ON_HEX 36 35
    sciA
  ON_HEX 67 35
    sgi4
  ON_HEX 20 36
    sgiA
  ON_HEX 67 36
    sciA
  ON_HEX 75 36
    sci7
  ON_HEX 84 36
    sciA
  ON_HEX 86 36
    sgi8
  ON_HEX 20 37
    sci6
  ON_HEX 76 37
    sci6
  ON_HEX 22 38
    sci5
  ON_HEX 25 38
    sci2
  ON_HEX 31 38
    sgi7
  ON_HEX 33 38
    sgiA
  ON_HEX 35 38
    sci2
  ON_HEX 69 38
    sci6
  ON_HEX 85 38
    sgi5
  ON_HEX 26 39
    sgiA
  ON_HEX 30 39
    sci9
  ON_HEX 72 39
    sgi1
  ON_HEX 78 39
    sci4
  ON_HEX 83 39
    sgi8
  ON_HEX 88 39
    sci6
  ON_HEX 35 40
    sci2
  ON_HEX 84 40
    sci1
  ON_HEX 85 40
    sgi3
  ON_HEX 33 41
    sci7
  ON_HEX 72 41
    sci1
  ON_HEX 35 42
    sci1
  ON_HEX 73 42
    sgi9
  ON_HEX 79 42
    sci9
  ON_HEX 73 43
    sci8
  ON_HEX 78 44
    sci1
  ON_HEX 75 45
    sci4
  ON_HEX 76 45
    sgi8
  ON_HEX 78 45
    sci6
  ON_HEX 115 46
    sci4
  ON_HEX 115 47
    sci8
  ON_HEX 115 48
    sciA
  ON_HEX 114 49
    sciA
  ON_HEX 36 50
    sci3
  ON_HEX 86 51
    sci2
  ON_HEX 116 51
    sci8
  ON_HEX 68 53
    sgi6
  ON_HEX 110 53
    sci9
  ON_HEX 35 54
    sci6
  ON_HEX 69 54
    sci2
  ON_HEX 110 54
    sci2
  ON_HEX 116 54
    sci8
  ON_HEX 117 54
    sci4
  ON_HEX 91 55
    sci5
  ON_HEX 116 55
    sci6
  ON_HEX 37 56
    sci9
  ON_HEX 91 56
    sgi1
  ON_HEX 44 57
    sci2
  ON_HEX 91 57
    sci4
  ON_HEX 110 57
    sci8
  ON_HEX 111 57
    sci7
  ON_HEX 114 57
    sgi8
  ON_HEX 110 58
    sci2
  ON_HEX 114 58
    sci6
  ON_HEX 39 59
    sciA
  ON_HEX 112 59
    sci8
  ON_HEX 91 60
    sgi2
  ON_HEX 111 60
    sci2
  ON_HEX 43 61
    sci8
  ON_HEX 90 62
    sci4
  ON_HEX 91 62
    sgi7
  ON_HEX 92 62
    sci9
  ON_HEX 111 62
    sci9
  ON_HEX 117 62
    sci8
  ON_HEX 50 63
    sci8
  ON_HEX 53 63
    sci7
  ON_HEX 89 63
    sgi6
  ON_HEX 90 63
    sciA
  ON_HEX 117 63
    sci2
  ON_HEX 47 64
    sciA
  ON_HEX 118 64
    sci9
  ON_HEX 53 65
    sci1
  ON_HEX 118 65
    sci5
  ON_HEX 53 66
    sci8
  ON_HEX 53 67
    sci6
  ON_HEX 56 68
    sci4
  ON_HEX 72 68
    sgi8
  ON_HEX 72 69
    sgi8
  ON_HEX 36 70
    sci7
  ON_HEX 74 70
    sgi1
  ON_HEX 49 71
    sci4
  ON_HEX 50 71
    sciA
  ON_HEX 66 71
    sci8
  ON_HEX 69 71
    sgi1
  ON_HEX 88 71
    sci2
  ON_HEX 93 71
    sci2
  ON_HEX 46 72
    sci3
  ON_HEX 47 72
    sgi8
  ON_HEX 48 72
    sci4
  ON_HEX 49 72
    sciA
  ON_HEX 38 73
    sci5
  ON_HEX 39 73
    sci1
  ON_HEX 44 73
    sgi1
  ON_HEX 50 73
    sgi3
  ON_HEX 44 74
    sci7
  ON_HEX 46 74
    sci9
  ON_HEX 52 74
    sci6
  ON_HEX 58 74
    sci3
  ON_HEX 45 75
    sci6
  ON_HEX 51 75
    sci4
  ON_HEX 58 75
    sci7
  ON_HEX 52 76
    sci8
  ON_HEX 53 76
    sgi9
  ON_HEX 57 76
    sci9
  ON_HEX 59 76
    sci4
  ON_HEX 89 76
    sci9
  ON_HEX 56 77
    sci6
  ON_HEX 57 77
    sci8
  ON_HEX 90 77
    sciA
  ON_HEX 53 78
    sci4
  ON_HEX 56 78
    sgi6
  ON_HEX 58 78
    sciA
  ON_HEX 65 78
    sci2
  ON_HEX 92 78
    sciA
  ON_HEX 93 78
    sgi7
  ON_HEX 65 79
    sci6
  ON_HEX 43 80
    sgi7
  ON_HEX 56 80
    sci7
  ON_HEX 60 80
    sci1
  ON_HEX 79 80
    sci1
  ON_HEX 94 80
    sci6
  ON_HEX 55 81
    sci6
  ON_HEX 56 81
    sci2
  ON_HEX 68 81
    sci5
  ON_HEX 69 81
    sgi9
  ON_HEX 71 81
    sci6
  ON_HEX 58 82
    sciA
  ON_HEX 69 82
    sci5
  ON_HEX 77 82
    sci4
  ON_HEX 44 83
    sci4
  ON_HEX 46 83
    sci9
  ON_HEX 44 85
    sci3
  ON_HEX 45 85
    sci5
  ON_HEX 44 86
    sgi8
  ON_HEX 96 86
    sci9
  ON_HEX 99 86
    sci7
  ON_HEX 46 87
    sci7
  ON_HEX 98 87
    sgi2
  ON_HEX 44 88
    sci3
  ON_HEX 79 88
    sgi7
  ON_HEX 81 89
    sgi6
  ON_HEX 100 89
    sciA
  ON_HEX 81 92
    sgi2
  ON_HEX 55 93
    sgiA
  ON_HEX 57 93
    sgi3
  ON_HEX 55 94
    sci6
  ON_HEX 56 94
    sgi5
  ON_HEX 57 94
    sci6
  ON_HEX 81 94
    sci6
  ON_HEX 141 94
    sci1
  ON_HEX 56 95
    sci5
  ON_HEX 144 95
    sci8
  ON_HEX 134 96
    sci8
  ON_HEX 135 96
    sci3
  ON_HEX 145 96
    sci8
  ON_HEX 136 97
    sci7
  ON_HEX 137 97
    sci7
  ON_HEX 108 98
    sci7
  ON_HEX 109 98
    sci3
  ON_HEX 138 98
    sci2
  ON_HEX 147 98
    sciA
  ON_HEX 105 99
    sci5
  ON_HEX 107 99
    sciA
END_OF_ENVIROMENT

EXTERNAL_SECTORS sectors.bin
ATTITUDES
  PARAMS 8
  1 0 0 0 0 0 0 0 0
  0 1 2 2 2 2 2 2 2
  0 2 1 0 2 2 2 2 2
  0 2 0 1 2 2 2 2 2
  0 2 2 2 1 2 2 1 2
  0 2 2 2 2 1 2 2 2
  0 2 2 2 2 2 1 2 2
  0 2 2 2 1 2 2 1 2
  0 2 2 2 2 2 2 2 1
  FLAG 8
  T T T T T T T T T
END_OF_ATTITUDES

TECHS
  PARAMS 72 8
  F T F T T F T T F T T F T T F T T F T T F T T F T T F
  F T F T T F T T F T T F T T F T T F T T F T T F T T F
  F T F T T F T T F T T F T T F T T F T T F T T F T T F
  F T F T T F T T F T T F T T F T T F T T F T T F T T F
  F T F T T F T T F T T F T T F T T F T T F T T F T T F
  F T F T T F T T F T T F T T F T T F T T F T T F T T F
  F T F T T F T T F T T F T T F T T F T T F T T F T T F
  F T F T T F T T F T T F T T F T T F T T F T T F T T F
  F T F T T F T T F T T F T T F T T F T T F T T F T T F
  F T F T T F T T F T T F T T F T T F T T F T T F T T F
  F T F T T F T T F T T F T T F T T F T T F T T F T T F
  F T F T T F T T F T T F T T F T T F T T F T T F T T F
  F T F T T F T T F T T F T T F T T F T T F T T F T T F
  F T F T T F T T F T T F T T F T T F T T F T T F T T F
  F T F T T F T T F T T F T T F T T F T T F T T F T T F
  F T F T T F T T F T T F T T F T T F T T F T T F T T F
  F T F T T F T T F T T F T T F T T F T T F T T F T T F
  F T F T T F T T F T T F T T F T T F T T F T T F T T F
  F T F T T F T T F T T F T T F T T F T T F T T F T T F
  F T F T T F T T F T T F T T F T T F T T F T T F T T F
  F T F T T F T T F T T F T T F T T F T T F T T F T T F
  F T F T T F T T F T T F T T F T T F T T F T T F T T F
  F T F T T F T T F T T F T T F T T F T T F T T F T T F
  F T F T T F T T F T T F T T F T T F T T F T T F T T F
  F T F T T F T T F T T F T T F T T F T T F T T F T T F
  F T F T T F T T F T T F T T F T T F T T F T T F T T F
  F T F T T F T T F T T F T T F T T F T T F T T F T T F
  F T F T T F T T F T T F T T F T T F T T F T T F T T F
  F T F T T F T T F T T F T T F T T F T T F T T F T T F
  F T F T T F T T F T T F T T F T T F T T F T T F T T F
  F T F T T F T T F T T F T T F T T F T T F T T F T T F
  F T F T T F T T F T T F T T F T T F T T F T T F T T F
  F T F T T F T T F T T F T T F T T F T T F T T F T T F
  F T F T T F T T F T T F T T F T T F T T F T T F T T F
  F T F T T F T T F T T F T T F T T F T T F T T F T T F
  F T F T T F T T F T T F T T F T T F T T F T T F T T F
  F T F T T F T T F T T F T T F T T F T T F T T F T T F
  F T F T T F T T F T T F T T F T T F T T F T T F T T F
  F T F T T F T T F T T F T T F T T F T T F T T F T T F
  F T F T T F T T F T T F T T F T T F T T F T T F T T F
  F T F T T F T T F T T F T T F T T F T T F T T F T T F
  F T F T T F T T F T T F T T F T T F T T F T T F T T F
  F T F T T F T T F T T F T T F T T F T T F T T F T T F
  F T F T T F T T F T T F T T F T T F T T F T T F T T F
  F T F T T F T T F T T F T T F T T F T T F T T F T T F
  F T F T T F T T F T T F T T F T T F T T F T T F T T F
  F T F T T F T T F T T F T T F T T F T T F T T F T T F
  F T F T T F T T F T T F T T F T T F T T F T T F T T F
  F T F T T F T T F T T F T T F T T F T T F T T F T T F
  F T F T T F T T F T T F T T F T T F T T F T T F T T F
  F T F T T F T T F T T F T T F T T F T T F T T F T T F
  F T F T T F T T F T T F T T F T T F T T F T T F T T F
  F T F T T F T T F T T F T T F T T F T T F T T F T T F
  F T F T T F T T F T T F T T F T T F T T F T T F T T F
  F T F T T F T T F T T F T T F T T F T T F T T F T T F
  F T F T T F T T F T T F T T F T T F T T F T T F T T F
  F T F T T F T T F T T F T T F T T F T T F T T F T T F
  F T F T T F T T F T T F T T F T T F T T F T T F T T F
  F T F T T F T T F T T F T T F T T F T T F T T F T T F
  F T F T T F T T F T T F T T F T T F T T F T T F T T F
  F T F T T F T T F T T F T T F T T F T T F T T F T T F
  F T F T T F T T F T T F T T F T T F T T F T T F T T F
  F T F T T F T T F T T F T T F T T F T T F T T F T T F
  F T F T T F T T F T T F T T F T T F T T F T T F T T F
  F T F T T F T T F T T F T T F T T F T T F T T F T T F
  F T F T T F T T F T T F T T F T T F T T F T T F T T F
  F T F T T F T T F T T F T T F T T F T T F T T F T T F
  F T F T T F T T F T T F T T F T T F T T F T T F T T F
  F T F T T F T T F T T F T T F T T F T T F T T F T T F
  F T F T T F T T F T T F T T F T T F T T F T T F T T F
  F T F T T F T T F T T F T T F T T F T T F T T F T T F
  F T F T T F T T F T T F T T F T T F T T F T T F T T F
END_OF_TECHS

RESTRICTS
  PARAMS 0 40 8
  T T T T T T T T T
  T T T T T T T T T
  T T T T T T T T T
  T T T T T T T T T
  T T T T T T T T T
  T T T T T T T T T
  T T T T T T T T T
  T T T T T T T T T
  T T T T T T T T T
  T T T T T T T T T
  T T T T T T T T T
  T T T T T T T T T
  T T T T T T T T T
  T T T T T T T T T
  T T T T T T T T T
  T T T T T T T T T
  T T T T T T T T T
  T T T T T T T T T
  T T T T T T T T T
  T T T T T T T T T
  T T T T T T T T T
  T T T T T T T T T
  T T T T T T T T T
  T T T T T T T T T
  T T T T T T T T T
  T T T T T T T T T
  T T T T T T T T T
  T T T T T T T T T
  T T T T T T T T T
  T T T T T T T T T
  T T T T T T T T T
  T T T T T T T T T
  T T T T T T T T T
  T T T T T T T T T
  T T T T T T T T T
  T T T T T T T T T
  T T T T T T T T T
  T T T T T T T T T
  T T T T T T T T T
  T T T T T T T T T
  T T T T T T T T T
END_OF_RESTRICTS

MISSION_OBJECTIVES_FULL 0

SPECS
  PARAMS 4 8
    147 59 1
    F F F F F F F F F
    155 76 2
    F F F F F F F F F
    48 59 1
    F F F F F F F F F
    82 40 2
    F F F F F F F F F
  FLAG 0 0
END_OF_SPECS

BASES
  PARAMS T T

  POOL 1
    CANS 500
    OIL 200
    SIBERIUM 50

  BASE 1
    POOL_NUM 1
    SIDE 2
    UNIT 1
END_OF_BASES



RANDOMS
  MICROLOGIC 2 0 1
  RANDOM_SEED 1 -1382364085
  RANDOM_SEED 2 -1382364085
  RANDOM_SEED 3 1526045429
  RANDOM_SEED 4 -39176196
  RANDOM_SEED 5 -486337249
  RANDOM_SEED 6 -158637697
  RANDOM_SEED 7 -1137807398
  RANDOM_SEED 8 1751026996
  RANDOM_SEED 9 -263311872
  RANDOM_SEED 10 1874062472
  RANDOM_SEED 11 -443074555
  RANDOM_SEED 12 830641794
  RANDOM_SEED 13 1675014715
  RANDOM_SEED 14 378023
  RANDOM_SEED 15 -598868
  RANDOM_SEED 16 907772
  RANDOM_SEED 17 435943
  RANDOM_SEED 18 -842395273
  RANDOM_SEED 19 -142660047
  RANDOM_SEED 20 1478993357
  RANDOM_SEED 21 -469828371
  RANDOM_SEED 22 1875593761
  WIND_TIME 768819 768855 768882
  WIND_STRENGTH 36.7606167791381 52.0 53.3803083895691
  WIND_SCATTER 24.1066377870272
END_OF_RANDOMS

NEW_UNITS
  UNIT 1 BUILDING
    DEFINITION
      IDENT ar_depot
      POS 134 65 0
      SIDE 2
      NATION 2
      HP 1000
      BUILDING
        TYPE 35 LEVEL 7 BASE 1
    END_OF_DEFINITION
    GAME_STATE
      ACTION 0 T 1 1
      MOVE 134 65 0 6 F
      UNITMODE F 134 65
      STATE 4 24
      WEAPON_LOADING 0 0
      ATTACK 0 0 F 0
      PLAN 0 T
      ANIM_STATES 0 0 0 0
      MASHA_FLAG 0 DYING 0
      SELECTION 0 0 0 0
      DRAW 2842 1100 0
      FROM_TO_POS 134 65 0 134 65 0
      FROM_TO_XY 0 0 0 0
      LAST_ACTION 0
      BUILDING
    END_OF_GAME_STATE
  UNIT 2 BUILDING
    DEFINITION
      IDENT arbarr
      POS 134 78 0
      SIDE 2
      NATION 2
      HP 1000
      BUILDING
        TYPE 37 LEVEL 6 BASE 1
    END_OF_DEFINITION
    GAME_STATE
      ACTION 0 T 1 1
      MOVE 134 78 0 6 F
      UNITMODE F 134 78
      STATE 4 8
      WEAPON_LOADING 0 0
      ATTACK 0 0 F 0
      PLAN 0 T
      ANIM_STATES 0 0 0 0
      MASHA_FLAG 0 DYING 0
      SELECTION 0 0 0 0
      DRAW 2660 1334 0
      FROM_TO_POS 134 78 0 134 78 0
      FROM_TO_XY 0 0 0 0
      LAST_ACTION 0
      BUILDING
    END_OF_GAME_STATE
  UNIT 3 BUILDING
    DEFINITION
      POS 147 59 3
      SIDE 2
      NATION 2
      HP 1000
      BUILDING
        TYPE 59 LEVEL 6 BASE 1
    END_OF_DEFINITION
    GAME_STATE
      ACTION 0 T 111 1
      MOVE 147 59 3 6 F
      UNITMODE F 147 59
      STATE 4 8
      WEAPON_LOADING 0 0
      ATTACK 0 18 F 0
      PLAN 0 T
      ANIM_STATES 0 0 0 0
      MASHA_FLAG 0 DYING 0
      SELECTION 0 0 0 0
      DRAW 3290 992 0
      FROM_TO_POS 147 59 0 147 59 0
      FROM_TO_XY 0 0 0 0
      LAST_ACTION 0
      BUILDING
    END_OF_GAME_STATE
  UNIT 4 BUILDING
    DEFINITION
      IDENT arfact00
      POS 133 51 3
      SIDE 2
      NATION 2
      HP 1000
      BUILDING
        TYPE 39 LEVEL 6 BASE 1
    END_OF_DEFINITION
    GAME_STATE
      ACTION 0 T 1 1
      MOVE 133 51 3 6 F
      UNITMODE F 133 51
      STATE 4 24
      WEAPON_LOADING 0 0
      ATTACK 0 0 F 0
      PLAN 0 T
      ANIM_STATES 0 0 0 0
      MASHA_FLAG 0 DYING 0
      SELECTION 0 0 0 0
      DRAW 3010 848 0
      FROM_TO_POS 133 51 0 133 51 0
      FROM_TO_XY 0 0 0 0
      LAST_ACTION 0
      BUILDING
        USER_INTERFACE 1 1 1 1
    END_OF_GAME_STATE
  UNIT 5 BUILDING
    DEFINITION
      IDENT lab2
      POS 148 68 5
      SIDE 2
      NATION 2
      HP 1000
      BUILDING
        TYPE 50 LEVEL 6 BASE 1 PARAMS 52 55
    END_OF_DEFINITION
    GAME_STATE
      ACTION 0 T 1 1
      MOVE 148 68 5 6 F
      UNITMODE F 148 68
      STATE 4 24
      WEAPON_LOADING 0 0
      ATTACK 0 12 F 0
      PLAN 0 T
      ANIM_STATES 0 0 0 0
      MASHA_FLAG 0 DYING 0
      SELECTION 0 0 0 0
      DRAW 3192 1154 0
      FROM_TO_POS 148 68 0 148 68 0
      FROM_TO_XY 0 0 0 0
      LAST_ACTION 0
      BUILDING
        RESEARCH 0
    END_OF_GAME_STATE
  UNIT 6 BUILDING
    DEFINITION
      POS 124 55 2
      SIDE 2
      NATION 2
      HP 1000
      BUILDING
        TYPE 50 LEVEL 6 BASE 1 PARAMS 53 54
    END_OF_DEFINITION
    GAME_STATE
      ACTION 0 T 1 1
      MOVE 124 55 2 6 F
      UNITMODE F 124 55
      STATE 4 8
      WEAPON_LOADING 0 0
      ATTACK 0 12 F 0
      PLAN 0 T
      ANIM_STATES 0 0 0 0
      MASHA_FLAG 0 DYING 0
      SELECTION 0 0 0 0
      DRAW 2702 920 0
      FROM_TO_POS 124 55 0 124 55 0
      FROM_TO_XY 0 0 0 0
      LAST_ACTION 0
      BUILDING
        RESEARCH 0
    END_OF_GAME_STATE
  UNIT 7 BUILDING
    DEFINITION
      POS 129 51 1
      SIDE 2
      NATION 2
      HP 1000
      BUILDING
        TYPE 40 LEVEL 6 BASE 1
    END_OF_DEFINITION
    GAME_STATE
      ACTION 0 T 1 1
      MOVE 129 51 1 6 F
      UNITMODE F 129 51
      STATE 4 8
      WEAPON_LOADING 0 0
      ATTACK 0 6 F 0
      PLAN 0 T
      ANIM_STATES 0 0 0 0
      MASHA_FLAG 0 DYING 0
      SELECTION 0 0 0 0
      DRAW 2898 848 0
      FROM_TO_POS 129 51 0 129 51 0
      FROM_TO_XY 0 0 0 0
      LAST_ACTION 0
      BUILDING
    END_OF_GAME_STATE
  UNIT 8 BUILDING
    DEFINITION
      POS 137 55 5
      SIDE 2
      NATION 2
      HP 1000
      BUILDING
        TYPE 41 LEVEL 6 BASE 1
    END_OF_DEFINITION
    GAME_STATE
      ACTION 0 T 1 1
      MOVE 137 55 5 6 F
      UNITMODE F 137 55
      STATE 4 8
      WEAPON_LOADING 0 0
      ATTACK 0 30 F 0
      PLAN 0 T
      ANIM_STATES 0 0 0 0
      MASHA_FLAG 0 DYING 0
      SELECTION 0 0 0 0
      DRAW 3066 920 0
      FROM_TO_POS 137 55 0 137 55 0
      FROM_TO_XY 0 0 0 0
      LAST_ACTION 0
      BUILDING
    END_OF_GAME_STATE
  UNIT 9 BUILDING
    DEFINITION
      POS 130 48 2
      SIDE 2
      NATION 2
      HP 1000
      BUILDING
        TYPE 43 LEVEL 6 BASE 1
    END_OF_DEFINITION
    GAME_STATE
      ACTION 0 T 1 1
      MOVE 130 48 2 6 F
      UNITMODE F 130 48
      STATE 4 8
      WEAPON_LOADING 0 0
      ATTACK 0 12 F 0
      PLAN 0 T
      ANIM_STATES 0 0 0 0
      MASHA_FLAG 0 DYING 0
      SELECTION 0 0 0 0
      DRAW 2968 794 0
      FROM_TO_POS 130 48 0 130 48 0
      FROM_TO_XY 0 0 0 0
      LAST_ACTION 0
      BUILDING
    END_OF_GAME_STATE
  UNIT 10 BUILDING
    DEFINITION
      POS 136 51 4
      SIDE 2
      NATION 2
      HP 1000
      BUILDING
        TYPE 42 LEVEL 6 BASE 1
    END_OF_DEFINITION
    GAME_STATE
      ACTION 0 T 1 1
      MOVE 136 51 4 6 F
      UNITMODE F 136 51
      STATE 4 8
      WEAPON_LOADING 0 0
      ATTACK 0 24 F 0
      PLAN 0 T
      ANIM_STATES 0 0 0 0
      MASHA_FLAG 0 DYING 0
      SELECTION 0 0 0 0
      DRAW 3094 848 0
      FROM_TO_POS 136 51 0 136 51 0
      FROM_TO_XY 0 0 0 0
      LAST_ACTION 0
      BUILDING
    END_OF_GAME_STATE
  UNIT 11 BUILDING
    DEFINITION
      POS 133 47 3
      SIDE 2
      NATION 2
      HP 1000
      BUILDING
        TYPE 45 LEVEL 6 BASE 1
    END_OF_DEFINITION
    GAME_STATE
      ACTION 0 T 1 1
      MOVE 133 47 3 6 F
      UNITMODE F 133 47
      STATE 4 8
      WEAPON_LOADING 0 0
      ATTACK 0 18 F 0
      PLAN 0 T
      ANIM_STATES 0 0 0 0
      MASHA_FLAG 0 DYING 0
      SELECTION 0 0 0 0
      DRAW 3066 776 0
      FROM_TO_POS 133 47 0 133 47 0
      FROM_TO_XY 0 0 0 0
      LAST_ACTION 0
      BUILDING
    END_OF_GAME_STATE
  UNIT 12 BUILDING
    DEFINITION
      POS 144 53 3
      SIDE 2
      NATION 2
      HP 1000
      BUILDING
        TYPE 56 LEVEL 6 BASE 1
    END_OF_DEFINITION
    GAME_STATE
      ACTION 31 T 100 1
      MOVE 144 53 3 6 F
      UNITMODE F 144 53
      STATE 4 8
      WEAPON_LOADING 0 0
      ATTACK 0 18 F 0
      PLAN 0 T
      ANIM_STATES 0 0 0 0
      MASHA_FLAG 0 DYING 0
      SELECTION 0 0 0 0
      DRAW 3290 884 0
      FROM_TO_POS 144 53 0 144 53 0
      FROM_TO_XY 0 0 0 0
      LAST_ACTION 0
      BUILDING
    END_OF_GAME_STATE
  UNIT 13 BUILDING
    DEFINITION
      IDENT arbunk2
      POS 129 80 0
      SIDE 2
      NATION 2
      HP 1000
      BUILDING
        TYPE 62 LEVEL 8 BASE 1
    END_OF_DEFINITION
    GAME_STATE
      ACTION 0 T 1 1
      MOVE 129 80 0 6 F
      UNITMODE F 129 80
      STATE 4 8
      WEAPON_LOADING 0 0
      ATTACK 0 0 F 0
      PLAN 0 T
      ANIM_STATES 0 0 0 0
      MASHA_FLAG 0 DYING 0
      SELECTION 0 0 0 0
      DRAW 2492 1370 0
      FROM_TO_POS 129 80 0 129 80 0
      FROM_TO_XY 0 0 0 0
      LAST_ACTION 0
      BUILDING
        TURRET_WEAPON 26
        USER_INTERFACE 1 1 1 1
    END_OF_GAME_STATE
  UNIT 14 BUILDING
    DEFINITION
      IDENT arbunk0
      POS 133 89 2
      SIDE 2
      NATION 2
      HP 1000
      BUILDING
        TYPE 62 LEVEL 8 BASE 1
    END_OF_DEFINITION
    GAME_STATE
      ACTION 0 T 1 1
      MOVE 133 89 2 6 F
      UNITMODE F 133 89
      STATE 4 8
      WEAPON_LOADING 0 0
      ATTACK 0 12 F 0
      PLAN 0 T
      ANIM_STATES 0 0 0 0
      MASHA_FLAG 0 DYING 0
      SELECTION 0 0 0 0
      DRAW 2478 1532 0
      FROM_TO_POS 133 89 0 133 89 0
      FROM_TO_XY 0 0 0 0
      LAST_ACTION 0
      BUILDING
        TURRET_WEAPON 27
        USER_INTERFACE 1 1 1 1
    END_OF_GAME_STATE
  UNIT 15 BUILDING
    DEFINITION
      IDENT arbunk1
      POS 136 85 1
      SIDE 2
      NATION 2
      HP 1000
      BUILDING
        TYPE 62 LEVEL 7 BASE 1
    END_OF_DEFINITION
    GAME_STATE
      ACTION 0 T 1 1
      MOVE 136 85 1 6 F
      UNITMODE F 136 85
      STATE 4 8
      WEAPON_LOADING 0 0
      ATTACK 0 6 F 0
      PLAN 0 T
      ANIM_STATES 0 0 0 0
      MASHA_FLAG 0 DYING 0
      SELECTION 0 0 0 0
      DRAW 2618 1460 0
      FROM_TO_POS 136 85 0 136 85 0
      FROM_TO_XY 0 0 0 0
      LAST_ACTION 0
      BUILDING
        TURRET_WEAPON 28
        USER_INTERFACE 1 1 1 1
    END_OF_GAME_STATE
  UNIT 16 BUILDING
    DEFINITION
      IDENT arbunk3
      POS 113 42 2
      SIDE 2
      NATION 2
      HP 1000
      BUILDING
        TYPE 62 LEVEL 7 BASE 1
    END_OF_DEFINITION
    GAME_STATE
      ACTION 0 T 1 1
      MOVE 113 42 2 6 F
      UNITMODE F 113 42
      STATE 4 8
      WEAPON_LOADING 0 0
      ATTACK 0 12 F 0
      PLAN 0 T
      ANIM_STATES 0 0 0 0
      MASHA_FLAG 0 DYING 0
      SELECTION 0 0 0 0
      DRAW 2576 686 0
      FROM_TO_POS 113 42 0 113 42 0
      FROM_TO_XY 0 0 0 0
      LAST_ACTION 0
      BUILDING
        TURRET_WEAPON 25
        USER_INTERFACE 1 1 1 1
    END_OF_GAME_STATE
  UNIT 17 BUILDING
    DEFINITION
      IDENT arbunk4
      POS 123 35 2
      SIDE 2
      NATION 2
      HP 1000
      BUILDING
        TYPE 62 LEVEL 7 BASE 1
    END_OF_DEFINITION
    GAME_STATE
      ACTION 0 T 1 1
      MOVE 123 35 2 6 F
      UNITMODE F 123 35
      STATE 4 8
      WEAPON_LOADING 0 0
      ATTACK 0 12 F 0
      PLAN 0 T
      ANIM_STATES 0 0 0 0
      MASHA_FLAG 0 DYING 0
      SELECTION 0 0 0 0
      DRAW 2954 560 0
      FROM_TO_POS 123 35 0 123 35 0
      FROM_TO_XY 0 0 0 0
      LAST_ACTION 0
      BUILDING
        TURRET_WEAPON 25
        USER_INTERFACE 1 1 1 1
    END_OF_GAME_STATE
  UNIT 18 BUILDING
    DEFINITION
      IDENT arbunk5
      POS 130 31 3
      SIDE 2
      NATION 2
      HP 1000
      BUILDING
        TYPE 62 LEVEL 7 BASE 1
    END_OF_DEFINITION
    GAME_STATE
      ACTION 0 T 1 1
      MOVE 130 31 3 6 F
      UNITMODE F 130 31
      STATE 4 8
      WEAPON_LOADING 0 0
      ATTACK 0 18 F 0
      PLAN 0 T
      ANIM_STATES 0 0 0 0
      MASHA_FLAG 0 DYING 0
      SELECTION 0 0 0 0
      DRAW 3206 488 0
      FROM_TO_POS 130 31 0 130 31 0
      FROM_TO_XY 0 0 0 0
      LAST_ACTION 0
      BUILDING
        TURRET_WEAPON 25
        USER_INTERFACE 1 1 1 1
    END_OF_GAME_STATE
  UNIT 19 BUILDING
    DEFINITION
      POS 150 78 5
      SIDE 2
      NATION 2
      HP 1000
      BUILDING
        TYPE 58 LEVEL 7 BASE 1
    END_OF_DEFINITION
    GAME_STATE
      ACTION 28 T 100 1
      MOVE 150 78 5 6 F
      UNITMODE F 150 78
      STATE 4 8
      WEAPON_LOADING 0 0
      ATTACK 0 30 F 0
      PLAN 0 T
      ANIM_STATES 0 0 0 0
      MASHA_FLAG 0 DYING 0
      SELECTION 0 0 0 0
      DRAW 3108 1334 0
      FROM_TO_POS 150 78 0 150 78 0
      FROM_TO_XY 0 0 0 0
      LAST_ACTION 0
      BUILDING
    END_OF_GAME_STATE
  UNIT 20 BUILDING
    DEFINITION
      POS 155 76 4
      SIDE 2
      NATION 2
      HP 1000
      BUILDING
        TYPE 60 LEVEL 7 BASE 1
    END_OF_DEFINITION
    GAME_STATE
      ACTION 0 T 400 1
      MOVE 155 76 4 6 F
      UNITMODE F 155 76
      STATE 4 8
      WEAPON_LOADING 0 0
      ATTACK 0 24 F 0
      PLAN 0 T
      ANIM_STATES 0 0 0 0
      MASHA_FLAG 0 DYING 0
      SELECTION 0 0 0 0
      DRAW 3276 1298 0
      FROM_TO_POS 155 76 0 155 76 0
      FROM_TO_XY 0 0 0 0
      LAST_ACTION 0
      BUILDING
    END_OF_GAME_STATE
  UNIT 21 BUILDING
    DEFINITION
      POS 157 83 3
      SIDE 2
      NATION 2
      HP 1000
      BUILDING
        TYPE 58 LEVEL 7 BASE 1
    END_OF_DEFINITION
    GAME_STATE
      ACTION 28 T 100 1
      MOVE 157 83 3 6 F
      UNITMODE F 157 83
      STATE 4 8
      WEAPON_LOADING 0 0
      ATTACK 0 18 F 0
      PLAN 0 T
      ANIM_STATES 0 0 0 0
      MASHA_FLAG 0 DYING 0
      SELECTION 0 0 0 0
      DRAW 3234 1424 0
      FROM_TO_POS 157 83 0 157 83 0
      FROM_TO_XY 0 0 0 0
      LAST_ACTION 0
      BUILDING
    END_OF_GAME_STATE
  UNIT 26 HUMAN
    DEFINITION
      POS 5 3 5
      SIDE 0
      NATION 0
      HP 1000
      HUMAN
        NAME Susy
        SEX 1
        ATTR 10 10
        CLASS 12
        BSKILLS 0 0 0 0
        EXPERIENCES 6454 10558 26093 11886
        COLORS 6583945 2703190
        COLOR_CODE 8BM
        FACE 0
        SPEAKER D
        VOICE 255
        RANDOM_SEED 296444141
    END_OF_DEFINITION
    GAME_STATE
      ACTION 0 F 1 1
      MOVE 5 3 5 6 F
      UNITMODE T 5 3
      STATE 4 24
      WEAPON_LOADING 0 0
      ATTACK 0 0 F 0
      PLAN 0 T
      ANIM_STATES 0 0 0 0
      MASHA_FLAG 0 DYING 0
      SELECTION 0 0 0 0
      DRAW 98 54 0
      FROM_TO_POS 5 3 5 5 3 5
      FROM_TO_XY 98 54 98 54
      LAST_ACTION 0
      HUMAN
        LIMITS 127500 127500 127500 127500
        ANIM_LEGS T
        ACTIVE_ATTACK 1
        APEMAN_PARAMS 0 0 0 0
    END_OF_GAME_STATE
  UNIT 27 HUMAN
    DEFINITION
      POS 13 12 1
      SIDE 0
      NATION 0
      HP 1000
      HUMAN
        NAME Torham
        SEX 1
        ATTR 10 10
        CLASS 12
        BSKILLS 0 0 0 0
        EXPERIENCES 24421 19523 19253 18009
        COLORS 9149870 5076634
        COLOR_CODE 8BM
        FACE 0
        SPEAKER D
        VOICE 255
        RANDOM_SEED -1900489553
    END_OF_DEFINITION
    GAME_STATE
      ACTION 0 F 1 1
      MOVE 13 12 1 6 F
      UNITMODE T 13 12
      STATE 4 24
      WEAPON_LOADING 0 0
      ATTACK 0 0 F 0
      PLAN 0 T
      ANIM_STATES 0 0 0 0
      MASHA_FLAG 0 DYING 0
      SELECTION 0 0 0 0
      DRAW 196 216 0
      FROM_TO_POS 13 12 1 13 12 1
      FROM_TO_XY 196 216 196 216
      LAST_ACTION 0
      HUMAN
        LIMITS 127500 127500 127500 127500
        ANIM_LEGS T
        ACTIVE_ATTACK 1
        APEMAN_PARAMS 0 0 0 0
    END_OF_GAME_STATE
  UNIT 28 HUMAN
    DEFINITION
      POS 16 9 4
      SIDE 0
      NATION 0
      HP 1000
      HUMAN
        NAME Garm
        SEX 1
        ATTR 10 10
        CLASS 12
        BSKILLS 0 0 0 0
        EXPERIENCES 2082 10911 11988 23777
        COLORS 5992571 2041658
        COLOR_CODE 8BM
        FACE 0
        SPEAKER D
        VOICE 255
        RANDOM_SEED 1818947623
    END_OF_DEFINITION
    GAME_STATE
      ACTION 0 F 1 1
      MOVE 16 9 4 6 F
      UNITMODE T 16 9
      STATE 4 24
      WEAPON_LOADING 0 0
      ATTACK 0 0 F 0
      PLAN 0 T
      ANIM_STATES 0 0 0 0
      MASHA_FLAG 0 DYING 0
      SELECTION 0 0 0 0
      DRAW 322 162 0
      FROM_TO_POS 16 9 4 16 9 4
      FROM_TO_XY 322 162 322 162
      LAST_ACTION 0
      HUMAN
        LIMITS 127500 127500 127500 127500
        ANIM_LEGS T
        ACTIVE_ATTACK 1
        APEMAN_PARAMS 0 0 0 0
    END_OF_GAME_STATE
  UNIT 29 HUMAN
    DEFINITION
      POS 18 3 0
      SIDE 0
      NATION 0
      HP 1000
      HUMAN
        NAME Arpag
        SEX 1
        ATTR 10 10
        CLASS 12
        BSKILLS 0 0 0 0
        EXPERIENCES 18863 26310 7170 9989
        COLORS 6979731 2176066
        COLOR_CODE 8BM
        FACE 0
        SPEAKER D
        VOICE 255
        RANDOM_SEED -1089172691
    END_OF_DEFINITION
    GAME_STATE
      ACTION 0 F 1 1
      MOVE 18 3 0 6 F
      UNITMODE T 18 3
      STATE 4 24
      WEAPON_LOADING 0 0
      ATTACK 0 0 F 0
      PLAN 0 T
      ANIM_STATES 0 0 0 0
      MASHA_FLAG 0 DYING 0
      SELECTION 0 0 0 0
      DRAW 462 54 0
      FROM_TO_POS 18 3 0 18 3 0
      FROM_TO_XY 462 54 462 54
      LAST_ACTION 0
      HUMAN
        LIMITS 127500 127500 127500 127500
        ANIM_LEGS T
        ACTIVE_ATTACK 1
        APEMAN_PARAMS 0 0 0 0
    END_OF_GAME_STATE
  UNIT 30 HUMAN
    DEFINITION
      POS 69 53 1
      SIDE 0
      NATION 0
      HP 1000
      HUMAN
        NAME Kada
        SEX 1
        ATTR 10 10
        CLASS 12
        BSKILLS 0 0 0 0
        EXPERIENCES 3840 13333 2144 8796
        COLORS 6979731 3096677
        COLOR_CODE 8BM
        FACE 0
        SPEAKER E
        VOICE 255
        RANDOM_SEED 1635231006
    END_OF_DEFINITION
    GAME_STATE
      ACTION 0 F 1 1
      MOVE 69 53 1 6 F
      UNITMODE T 69 53
      STATE 4 24
      WEAPON_LOADING 0 0
      ATTACK 0 0 F 0
      PLAN 0 T
      ANIM_STATES 0 0 0 0
      MASHA_FLAG 0 DYING 0
      SELECTION 0 0 0 0
      DRAW 1190 954 0
      FROM_TO_POS 69 53 1 69 53 1
      FROM_TO_XY 1190 954 1190 954
      LAST_ACTION 0
      HUMAN
        LIMITS 127500 127500 127500 127500
        ANIM_LEGS T
        ACTIVE_ATTACK 1
        APEMAN_PARAMS 0 0 0 0
    END_OF_GAME_STATE
  UNIT 36 VEHICLE
    DEFINITION
      POS 143 70 3
      SIDE 2
      NATION 2
      HP 1000
      VEHICLE
        CHASSIS 13 COMBINATION 3 1 26
    END_OF_DEFINITION
    GAME_STATE
      ACTION 0 F 1 1
      MOVE 143 70 3 6 F
      UNITMODE T 143 70
      STATE 4 24
      WEAPON_LOADING 0 0
      ATTACK 0 0 F 0
      PLAN 0 T
      ANIM_STATES 0 0 0 0
      MASHA_FLAG 0 DYING 0
      SELECTION 0 0 0 0
      DRAW 3024 1190 18
      FROM_TO_POS 143 70 3 143 70 3
      FROM_TO_XY 3024 1190 3024 1190
      LAST_ACTION 0
      VEHICLE
        WEAPON_DEST_DIR 0
        ANIM 0 T
        LEAN 0 0 0
    END_OF_GAME_STATE
  UNIT 39 VEHICLE
    DEFINITION
      POS 125 47 4
      SIDE 2
      NATION 2
      HP 1000
      VEHICLE
        CHASSIS 14 COMBINATION 3 1 31
    END_OF_DEFINITION
    GAME_STATE
      ACTION 0 F 1 1
      MOVE 125 47 4 6 F
      UNITMODE T 125 47
      STATE 4 24
      WEAPON_LOADING 0 0
      ATTACK 0 24 F 0
      PLAN 0 T
      ANIM_STATES 0 0 0 0
      MASHA_FLAG 0 DYING 0
      SELECTION 0 0 0 0
      DRAW 2842 776 24
      FROM_TO_POS 125 47 4 125 47 4
      FROM_TO_XY 2842 776 2842 776
      LAST_ACTION 0
      VEHICLE
        WEAPON_DEST_DIR 24
        ANIM 0 T
        LEAN 0 0 0
    END_OF_GAME_STATE
  UNIT 43 VEHICLE
    DEFINITION
      POS 129 71 2
      SIDE 2
      NATION 2
      HP 1000
      VEHICLE
        CHASSIS 14 COMBINATION 1 2 28
    END_OF_DEFINITION
    GAME_STATE
      ACTION 0 F 1 1
      MOVE 129 71 2 6 F
      UNITMODE T 129 71
      STATE 4 24
      WEAPON_LOADING 0 0
      ATTACK 0 12 F 0
      PLAN 0 T
      ANIM_STATES 0 0 0 0
      MASHA_FLAG 0 DYING 0
      SELECTION 0 0 0 0
      DRAW 2618 1208 12
      FROM_TO_POS 129 71 2 129 71 2
      FROM_TO_XY 2618 1208 2618 1208
      LAST_ACTION 0
      VEHICLE
        NEW_FUEL 80000 F
        WEAPON_DEST_DIR 12
        ANIM 0 T
        LEAN 0 0 0
    END_OF_GAME_STATE
  UNIT 44 BUILDING
    DEFINITION
      POS 136 43 2
      SIDE 2
      NATION 2
      HP 1000
      BUILDING
        TYPE 58 LEVEL 6 BASE 1
    END_OF_DEFINITION
    GAME_STATE
      ACTION 28 T 100 1
      MOVE 136 43 2 6 F
      UNITMODE F 136 43
      STATE 4 24
      WEAPON_LOADING 0 0
      ATTACK 0 30 F 0
      PLAN 0 T
      ANIM_STATES 0 0 0 0
      MASHA_FLAG 0 DYING 0
      SELECTION 0 0 0 0
      DRAW 3206 704 0
      FROM_TO_POS 136 43 0 136 43 0
      FROM_TO_XY 0 0 0 0
      LAST_ACTION 0
      BUILDING
    END_OF_GAME_STATE
  UNIT 45 BUILDING
    DEFINITION
      POS 152 85 4
      SIDE 2
      NATION 2
      HP 1000
      BUILDING
        TYPE 58 LEVEL 6 BASE 1
    END_OF_DEFINITION
    GAME_STATE
      ACTION 28 T 100 1
      MOVE 152 85 4 6 F
      UNITMODE F 152 85
      STATE 4 24
      WEAPON_LOADING 0 0
      ATTACK 0 6 F 0
      PLAN 0 T
      ANIM_STATES 0 0 0 0
      MASHA_FLAG 0 DYING 0
      SELECTION 0 0 0 0
      DRAW 3066 1460 0
      FROM_TO_POS 152 85 0 152 85 0
      FROM_TO_XY 0 0 0 0
      LAST_ACTION 0
      BUILDING
    END_OF_GAME_STATE
  UNIT -1 CRATE
    DEFINITION
      POS 128 58 0
      SIDE 0
      NATION 254
      HP 200
      CRATE
        SIZE 4 -1 CRATE_TYPE 4
    END_OF_DEFINITION
    GAME_STATE
    CRATERS 2 -10 -6
    END_OF_GAME_STATE
  UNIT -1 CRATE
    DEFINITION
      POS 143 65 2
      SIDE 0
      NATION 39
      HP 200
      CRATE
        SIZE 5 -1 CRATE_TYPE 4
    END_OF_DEFINITION
    GAME_STATE
    CRATERS 2 -5 -9
    END_OF_GAME_STATE
END_OF_NEW_UNITS

COLDMEAT
END_OF_COLDMEAT

FOGOBJ
END_OF_FOGOBJ

MISSILES
END_OF_MISSILES

EXPLOSIONS
END_OF_EXPLOSIONS

CRATERS_NEW
END_OF_CRATERS_NEW

LAPSER_EFECTS
END_OF_LAPSER_EFECTS

LASER_EFECTS
END_OF_LASER_EFECTS

USER_INTERFACE
  VIEW 1748 856 1654 734 1
  MASHA_FLAG 2 F F
END_OF_USER_INTERFACE

MC_COMMANDS
END_OF_MC_COMMANDS

DEBRIEFING
SIDE 0 10
  LINES
SIDE 1 10
  LINES
SIDE 2 10
  LINES
SIDE 3 10
  LINES
SIDE 4 10
  LINES
SIDE 5 10
  LINES
SIDE 6 10
  LINES
SIDE 7 10
  LINES
SIDE 8 10
  LINES
END_OF_DEBRIEFING

AREAS
  ACTIVE 0
  LAST 57
END_OF_AREAS

