3548415 3548415 3548415 3548415
16740566 16740566 16740566 16740566
12058427 12058427 12058427 12058427
14680030 14680030 14680030 14680030
5680518 5680518 5680518 5680518
16252927 16252927 16252927 16252927
6589908 6589908 6589908 6589908
4876702 4876702 4876702 4876702
6731757 6731757 6731757 6731757
8444927 8444927 8444927 8444927
11343923 11343923 11343923 11343923
16761950 16761950 16761950 16761950
16770493 16770493 16770493 16770493
8390162 8390162 8390162 8390162
0 0 0 0
16711680 16711680 0 16711680
2055245 2055245 0 2055245
11711154 11711154 0 0
8388608 8388608 0 8388608
8189888 8189888 0 0
7907839 7907839 0 0
13221557 13221557 0 13221557
0 0 0 0
2438223 2438223 0 2709137
7929754 7929754 0 13357519
7599601 7599601 0 16727327
7242239 7242239 0 16537113
2277130 2277130 0 2277130
0 0 0 0
0 0 0 0
0 0 0 0
0 0 0 0
0 0 0 0
0 0 0 0
0 0 0 0
0 0 0 0
0 0 0 0
0 0 0 0
0 0 0 0
0 0 0 0
0 0 0 0
0 0 0 0
0 0 0 0
0 0 0 0
0 0 0 0
0 0 0 0
0 0 0 0
0 0 0 0
0 0 0 0
0 0 0 0
0 0 0 0
0 0 0 0
0 0 0 0
0 0 0 0
0 0 0 0
0 0 0 0
0 0 0 0
0 0 0 0
0 0 0 0
0 0 0 0
0 0 0 0
0 0 0 0
0 0 0 0
0 0 0 0
0 0 0 0
0 0 0 0
0 0 0 0
0 0 0 0
0 0 0 0
0 0 0 0
0 0 0 0
0 0 0 0
0 0 0 0
0 0 0 0
0 0 0 0
0 0 0 0
0 0 0 0
0 0 0 0
0 0 0 0
0 0 0 0
0 0 0 0
0 0 0 0
0 0 0 0
0 0 0 0
0 0 0 0
0 0 0 0
0 0 0 0
0 0 0 0
0 0 0 0
0 0 0 0
0 0 0 0
0 0 0 0
0 0 0 0
0 0 0 0
0 0 0 0
0 0 0 0
0 0 0 0
0 0 0 0
0 0 0 0
0 0 0 0
0 0 0 0
0 0 0 0
0 0 0 0
0 0 0 0
0 0 0 0
0 0 0 0
0 0 0 0
0 0 0 0
0 0 0 0
0 0 0 0
0 0 0 0
0 0 0 0
0 0 0 0
0 0 0 0
0 0 0 0
0 0 0 0
0 0 0 0
0 0 0 0
0 0 0 0
0 0 0 0
0 0 0 0
0 0 0 0
0 0 0 0
0 0 0 0
0 0 0 0
0 0 0 0
0 0 0 0
0 0 0 0
0 0 0 0
0 0 0 0
0 0 0 0
0 0 0 0
0 0 0 0
0 0 0 0
0 0 0 0
0 0 0 0
0 0 0 0
0 0 0 0
0 0 0 0
0 0 0 0
0 0 0 0
0 0 0 0
0 0 0 0
0 0 0 0
0 0 0 0
0 0 0 0
0 0 0 0
0 0 0 0
0 0 0 0
0 0 0 0
0 0 0 0
0 0 0 0
0 0 0 0
0 0 0 0
0 0 0 0
0 0 0 0
0 0 0 0
0 0 0 0
0 0 0 0
0 0 0 0
0 0 0 0
0 0 0 0
0 0 0 0
0 0 0 0
0 0 0 0
0 0 0 0
0 0 0 0
0 0 0 0
0 0 0 0
0 0 0 0
0 0 0 0
0 0 0 0
0 0 0 0
0 0 0 0
0 0 0 0
0 0 0 0
0 0 0 0
0 0 0 0
0 0 0 0
0 0 0 0
0 0 0 0
0 0 0 0
0 0 0 0
0 0 0 0
0 0 0 0
0 0 0 0
0 0 0 0
0 0 0 0
0 0 0 0
0 0 0 0
0 0 0 0
0 0 0 0
0 0 0 0
0 0 0 0
0 0 0 0
0 0 0 0
0 0 0 0
0 0 0 0
0 0 0 0
0 0 0 0
0 0 0 0
0 0 0 0
0 0 0 0
0 0 0 0
0 0 0 0
0 0 0 0
0 0 0 0
0 0 0 0
0 0 0 0
0 0 0 0
0 0 0 0
0 0 0 0
0 0 0 0
0 0 0 0
0 0 0 0
0 0 0 0
0 0 0 0
0 0 0 0
0 0 0 0
0 0 0 0
0 0 0 0
0 0 0 0
0 0 0 0
0 0 0 0
0 0 0 0
0 0 0 0
0 0 0 0
0 0 0 0
0 0 0 0
0 0 0 0
0 0 0 0
0 0 0 0
0 0 0 0
0 0 0 0
0 0 0 0
0 0 0 0
0 0 0 0
0 0 0 0
0 0 0 0
0 0 0 0
0 0 0 0
0 0 0 0
0 0 0 0
0 0 0 0
0 0 0 0
0 0 0 0
0 0 0 0
0 0 0 0
0 0 0 0
0 0 0 0
0 0 0 0
0 0 0 0
0 0 0 0
0 0 0 0
0 0 0 0
0 0 0 0
Button text
16777215 16252927 16252927 0
"ADMUI3Lg10x10"
"ADMUI3Lg10x10"
"ADMUI3Lg10x10"
"BankGothic Lt BTH14W7"

NewButton text
0 0 0 16767388
"ADMUI3Lg10x10"
"ADMUI3Lg10x10"
"ADMUI3Lg10x10"
"BankGothic Lt BTH14W7"

DisabledButton text
0 0 0 12434619
"ADMUI3Lg10x10"
"ADMUI3Lg10x10"
"ADMUI3Lg10x10"
"BankGothic Lt BTH14W7"

Version text
0 0 0 16252927
"ADMUI3Lg10x10"
"ADMUI3Lg10x10"
"ADMUI3Lg10x10"
"BankGothic Lt BTH14W7"

Button text disable
9545360 9545360 9545360 9545360
""
""
""
""

Button text hi-light
12634833 8444927 8444927 8444927
""
""
""
""

Button text hi-light disable
3104329 3104329 3104329 3104329
""
""
""
""

pro 1024 a 800 loading text
11711154 11711154 16252927 0
"ADMUI3Lg10x10"
"ADMUI3Lg10x10"
"ADMUI3Lg10x10"
"BankGothic Lt BTH14W7"

Listbox text
16777215 16252927 16252927 0
"ADMUI3Lg10x10"
"ADMUI3Lg10x10"
"ADMUI3Lg10x10"
"Tahoma13"

Listbox back
6589908 13904403 7039052 11575700
""
""
""
""

Listbox lista active
4876702 4876702 4876702 4876702
""
""
""
""

Listbox lista inactive
5594178 5594178 5594178 5594178
""
""
""
""

Edit text
16777215 14541011 14541011 14541011
"ADMUI3Lg10x10"
"ADMUI3Lg10x10"
"ADMUI3Lg10x10"
"Tahoma13"

Edit border active
8943607 8943607 8943607 16252927
""
""
""
""

Edit border inactive
8444927 8444927 8444927 16252927
""
""
""
""

Combobox text
16777215 16252927 16252927 16252927
"ADMUI3Lg10x10"
"ADMUI3Lg10x10"
"ADMUI3Lg10x10"
"ADMUI3Lg10x10"

Combobox pozadi active
7303341 7303341 7303341 7303341
""
""
""
""

Combobox pozadi inactive
10198177 10198177 10198177 10198177
""
""
""
""

Label text
16777215 14680030 14680030 14680030
"ADMUI3Lg10x10"
"ADMUI3Lg10x10"
"ADMUI3Lg10x10"
"ADMUI3Lg10x10"

Label text hi-light
16746401 16746401 16746401 16746401
""
""
""
""

Label text outline
0 0 0 0
""
""
""
""

ScrollBar pozadi
4876702 4876702 4876702 4876702
""
""
""
""

ScrollBar ramecek
4876702 4876702 4876702 4876702
""
""
""
""

CheckBox text
11711154 16252927 16252927 16252927
"ADMUI3Lg10x10"
"ADMUI3Lg10x10"
"ADMUI3Lg10x10"
"ADMUI3Lg10x10"

CheckBox checked
6064109 6064109 6064109 6064109
""
""
""
""

CheckBox border
8444927 8444927 8444927 8444927
""
""
""
""

GameScreen Vypisy text
8444927 4023102 8444927 8444927
"ADMUI3Lg10x10"
"ADMUI3Lg10x10"
"ADMUI3Lg10x10"
"ADMUI3Lg10x10"

GameScreen Hint Label text
8444927 8444927 8444927 8444927
"ADMUI3Lg10x10"
"ADMUI3Lg10x10"
"ADMUI3Lg10x10"
"ADMUI3Lg10x10"

GameScreen Hint Label text Outline
0 0 0 0
"tahoma_bold_11"
"tahoma_bold_11"
"tahoma_bold_11"
""

GameScreen Hint Label text hi-light
16740566 16740566 16740566 16740566
""
""
""
""

Mis. obj. new text
16770493 16770493 16770493 16770493
"ADMUI3Lg10x10"
"ADMUI3Lg10x10"
"ADMUI3Lg10x10"
"ADMUI3Lg10x10"

Mis. obj. old text
16758602 16758602 16758602 16758602
"ADMUI3Lg10x10"
"ADMUI3Lg10x10"
"ADMUI3Lg10x10"
"ADMUI3Lg10x10"

Mis. obj. outstriked text
8390162 8390162 8390162 8390162
"ADMUI3Lg10x10"
"ADMUI3Lg10x10"
"ADMUI3Lg10x10"
"ADMUI3Lg10x10"

Mis. obj. caption text
16252927 16252927 16252927 16252927
"ADMUI3Lg10x10"
"ADMUI3Lg10x10"
"ADMUI3Lg10x10"
"ADMUI3Lg10x10"

2Loading Label text
8390162 8390162 8390162 8390162
"trebuchet ms H20Wdefault"
"trebuchet ms H20Wdefault"
"trebuchet ms H20Wdefault"
"trebuchet ms H20Wdefault"

Loading Label text
11711154 11711154 11711154 11711154
"trebuchet ms H20Wdefault"
"trebuchet ms H20Wdefault"
"trebuchet ms H20Wdefault"
"trebuchet ms H20Wdefault"

Loading Label text Outline
16740566 16740566 16740566 16740566
"tahoma_bold_20"
"tahoma_bold_20"
"tahoma_bold_20"
""

Loading Label text hi-light
16740566 16740566 16740566 16740566
"tahoma_bold_20"
"tahoma_bold_20"
"tahoma_bold_20"
""

Minimap Frame
16252927 16252927 16252927 16252927
""
""
""
""

TeamForm UnitName text
16770493 16770493 16770493 0
"ADMUI3Lg10x10"
"ADMUI3Lg10x10"
"ADMUI3Lg10x10"
""

Menu text
11711154 11711154 11711154 11711154
"BankGothic Lt BTH14W7"
"BankGothic Lt BTH14W7"
"BankGothic Lt BTH14W7"
"tahoma_bold_13"

Menu2 text
16777215 16770493 16770493 0
"BankGothic_Md_BTH14W8w98"
"ADMUI3Lg10x10"
"ADMUI3Lg10x10"
"Lucida ConsoleH14W7B"

1024Factory listbox text
16252671 16770493 16770493 0
"ADMUI3SmH10W10"
"ADMUI3SmH10W10"
"ADMUI3SmH10W10"
"BankGothic Lt BTH14W7"

1024Factory listbox back
2055245 8390162 8390162 11575700
""
""
""
""

800Factory listbox text
16252671 16770493 16770493 0
"ADMUI3SmH10W10"
"ADMUI3SmH10W10"
"ADMUI3SmH10W10"
"Tahoma13"

800Factory listbox back
2055245 8390162 8390162 16770493
""
""
""
""

640Factory listbox text
16252671 16770493 16770493 0
"Small Fonts 10-6"
"Small Fonts 10-6"
"Small Fonts 10-6"
"ADMUI3SmH10W10"

640Factory listbox back
3314812 8390162 8390162 16770493
""
""
""
""

pro amiky 640 loading listbox text
11711154 11711154 16770493 0
"ADMUI3SmH10W10"
"ADMUI3SmH10W10"
"ADMUI3SmH10W10"
"Tahoma13"

Teamform select face
6881047 16770493 16770493 16770493
""
""
""
""

Teamform inactive select face
3374347 -1 -1 -1
""
""
""
""

Teamform unselected face
-1 -1 -1 -1
""
""
""
""

Teamform face text
6936165 16770493 16770493 16770493
"ADMUI3Lg10x10"
"ADMUI3Lg10x10"
"ADMUI3Lg10x10"
"tahoma_bold_10"

FacePanel Selection Frame1
6881047 6881047 6881047 0
""
""
""
""

FacePanel Selection Frame2
15465983 15465983 15465983 0
""
""
""
""

FacePanel Flash1
16711680 16711680 16711680 0
""
""
""
""

FacePanel Flash2
7864125 7864125 7864125 0
""
""
""
""

FacePanel Flash3
6749439 6749439 6749439 0
""
""
""
""

InfoPanel BuildingDesc text
6936165 16770493 16770493 16770493
"ADMUI3Lg10x10"
"ADMUI3Lg10x10"
"ADMUI3Lg10x10"
"tahoma_bold_10"

zelenej 800 text
6936165 16770493 16770493 16770493
"ADMUI3SmH10W10"
"ADMUI3SmH10W10"
"ADMUI3SmH10W10"
"ADMUI3SmH10W10"

zelenej 640 text
6936165 16770493 16770493 16770493
"Small Fonts 10-6"
"Small Fonts 10-6"
"Small Fonts 10-6"
"Small Fonts 10-6"

Load listbox text
16252671 16252671 16770493 8878436
"ADMUI3Lg10x10"
"ADMUI3Lg10x10"
"ADMUI3Lg10x10"
""

Load listbox back
2761182 8390162 16770493 16770493
""
""
""
""

InfoPanel Text
5680518 16770493 16770493 16770493
"ADMUI3SmH10W10"
"ADMUI3SmH10W10"
"ADMUI3SmH10W10"
"ADMUI3Lg10x10"

InfoPanel 800 Text
5680518 16770493 16770493 16770493
"Small Fonts 10-6"
"Small Fonts 10-6"
"Small Fonts 10-6"
"ADMUI3SmH10W10"

InfoPanel 640 Text
5680518 16770493 16770493 16770493
"Small Fonts 10-6"
"Small Fonts 10-6"
"Small Fonts 10-6"
"Small Fonts 10-6"

SkillsUp aktold
16761950 16770493 16770493 16770493
""
""
""
""

SkillsUp aktnew
16711680 16770493 16770493 16770493
""
""
""
""

SkillsUp old
11240255 16770493 16770493 16770493
""
""
""
""

SkillsUp oldnew
11665408 16770493 16770493 16770493
""
""
""
""

SkillsUp oldrel
3291960 16770493 16770493 16770493
""
""
""
""

Profile listbox text
16252671 16770493 16770493 16770493
"ADMUI3SmH10W10"
"ADMUI3SmH10W10"
"ADMUI3SmH10W10"
""

Profile listbox back
2761182 8390162 16770493 553745
""
""
""
""

Help listbox text
12566463 12566463 12566463 12566463
"Tahoma13"
"Tahoma13"
"Tahoma13"
"Tahoma13"

Help listbox back
2761182 2761182 2761182 2761182
""
""
""
""

Help normal text
11053224 11053224 11053224 11053224
"Tahoma13"
"Tahoma13"
"Tahoma13"
"Tahoma13"

Help nadpis text
11343923 11343923 11343923 11343923
"Lucida ConsoleH14W7B"
"Lucida ConsoleH14W7B"
"Lucida ConsoleH14W7B"
"Lucida ConsoleH14W7B"

Help target text
6731757 6731757 6731757 6731757
"Tahoma13"
"Tahoma13"
"Tahoma13"
"Tahoma13"

Help bold text
8444927 8444927 8444927 8444927
"Tahoma13"
"Tahoma13"
"Tahoma13"
"Tahoma13"

Help italic text
8257444 8257444 8257444 8257444
"Tahoma13"
"Tahoma13"
"Tahoma13"
"Tahoma13"

Help caption text
8257444 8257444 8257444 8257444
"ADMUI3SmH10W10"
"ADMUI3SmH10W10"
"ADMUI3SmH10W10"
"ADMUI3SmH10W10"

Debriefing Hlavni minuty text
7907839 7907839 16252927 0
"ADMUI3SmH10W10"
"ADMUI3SmH10W10"
"ADMUI3SmH10W10"
"ADMUI3SmH10W10"

pro rusa 640 loading Hlavni minuty text
11711154 11711154 16252927 0
"ADMUI3SmH10W10"
"ADMUI3SmH10W10"
"ADMUI3SmH10W10"
"ADMUI3SmH10W10"

Debriefing Hlavni minuty
7907839 7907839 16252927 0
""
""
""
""

Debriefing Minuty
7907839 7907839 16777215 0
""
""
""
""

Debriefing Pozadi
2438223 1710618 1710618 0
""
""
""
""

Debriefing SilaLidi
8519728 8390162 8388608 0
""
""
""
""

Debriefing SilaAut
1917585 4876702 2709137 0
""
""
""
""

Debriefing SilaBudov
10593089 16761950 10593089 0
""
""
""
""

Multi Big text
15460380 15460380 15460380 15460380
""
""
""
""

Multi Normal text
0 0 0 8444927
""
""
""
"ADMUI3Lg10x10"

Barvy text
0 0 0 0
"ADMUI3SmH10W10"
"ADMUI3SmH10W10"
"ADMUI3SmH10W10"
"ADMUI3SmH10W10"

Barvy back
0 0 0 0
""
""
""
""

Friend
574976 574976 574976 574976
""
""
""
""

Neutral
16776960 16761950 16761950 16761950
""
""
""
""

Enemy
16711680 16711680 16711680 16711680
""
""
""
""

nadpisy pro 640 text
8390162 8390162 16740566 16711680
"Lucida ConsoleH14W7B"
"Lucida ConsoleH14W7B"
"Lucida ConsoleH14W7B"
"Lucida ConsoleH14W7B"

nadpis loadu-zelenej text
2277130 2277130 16740566 2277130
"trebuchet ms H20Wdefault"
"trebuchet ms H20Wdefault"
"trebuchet ms H20Wdefault"
"tahoma_bold_20"

ToolTip text
8444927 8444927 8444927 8444927
"ADMUI3SmH10W10"
"ADMUI3SmH10W10"
"ADMUI3SmH10W10"
"ADMUI3Lg10x10"

Campaign Map List Text
5680518 16770493 8444927 8444927
"ADMUI3Lg10x10"
"ADMUI3Lg10x10"
"ADMUI3Lg10x10"
"ADMUI3Lg10x10"

Resource Panel Text
5680518 16770493 8444927 8444927
"ADMUI3SmH10W10"
"ADMUI3SmH10W10"
"ADMUI3SmH10W10"
"ADMUI3SmH10W10"

Resource Panel 800 Text
5680518 16770493 8444927 8444927
"Small Fonts 10-6"
"Small Fonts 10-6"
"Small Fonts 10-6"
"Small Fonts 10-6"

Resource Panel 640 Text
5680518 16770493 8444927 8444927
"Small Fonts 10-6"
"Small Fonts 10-6"
"Small Fonts 10-6"
"Small Fonts 10-6"

Log dialogs
16252927 16252927 16252927 16252927
""
""
""
""

Log messages
16711680 16711680 16711680 16711680
""
""
""
""

Log hints
2277130 2277130 2277130 2277130
""
""
""
""

Log query
9568130 12451742 16252927 16252927
""
""
""
""

Log queryanswer
16765314 16772211 16711680 16711680
""
""
""
""

Log querychoosenanswer
12545461 11235775 2277130 2277130
""
""
""
""

novej font 1024 text
11711154 11711154 16252927 0
"trebuchet ms H20Wdefault"
"trebuchet ms H20Wdefault"
"trebuchet ms H20Wdefault"
"trebuchet ms H20Wdefault"

novej font 800 text
11711154 11711154 16252927 0
"Trebuchet MS 19,0"
"Trebuchet MS 19,0"
"Trebuchet MS 19,0"
"Trebuchet MS 19,0"

novej font 640 text
11711154 11711154 16252927 0
"Trebuchet MS 18,0"
"Trebuchet MS 18,0"
"Trebuchet MS 18,0"
"Trebuchet MS 18,0"

